#FIG 3.2  Produced by xfig version 3.2.5c
Landscape
Center
Inches
A4      
200.00
Single
-2
1200 2
1 3 0 1 0 7 50 -1 -1 0.000 1 0.0000 210 240 76 76 210 240 286 240
1 3 0 1 0 7 50 -1 -1 0.000 1 0.0000 1470 240 76 76 1470 240 1546 240
1 3 0 1 0 7 50 -1 -1 0.000 1 0.0000 1470 1830 76 76 1470 1830 1546 1830
1 3 0 1 0 7 50 -1 -1 0.000 1 0.0000 840 1020 76 76 840 1020 916 1020
1 3 0 1 0 7 50 -1 -1 0.000 1 0.0000 210 1830 76 76 210 1830 286 1830
1 3 0 1 0 7 50 -1 -1 0.000 1 0.0000 825 1575 150 150 825 1575 975 1575
2 1 0 1 0 7 50 -1 -1 0.000 0 0 -1 1 1 2
	1 1 0.50 19.50 30.00
	1 1 0.50 19.50 30.00
	 0 2220 1680 2220
2 1 0 1 0 7 50 -1 -1 0.000 0 0 -1 1 1 2
	1 1 0.50 19.50 30.00
	1 1 0.50 19.50 30.00
	 0 420 180 420
2 1 0 1 0 7 50 -1 -1 0.000 0 0 -1 1 1 2
	1 1 0.50 19.50 30.00
	1 1 0.50 19.50 30.00
	 360 0 360 240
2 1 0 1 0 7 50 -1 -1 0.000 0 0 -1 1 1 2
	1 1 0.50 19.50 30.00
	1 1 0.50 19.50 30.00
	 1620 240 1620 1800
2 1 0 1 0 7 50 -1 -1 0.000 0 0 -1 1 1 2
	1 1 0.50 19.50 30.00
	1 1 0.50 19.50 30.00
	 0 840 840 840
2 1 0 1 0 7 50 -1 -1 0.000 0 0 -1 1 1 2
	1 1 0.50 19.50 30.00
	1 1 0.50 19.50 30.00
	 540 1020 540 1620
2 1 0 1 0 7 50 -1 -1 0.000 0 0 -1 0 1 3
	1 1 0.50 19.50 30.00
	 300 1860 420 1920 540 1920
2 2 0 1 0 7 50 -1 -1 0.000 0 0 -1 0 0 5
	 0 0 1680 0 1680 2040 0 2040 0 0
2 1 0 1 0 7 50 -1 -1 0.000 0 0 -1 1 1 2
	1 1 0.50 19.50 30.00
	1 1 0.50 19.50 30.00
	 1800 0 1800 2040
2 1 0 1 0 7 50 -1 -1 0.000 0 0 -1 1 1 2
	1 1 0.50 19.50 30.00
	1 1 0.50 19.50 30.00
	 180 360 1440 360
2 1 0 1 0 7 50 -1 -1 0.000 0 0 -1 1 1 2
	1 1 0.50 19.50 30.00
	1 1 0.50 19.50 30.00
	 1125 30 1125 1050
4 0 0 50 -1 0 8 0.0000 4 165 540 -300 -60 Origin\001
4 0 0 50 -1 0 6 0.0000 4 150 450 1860 960 1.4in\001
4 0 0 50 -1 0 6 0.0000 4 150 450 660 2340 1.7in\001
4 0 0 50 -1 0 6 0.0000 4 150 360 60 540 .175\001
4 0 0 50 -1 0 6 0.0000 4 150 360 660 420 1.05\001
4 0 0 50 -1 0 6 0.0000 4 150 450 1320 1200 1.325\001
4 0 0 50 -1 0 6 0.0000 4 150 180 180 960 .7\001
4 0 0 50 -1 0 6 0.0000 4 150 180 600 1260 .5\001
4 0 0 50 -1 0 6 0.0000 4 165 1620 600 1920 3.2mm dia 5 places\001
4 0 0 50 -1 0 11 0.0000 4 150 1890 300 2640 Encoder Board Rev 1.0\001
4 0 0 50 -1 0 6 0.0000 4 150 180 480 120 .2\001
4 0 0 50 -1 0 6 0.0000 4 150 270 1200 600 .85\001
4 0 0 50 -1 0 6 0.0000 4 150 270 750 1500 .25\001
4 0 0 50 -1 0 6 0.0000 4 135 270 750 1575 dia\001
