<?xml version="1.0" encoding="utf-8"?>
<!DOCTYPE eagle SYSTEM "eagle.dtd">
<eagle version="7.6.0">
<drawing>
<settings>
<setting alwaysvectorfont="yes"/>
<setting verticaltext="up"/>
</settings>
<grid distance="0.1" unitdist="inch" unit="inch" style="lines" multiple="1" display="no" altdistance="0.01" altunitdist="inch" altunit="inch"/>
<layers>
<layer number="1" name="Top" color="4" fill="1" visible="no" active="no"/>
<layer number="16" name="Bottom" color="1" fill="1" visible="no" active="no"/>
<layer number="17" name="Pads" color="2" fill="1" visible="no" active="no"/>
<layer number="18" name="Vias" color="2" fill="1" visible="no" active="no"/>
<layer number="19" name="Unrouted" color="6" fill="1" visible="no" active="no"/>
<layer number="20" name="Dimension" color="15" fill="1" visible="no" active="no"/>
<layer number="21" name="tPlace" color="16" fill="1" visible="no" active="no"/>
<layer number="22" name="bPlace" color="7" fill="1" visible="no" active="no"/>
<layer number="23" name="tOrigins" color="15" fill="1" visible="no" active="no"/>
<layer number="24" name="bOrigins" color="15" fill="1" visible="no" active="no"/>
<layer number="25" name="tNames" color="7" fill="1" visible="no" active="no"/>
<layer number="26" name="bNames" color="7" fill="1" visible="no" active="no"/>
<layer number="27" name="tValues" color="7" fill="1" visible="no" active="no"/>
<layer number="28" name="bValues" color="7" fill="1" visible="no" active="no"/>
<layer number="29" name="tStop" color="7" fill="3" visible="no" active="no"/>
<layer number="30" name="bStop" color="7" fill="6" visible="no" active="no"/>
<layer number="31" name="tCream" color="7" fill="4" visible="no" active="no"/>
<layer number="32" name="bCream" color="7" fill="5" visible="no" active="no"/>
<layer number="33" name="tFinish" color="6" fill="3" visible="no" active="no"/>
<layer number="34" name="bFinish" color="6" fill="6" visible="no" active="no"/>
<layer number="35" name="tGlue" color="7" fill="4" visible="no" active="no"/>
<layer number="36" name="bGlue" color="7" fill="5" visible="no" active="no"/>
<layer number="37" name="tTest" color="7" fill="1" visible="no" active="no"/>
<layer number="38" name="bTest" color="7" fill="1" visible="no" active="no"/>
<layer number="39" name="tKeepout" color="4" fill="11" visible="no" active="no"/>
<layer number="40" name="bKeepout" color="1" fill="11" visible="no" active="no"/>
<layer number="41" name="tRestrict" color="4" fill="10" visible="no" active="no"/>
<layer number="42" name="bRestrict" color="1" fill="10" visible="no" active="no"/>
<layer number="43" name="vRestrict" color="2" fill="10" visible="no" active="no"/>
<layer number="44" name="Drills" color="7" fill="1" visible="no" active="no"/>
<layer number="45" name="Holes" color="7" fill="1" visible="no" active="no"/>
<layer number="46" name="Milling" color="3" fill="1" visible="no" active="no"/>
<layer number="47" name="Measures" color="7" fill="1" visible="no" active="no"/>
<layer number="48" name="Document" color="7" fill="1" visible="no" active="no"/>
<layer number="49" name="Reference" color="7" fill="1" visible="no" active="no"/>
<layer number="50" name="dxf" color="7" fill="1" visible="no" active="no"/>
<layer number="51" name="tDocu" color="7" fill="1" visible="no" active="no"/>
<layer number="52" name="bDocu" color="7" fill="1" visible="no" active="no"/>
<layer number="53" name="tGND_GNDA" color="7" fill="9" visible="no" active="no"/>
<layer number="54" name="bGND_GNDA" color="1" fill="9" visible="no" active="no"/>
<layer number="56" name="wert" color="7" fill="1" visible="no" active="no"/>
<layer number="57" name="tCAD" color="7" fill="1" visible="no" active="no"/>
<layer number="59" name="tCarbon" color="7" fill="1" visible="no" active="no"/>
<layer number="60" name="bCarbon" color="7" fill="1" visible="no" active="no"/>
<layer number="90" name="Modules" color="5" fill="1" visible="yes" active="yes"/>
<layer number="91" name="Nets" color="2" fill="1" visible="yes" active="yes"/>
<layer number="92" name="Busses" color="1" fill="1" visible="yes" active="yes"/>
<layer number="93" name="Pins" color="2" fill="1" visible="no" active="yes"/>
<layer number="94" name="Symbols" color="4" fill="1" visible="yes" active="yes"/>
<layer number="95" name="Names" color="7" fill="1" visible="yes" active="yes"/>
<layer number="96" name="Values" color="7" fill="1" visible="yes" active="yes"/>
<layer number="97" name="Info" color="7" fill="1" visible="yes" active="yes"/>
<layer number="98" name="Guide" color="6" fill="1" visible="yes" active="yes"/>
<layer number="99" name="SpiceOrder" color="7" fill="1" visible="yes" active="yes"/>
<layer number="100" name="Muster" color="7" fill="1" visible="no" active="no"/>
<layer number="101" name="Patch_Top" color="12" fill="4" visible="no" active="yes"/>
<layer number="102" name="Vscore" color="7" fill="1" visible="no" active="yes"/>
<layer number="103" name="tMap" color="7" fill="1" visible="no" active="yes"/>
<layer number="104" name="Name" color="16" fill="1" visible="no" active="yes"/>
<layer number="105" name="tPlate" color="7" fill="1" visible="no" active="yes"/>
<layer number="106" name="bPlate" color="7" fill="1" visible="no" active="yes"/>
<layer number="107" name="Crop" color="7" fill="1" visible="no" active="yes"/>
<layer number="108" name="fp8" color="7" fill="1" visible="yes" active="yes"/>
<layer number="109" name="fp9" color="7" fill="1" visible="yes" active="yes"/>
<layer number="110" name="fp0" color="7" fill="1" visible="yes" active="yes"/>
<layer number="111" name="LPC17xx" color="7" fill="1" visible="yes" active="yes"/>
<layer number="112" name="tSilk" color="7" fill="1" visible="yes" active="yes"/>
<layer number="113" name="IDFDebug" color="7" fill="1" visible="no" active="no"/>
<layer number="114" name="FRNTMAAT1" color="7" fill="1" visible="yes" active="yes"/>
<layer number="115" name="FRNTMAAT2" color="7" fill="1" visible="yes" active="yes"/>
<layer number="116" name="Patch_BOT" color="9" fill="4" visible="no" active="yes"/>
<layer number="117" name="BACKMAAT1" color="7" fill="1" visible="yes" active="yes"/>
<layer number="118" name="Rect_Pads" color="7" fill="1" visible="no" active="no"/>
<layer number="119" name="KAP_TEKEN" color="7" fill="1" visible="yes" active="yes"/>
<layer number="120" name="KAP_MAAT1" color="7" fill="1" visible="yes" active="yes"/>
<layer number="121" name="_tsilk" color="7" fill="1" visible="no" active="yes"/>
<layer number="122" name="_bsilk" color="7" fill="1" visible="no" active="yes"/>
<layer number="123" name="tTestmark" color="7" fill="1" visible="yes" active="yes"/>
<layer number="124" name="bTestmark" color="7" fill="1" visible="yes" active="yes"/>
<layer number="125" name="_tNames" color="7" fill="1" visible="no" active="yes"/>
<layer number="126" name="_bNames" color="7" fill="1" visible="yes" active="yes"/>
<layer number="127" name="_tValues" color="7" fill="1" visible="yes" active="yes"/>
<layer number="128" name="_bValues" color="7" fill="1" visible="yes" active="yes"/>
<layer number="129" name="Mask" color="7" fill="1" visible="yes" active="yes"/>
<layer number="130" name="SMDSTROOK" color="7" fill="1" visible="yes" active="yes"/>
<layer number="131" name="tAdjust" color="7" fill="1" visible="yes" active="yes"/>
<layer number="132" name="bAdjust" color="7" fill="1" visible="yes" active="yes"/>
<layer number="144" name="Drill_legend" color="7" fill="1" visible="no" active="yes"/>
<layer number="150" name="Notes" color="7" fill="1" visible="no" active="yes"/>
<layer number="151" name="HeatSink" color="7" fill="1" visible="no" active="yes"/>
<layer number="152" name="_bDocu" color="7" fill="1" visible="yes" active="yes"/>
<layer number="153" name="FabDoc1" color="6" fill="1" visible="no" active="no"/>
<layer number="154" name="FabDoc2" color="2" fill="1" visible="no" active="no"/>
<layer number="155" name="FabDoc3" color="7" fill="15" visible="no" active="no"/>
<layer number="199" name="Contour" color="7" fill="1" visible="yes" active="yes"/>
<layer number="200" name="200bmp" color="1" fill="10" visible="no" active="yes"/>
<layer number="201" name="201bmp" color="2" fill="10" visible="no" active="yes"/>
<layer number="202" name="202bmp" color="3" fill="10" visible="no" active="yes"/>
<layer number="203" name="203bmp" color="4" fill="10" visible="no" active="yes"/>
<layer number="204" name="204bmp" color="5" fill="10" visible="no" active="yes"/>
<layer number="205" name="205bmp" color="6" fill="10" visible="no" active="yes"/>
<layer number="206" name="206bmp" color="7" fill="10" visible="no" active="yes"/>
<layer number="207" name="207bmp" color="8" fill="10" visible="no" active="yes"/>
<layer number="208" name="208bmp" color="9" fill="10" visible="no" active="yes"/>
<layer number="209" name="209bmp" color="7" fill="1" visible="no" active="yes"/>
<layer number="210" name="210bmp" color="7" fill="1" visible="no" active="yes"/>
<layer number="211" name="211bmp" color="7" fill="1" visible="no" active="yes"/>
<layer number="212" name="212bmp" color="7" fill="1" visible="no" active="yes"/>
<layer number="213" name="213bmp" color="7" fill="1" visible="no" active="yes"/>
<layer number="214" name="214bmp" color="7" fill="1" visible="no" active="yes"/>
<layer number="215" name="215bmp" color="7" fill="1" visible="no" active="yes"/>
<layer number="216" name="216bmp" color="7" fill="1" visible="no" active="yes"/>
<layer number="217" name="217bmp" color="18" fill="1" visible="no" active="no"/>
<layer number="218" name="218bmp" color="19" fill="1" visible="no" active="no"/>
<layer number="219" name="219bmp" color="20" fill="1" visible="no" active="no"/>
<layer number="220" name="220bmp" color="21" fill="1" visible="no" active="no"/>
<layer number="221" name="221bmp" color="22" fill="1" visible="no" active="no"/>
<layer number="222" name="222bmp" color="23" fill="1" visible="no" active="no"/>
<layer number="223" name="223bmp" color="24" fill="1" visible="no" active="no"/>
<layer number="224" name="224bmp" color="25" fill="1" visible="no" active="no"/>
<layer number="225" name="225bmp" color="7" fill="1" visible="no" active="no"/>
<layer number="226" name="226bmp" color="7" fill="1" visible="no" active="no"/>
<layer number="227" name="227bmp" color="7" fill="1" visible="no" active="no"/>
<layer number="228" name="228bmp" color="7" fill="1" visible="no" active="no"/>
<layer number="229" name="229bmp" color="7" fill="1" visible="yes" active="yes"/>
<layer number="230" name="230bmp" color="7" fill="1" visible="no" active="no"/>
<layer number="231" name="Eagle3D_PG1" color="7" fill="1" visible="yes" active="yes"/>
<layer number="232" name="Eagle3D_PG2" color="7" fill="1" visible="yes" active="yes"/>
<layer number="233" name="Eagle3D_PG3" color="7" fill="1" visible="yes" active="yes"/>
<layer number="248" name="Housing" color="7" fill="1" visible="yes" active="yes"/>
<layer number="249" name="Edge" color="7" fill="1" visible="yes" active="yes"/>
<layer number="250" name="Descript" color="3" fill="1" visible="no" active="no"/>
<layer number="251" name="SMDround" color="12" fill="11" visible="no" active="no"/>
<layer number="254" name="cooling" color="7" fill="1" visible="no" active="yes"/>
<layer number="255" name="Accent" color="7" fill="1" visible="yes" active="yes"/>
</layers>
<schematic xreflabel="%F%N/%S.%C%R" xrefpart="/%S.%C%R">
<libraries>
<library name="SparkFun-Electromechanical">
<description>&lt;h3&gt;SparkFun Electronics' preferred foot prints&lt;/h3&gt;
In this library you'll find anything that moves- switches, relays, buttons, potentiometers. Also, anything that goes on a board but isn't electrical in nature- screws, standoffs, etc.&lt;br&gt;&lt;br&gt;
We've spent an enormous amount of time creating and checking these footprints and parts, but it is the end user's responsibility to ensure correctness and suitablity for a given componet or application. If you enjoy using this library, please buy one of our products at www.sparkfun.com.
&lt;br&gt;&lt;br&gt;
&lt;b&gt;Licensing:&lt;/b&gt; CC v3.0 Share-Alike You are welcome to use this library for commercial purposes. For attribution, we ask that when you begin to sell your device using our footprint, you email us with a link to the product being sold. We want bragging rights that we helped (in a very small part) to create your 8th world wonder. We would like the opportunity to feature your device on our homepage.</description>
<packages>
<package name="ENCODER_LED_3">
<wire x1="-3.9" y1="6.7" x2="3.9" y2="6.7" width="0.2032" layer="51"/>
<wire x1="-6.2" y1="1.7" x2="-6.2" y2="5.8938" width="0.2032" layer="21"/>
<wire x1="-6.2" y1="5.8938" x2="-5.3938" y2="6.7" width="0.2032" layer="21" curve="-90"/>
<wire x1="-5.3938" y1="6.7" x2="-3.9" y2="6.7" width="0.2032" layer="21"/>
<wire x1="3.4" y1="-6.7" x2="-3.4" y2="-6.7" width="0.2032" layer="51"/>
<wire x1="-6.2" y1="-1.7" x2="-6.2" y2="1.7" width="0.2032" layer="51"/>
<wire x1="6.2" y1="1.7" x2="6.2" y2="-1.7" width="0.2032" layer="51"/>
<wire x1="6.2" y1="5.8938" x2="5.3938" y2="6.7" width="0.2032" layer="21" curve="90"/>
<wire x1="5.3938" y1="6.7" x2="3.9" y2="6.7" width="0.2032" layer="21"/>
<wire x1="6.2" y1="1.7" x2="6.2" y2="5.8938" width="0.2032" layer="21"/>
<wire x1="6.2" y1="-1.7" x2="6.2" y2="-5.8938" width="0.2032" layer="21"/>
<wire x1="6.2" y1="-5.8938" x2="5.3938" y2="-6.7" width="0.2032" layer="21" curve="-90"/>
<wire x1="5.3938" y1="-6.7" x2="3.4" y2="-6.7" width="0.2032" layer="21"/>
<wire x1="-6.2" y1="-5.8938" x2="-5.3938" y2="-6.7" width="0.2032" layer="21" curve="90"/>
<wire x1="-5.3938" y1="-6.7" x2="-3.4" y2="-6.7" width="0.2032" layer="21"/>
<wire x1="-6.2" y1="-1.7" x2="-6.2" y2="-5.8938" width="0.2032" layer="21"/>
<circle x="0" y="0" radius="3" width="0.2032" layer="21"/>
<pad name="A" x="-2.5" y="-7.5" drill="1.1" diameter="1.8"/>
<pad name="C" x="0" y="-7.5" drill="1.1" diameter="1.8"/>
<pad name="B" x="2.5" y="-7.5" drill="1.1" diameter="1.8"/>
<pad name="3" x="0" y="7" drill="1.1" diameter="1.778"/>
<pad name="2" x="-2" y="7" drill="1.1" diameter="1.778"/>
<pad name="M1" x="-5.55" y="0" drill="2.1"/>
<pad name="M2" x="5.55" y="0" drill="2.1"/>
<pad name="4" x="2" y="7" drill="1.1" diameter="1.778"/>
<pad name="1" x="-4" y="7" drill="1.1" diameter="1.778"/>
<pad name="5" x="4" y="7" drill="1.1" diameter="1.778"/>
</package>
</packages>
<symbols>
<symbol name="ENCODER_LED_3_CA">
<wire x1="3.81" y1="3.81" x2="5.08" y2="1.27" width="0.254" layer="94"/>
<wire x1="5.08" y1="1.27" x2="6.35" y2="3.81" width="0.254" layer="94"/>
<wire x1="3.81" y1="1.27" x2="5.08" y2="1.27" width="0.254" layer="94"/>
<wire x1="5.08" y1="1.27" x2="6.35" y2="1.27" width="0.254" layer="94"/>
<wire x1="3.81" y1="3.81" x2="5.08" y2="3.81" width="0.254" layer="94"/>
<wire x1="5.08" y1="3.81" x2="6.35" y2="3.81" width="0.254" layer="94"/>
<wire x1="-12.7" y1="10.16" x2="-12.7" y2="5.08" width="0.3048" layer="94"/>
<wire x1="-12.7" y1="5.08" x2="-12.7" y2="0" width="0.3048" layer="94"/>
<wire x1="-12.7" y1="0" x2="-12.7" y2="-5.08" width="0.3048" layer="94"/>
<wire x1="-12.7" y1="-5.08" x2="-12.7" y2="-10.16" width="0.3048" layer="94"/>
<wire x1="-12.7" y1="-10.16" x2="10.16" y2="-10.16" width="0.3048" layer="94"/>
<wire x1="10.16" y1="10.16" x2="-12.7" y2="10.16" width="0.3048" layer="94"/>
<wire x1="8.89" y1="3.81" x2="10.16" y2="1.27" width="0.254" layer="94"/>
<wire x1="10.16" y1="1.27" x2="11.43" y2="3.81" width="0.254" layer="94"/>
<wire x1="8.89" y1="1.27" x2="10.16" y2="1.27" width="0.254" layer="94"/>
<wire x1="10.16" y1="1.27" x2="11.43" y2="1.27" width="0.254" layer="94"/>
<wire x1="8.89" y1="3.81" x2="10.16" y2="3.81" width="0.254" layer="94"/>
<wire x1="10.16" y1="3.81" x2="11.43" y2="3.81" width="0.254" layer="94"/>
<wire x1="0" y1="-5.08" x2="12.7" y2="-5.08" width="0.254" layer="94"/>
<wire x1="-5.08" y1="2.54" x2="-6.35" y2="-1.905" width="0.254" layer="94"/>
<wire x1="-5.08" y1="-7.62" x2="12.7" y2="-7.62" width="0.254" layer="94"/>
<wire x1="-5.08" y1="7.62" x2="0" y2="7.62" width="0.254" layer="94"/>
<wire x1="-1.27" y1="3.81" x2="0" y2="1.27" width="0.254" layer="94"/>
<wire x1="0" y1="1.27" x2="1.27" y2="3.81" width="0.254" layer="94"/>
<wire x1="-1.27" y1="1.27" x2="0" y2="1.27" width="0.254" layer="94"/>
<wire x1="0" y1="1.27" x2="1.27" y2="1.27" width="0.254" layer="94"/>
<wire x1="-1.27" y1="3.81" x2="0" y2="3.81" width="0.254" layer="94"/>
<wire x1="0" y1="3.81" x2="1.27" y2="3.81" width="0.254" layer="94"/>
<wire x1="5.08" y1="-2.54" x2="12.7" y2="-2.54" width="0.254" layer="94"/>
<wire x1="10.16" y1="0" x2="12.7" y2="0" width="0.254" layer="94"/>
<wire x1="0" y1="7.62" x2="5.08" y2="7.62" width="0.254" layer="94"/>
<wire x1="5.08" y1="7.62" x2="10.16" y2="7.62" width="0.254" layer="94"/>
<wire x1="10.16" y1="7.62" x2="12.7" y2="7.62" width="0.254" layer="94"/>
<wire x1="0" y1="7.62" x2="0" y2="3.81" width="0.254" layer="94"/>
<wire x1="5.08" y1="7.62" x2="5.08" y2="3.81" width="0.254" layer="94"/>
<wire x1="10.16" y1="7.62" x2="10.16" y2="3.81" width="0.254" layer="94"/>
<wire x1="0" y1="-5.08" x2="0" y2="1.27" width="0.254" layer="94"/>
<wire x1="5.08" y1="-2.54" x2="5.08" y2="1.27" width="0.254" layer="94"/>
<wire x1="10.16" y1="0" x2="10.16" y2="1.27" width="0.254" layer="94"/>
<wire x1="10.16" y1="10.16" x2="12.7" y2="10.16" width="0.3048" layer="94"/>
<wire x1="12.7" y1="10.16" x2="12.7" y2="-10.16" width="0.3048" layer="94"/>
<wire x1="12.7" y1="-10.16" x2="10.16" y2="-10.16" width="0.3048" layer="94"/>
<wire x1="-5.08" y1="7.62" x2="-5.08" y2="2.54" width="0.254" layer="94"/>
<wire x1="-5.08" y1="-7.62" x2="-5.08" y2="-2.54" width="0.254" layer="94"/>
<wire x1="-12.7" y1="5.08" x2="-10.16" y2="5.08" width="0.254" layer="94"/>
<wire x1="-10.16" y1="0" x2="-12.7" y2="0" width="0.254" layer="94"/>
<wire x1="-10.16" y1="-5.08" x2="-12.7" y2="-5.08" width="0.254" layer="94"/>
<wire x1="-10.16" y1="5.08" x2="-10.16" y2="3.81" width="0.254" layer="94"/>
<wire x1="-10.16" y1="0" x2="-10.16" y2="1.27" width="0.254" layer="94"/>
<wire x1="-10.16" y1="0" x2="-10.16" y2="-1.27" width="0.254" layer="94"/>
<wire x1="-10.16" y1="-5.08" x2="-10.16" y2="-3.81" width="0.254" layer="94"/>
<wire x1="-10.16" y1="3.81" x2="-9.144" y2="1.524" width="0.254" layer="94"/>
<wire x1="-10.16" y1="-3.81" x2="-9.144" y2="-1.524" width="0.254" layer="94"/>
<circle x="-10.16" y="-3.81" radius="0.254" width="0.254" layer="94"/>
<circle x="-10.16" y="-1.27" radius="0.254" width="0.254" layer="94"/>
<circle x="-10.16" y="1.27" radius="0.254" width="0.254" layer="94"/>
<circle x="-10.16" y="3.81" radius="0.254" width="0.254" layer="94"/>
<circle x="-5.08" y="2.54" radius="0.254" width="0.254" layer="94"/>
<circle x="-5.08" y="-2.54" radius="0.254" width="0.254" layer="94"/>
<text x="-12.7" y="10.668" size="1.778" layer="95">&gt;NAME</text>
<text x="-12.7" y="-12.573" size="1.778" layer="96">&gt;VALUE</text>
<text x="7.62" y="0" size="1.778" layer="94" rot="MR180">R</text>
<text x="2.54" y="0" size="1.778" layer="94" rot="MR180">G</text>
<text x="-2.54" y="0" size="1.778" layer="94" rot="MR180">B</text>
<pin name="+" x="15.24" y="7.62" visible="pad" length="short" direction="pas" rot="R180"/>
<pin name="-G" x="15.24" y="-2.54" visible="pad" length="short" direction="pas" rot="R180"/>
<pin name="A" x="-15.24" y="5.08" visible="pad" length="short"/>
<pin name="C" x="-15.24" y="0" visible="pad" length="short"/>
<pin name="B" x="-15.24" y="-5.08" visible="pad" length="short"/>
<pin name="-R" x="15.24" y="0" visible="pad" length="short" direction="pas" rot="R180"/>
<pin name="SW" x="15.24" y="-7.62" visible="pad" length="short" direction="pas" rot="R180"/>
<pin name="-B" x="15.24" y="-5.08" visible="pad" length="short" direction="pas" rot="R180"/>
</symbol>
</symbols>
<devicesets>
<deviceset name="ENCODER_RGB_CA" prefix="SW" uservalue="yes">
<description>&lt;h3&gt;Illuminated Rotary Encoder w/ RGB LED and select switch&lt;/h3&gt;

EC12PLRGBSDVBF-D: http://top-up.so-buy.com/front/bin/ptdetail.phtml?Part=EC12PLRGBSDVBF-D</description>
<gates>
<gate name="G$1" symbol="ENCODER_LED_3_CA" x="0" y="0"/>
</gates>
<devices>
<device name="" package="ENCODER_LED_3">
<connects>
<connect gate="G$1" pin="+" pad="5"/>
<connect gate="G$1" pin="-B" pad="4"/>
<connect gate="G$1" pin="-G" pad="2"/>
<connect gate="G$1" pin="-R" pad="1"/>
<connect gate="G$1" pin="A" pad="A"/>
<connect gate="G$1" pin="B" pad="B"/>
<connect gate="G$1" pin="C" pad="C"/>
<connect gate="G$1" pin="SW" pad="3"/>
</connects>
<technologies>
<technology name=""/>
</technologies>
</device>
</devices>
</deviceset>
</devicesets>
</library>
<library name="frames">
<description>&lt;b&gt;Frames for Sheet and Layout&lt;/b&gt;</description>
<packages>
</packages>
<symbols>
<symbol name="LETTER_L">
<frame x1="0" y1="0" x2="248.92" y2="185.42" columns="12" rows="17" layer="94" border-left="no" border-top="no" border-right="no" border-bottom="no"/>
</symbol>
<symbol name="DOCFIELD">
<wire x1="0" y1="0" x2="71.12" y2="0" width="0.1016" layer="94"/>
<wire x1="101.6" y1="15.24" x2="87.63" y2="15.24" width="0.1016" layer="94"/>
<wire x1="0" y1="0" x2="0" y2="5.08" width="0.1016" layer="94"/>
<wire x1="0" y1="5.08" x2="71.12" y2="5.08" width="0.1016" layer="94"/>
<wire x1="0" y1="5.08" x2="0" y2="15.24" width="0.1016" layer="94"/>
<wire x1="101.6" y1="15.24" x2="101.6" y2="5.08" width="0.1016" layer="94"/>
<wire x1="71.12" y1="5.08" x2="71.12" y2="0" width="0.1016" layer="94"/>
<wire x1="71.12" y1="5.08" x2="87.63" y2="5.08" width="0.1016" layer="94"/>
<wire x1="71.12" y1="0" x2="101.6" y2="0" width="0.1016" layer="94"/>
<wire x1="87.63" y1="15.24" x2="87.63" y2="5.08" width="0.1016" layer="94"/>
<wire x1="87.63" y1="15.24" x2="0" y2="15.24" width="0.1016" layer="94"/>
<wire x1="87.63" y1="5.08" x2="101.6" y2="5.08" width="0.1016" layer="94"/>
<wire x1="101.6" y1="5.08" x2="101.6" y2="0" width="0.1016" layer="94"/>
<wire x1="0" y1="15.24" x2="0" y2="22.86" width="0.1016" layer="94"/>
<wire x1="101.6" y1="35.56" x2="0" y2="35.56" width="0.1016" layer="94"/>
<wire x1="101.6" y1="35.56" x2="101.6" y2="22.86" width="0.1016" layer="94"/>
<wire x1="0" y1="22.86" x2="101.6" y2="22.86" width="0.1016" layer="94"/>
<wire x1="0" y1="22.86" x2="0" y2="35.56" width="0.1016" layer="94"/>
<wire x1="101.6" y1="22.86" x2="101.6" y2="15.24" width="0.1016" layer="94"/>
<text x="1.27" y="1.27" size="2.54" layer="94">Date:</text>
<text x="12.7" y="1.27" size="2.54" layer="94">&gt;LAST_DATE_TIME</text>
<text x="72.39" y="1.27" size="2.54" layer="94">Sheet:</text>
<text x="86.36" y="1.27" size="2.54" layer="94">&gt;SHEET</text>
<text x="88.9" y="11.43" size="2.54" layer="94">REV:</text>
<text x="1.27" y="19.05" size="2.54" layer="94">TITLE:</text>
<text x="1.27" y="11.43" size="2.54" layer="94">Document Number:</text>
<text x="17.78" y="19.05" size="2.54" layer="94">&gt;DRAWING_NAME</text>
</symbol>
</symbols>
<devicesets>
<deviceset name="LETTER_L" prefix="FRAME" uservalue="yes">
<description>&lt;b&gt;FRAME&lt;/b&gt;&lt;p&gt;
LETTER landscape</description>
<gates>
<gate name="G$1" symbol="LETTER_L" x="0" y="0"/>
<gate name="G$2" symbol="DOCFIELD" x="147.32" y="0" addlevel="must"/>
</gates>
<devices>
<device name="">
<technologies>
<technology name=""/>
</technologies>
</device>
</devices>
</deviceset>
</devicesets>
</library>
<library name="SparkFun-Resistors">
<description>&lt;h3&gt;SparkFun Electronics' preferred foot prints&lt;/h3&gt;
In this library you'll find resistors, capacitors, inductors, test points, jumper pads, etc.&lt;br&gt;&lt;br&gt;
We've spent an enormous amount of time creating and checking these footprints and parts, but it is the end user's responsibility to ensure correctness and suitablity for a given componet or application. If you enjoy using this library, please buy one of our products at www.sparkfun.com.
&lt;br&gt;&lt;br&gt;
&lt;b&gt;Licensing:&lt;/b&gt; CC v3.0 Share-Alike You are welcome to use this library for commercial purposes. For attribution, we ask that when you begin to sell your device using our footprint, you email us with a link to the product being sold. We want bragging rights that we helped (in a very small part) to create your 8th world wonder. We would like the opportunity to feature your device on our homepage.</description>
<packages>
<package name="1206">
<wire x1="-2.473" y1="0.983" x2="2.473" y2="0.983" width="0.0508" layer="39"/>
<wire x1="2.473" y1="-0.983" x2="-2.473" y2="-0.983" width="0.0508" layer="39"/>
<wire x1="-2.473" y1="-0.983" x2="-2.473" y2="0.983" width="0.0508" layer="39"/>
<wire x1="2.473" y1="0.983" x2="2.473" y2="-0.983" width="0.0508" layer="39"/>
<wire x1="-0.965" y1="0.787" x2="0.965" y2="0.787" width="0.1016" layer="51"/>
<wire x1="-0.965" y1="-0.787" x2="0.965" y2="-0.787" width="0.1016" layer="51"/>
<smd name="1" x="-1.4" y="0" dx="1.6" dy="1.8" layer="1"/>
<smd name="2" x="1.4" y="0" dx="1.6" dy="1.8" layer="1"/>
<text x="-1.27" y="1.143" size="0.4064" layer="25">&gt;NAME</text>
<text x="-1.397" y="-1.524" size="0.4064" layer="27">&gt;VALUE</text>
<rectangle x1="-1.7018" y1="-0.8509" x2="-0.9517" y2="0.8491" layer="51"/>
<rectangle x1="0.9517" y1="-0.8491" x2="1.7018" y2="0.8509" layer="51"/>
<rectangle x1="-0.1999" y1="-0.4001" x2="0.1999" y2="0.4001" layer="35"/>
</package>
<package name="AXIAL-0.3">
<wire x1="-2.54" y1="0.762" x2="2.54" y2="0.762" width="0.2032" layer="21"/>
<wire x1="2.54" y1="0.762" x2="2.54" y2="0" width="0.2032" layer="21"/>
<wire x1="2.54" y1="0" x2="2.54" y2="-0.762" width="0.2032" layer="21"/>
<wire x1="2.54" y1="-0.762" x2="-2.54" y2="-0.762" width="0.2032" layer="21"/>
<wire x1="-2.54" y1="-0.762" x2="-2.54" y2="0" width="0.2032" layer="21"/>
<wire x1="-2.54" y1="0" x2="-2.54" y2="0.762" width="0.2032" layer="21"/>
<wire x1="2.54" y1="0" x2="2.794" y2="0" width="0.2032" layer="21"/>
<wire x1="-2.54" y1="0" x2="-2.794" y2="0" width="0.2032" layer="21"/>
<pad name="P$1" x="-3.81" y="0" drill="0.9" diameter="1.8796"/>
<pad name="P$2" x="3.81" y="0" drill="0.9" diameter="1.8796"/>
<text x="-2.54" y="1.27" size="0.4064" layer="25" font="vector">&gt;Name</text>
<text x="-2.032" y="-0.381" size="1.016" layer="21" font="vector" ratio="15">&gt;Value</text>
</package>
<package name="R2010">
<description>&lt;b&gt;RESISTOR&lt;/b&gt;&lt;p&gt;
chip</description>
<wire x1="-1.662" y1="1.245" x2="1.662" y2="1.245" width="0.1524" layer="51"/>
<wire x1="-1.637" y1="-1.245" x2="1.687" y2="-1.245" width="0.1524" layer="51"/>
<wire x1="-3.473" y1="1.483" x2="3.473" y2="1.483" width="0.0508" layer="39"/>
<wire x1="3.473" y1="1.483" x2="3.473" y2="-1.483" width="0.0508" layer="39"/>
<wire x1="3.473" y1="-1.483" x2="-3.473" y2="-1.483" width="0.0508" layer="39"/>
<wire x1="-3.473" y1="-1.483" x2="-3.473" y2="1.483" width="0.0508" layer="39"/>
<wire x1="-1.027" y1="1.245" x2="1.027" y2="1.245" width="0.1524" layer="21"/>
<wire x1="-1.002" y1="-1.245" x2="1.016" y2="-1.245" width="0.1524" layer="21"/>
<smd name="1" x="-2.2" y="0" dx="1.8" dy="2.7" layer="1"/>
<smd name="2" x="2.2" y="0" dx="1.8" dy="2.7" layer="1"/>
<text x="-2.54" y="1.5875" size="0.4064" layer="25">&gt;NAME</text>
<text x="-2.54" y="-2.032" size="0.4064" layer="27">&gt;VALUE</text>
<rectangle x1="-2.4892" y1="-1.3208" x2="-1.6393" y2="1.3292" layer="51"/>
<rectangle x1="1.651" y1="-1.3208" x2="2.5009" y2="1.3292" layer="51"/>
</package>
<package name="0805">
<wire x1="-0.3" y1="0.6" x2="0.3" y2="0.6" width="0.1524" layer="21"/>
<wire x1="-0.3" y1="-0.6" x2="0.3" y2="-0.6" width="0.1524" layer="21"/>
<smd name="1" x="-0.9" y="0" dx="0.8" dy="1.2" layer="1"/>
<smd name="2" x="0.9" y="0" dx="0.8" dy="1.2" layer="1"/>
<text x="-0.762" y="0.8255" size="0.4064" layer="25">&gt;NAME</text>
<text x="-1.016" y="-1.397" size="0.4064" layer="27">&gt;VALUE</text>
</package>
<package name="0603-RES">
<wire x1="-1.473" y1="0.983" x2="1.473" y2="0.983" width="0.0508" layer="39"/>
<wire x1="1.473" y1="0.983" x2="1.473" y2="-0.983" width="0.0508" layer="39"/>
<wire x1="1.473" y1="-0.983" x2="-1.473" y2="-0.983" width="0.0508" layer="39"/>
<wire x1="-1.473" y1="-0.983" x2="-1.473" y2="0.983" width="0.0508" layer="39"/>
<wire x1="-0.356" y1="0.432" x2="0.356" y2="0.432" width="0.1016" layer="51"/>
<wire x1="-0.356" y1="-0.419" x2="0.356" y2="-0.419" width="0.1016" layer="51"/>
<smd name="1" x="-0.85" y="0" dx="1.1" dy="1" layer="1"/>
<smd name="2" x="0.85" y="0" dx="1.1" dy="1" layer="1"/>
<text x="-0.889" y="0.762" size="0.4064" layer="25" font="vector">&gt;NAME</text>
<text x="-1.016" y="-1.143" size="0.4064" layer="27" font="vector">&gt;VALUE</text>
<rectangle x1="-0.8382" y1="-0.4699" x2="-0.3381" y2="0.4801" layer="51"/>
<rectangle x1="0.3302" y1="-0.4699" x2="0.8303" y2="0.4801" layer="51"/>
<rectangle x1="-0.1999" y1="-0.3" x2="0.1999" y2="0.3" layer="35"/>
<rectangle x1="-0.2286" y1="-0.381" x2="0.2286" y2="0.381" layer="21"/>
</package>
<package name="0402-RES">
<description>&lt;b&gt;CAPACITOR&lt;/b&gt;&lt;p&gt;
chip</description>
<wire x1="-0.245" y1="0.224" x2="0.245" y2="0.224" width="0.1524" layer="51"/>
<wire x1="0.245" y1="-0.224" x2="-0.245" y2="-0.224" width="0.1524" layer="51"/>
<wire x1="-1.473" y1="0.483" x2="1.473" y2="0.483" width="0.0508" layer="39"/>
<wire x1="1.473" y1="0.483" x2="1.473" y2="-0.483" width="0.0508" layer="39"/>
<wire x1="1.473" y1="-0.483" x2="-1.473" y2="-0.483" width="0.0508" layer="39"/>
<wire x1="-1.473" y1="-0.483" x2="-1.473" y2="0.483" width="0.0508" layer="39"/>
<smd name="1" x="-0.65" y="0" dx="0.7" dy="0.9" layer="1"/>
<smd name="2" x="0.65" y="0" dx="0.7" dy="0.9" layer="1"/>
<text x="-0.889" y="0.6985" size="0.4064" layer="25">&gt;NAME</text>
<text x="-1.0795" y="-1.143" size="0.4064" layer="27">&gt;VALUE</text>
<rectangle x1="-0.554" y1="-0.3048" x2="-0.254" y2="0.2951" layer="51"/>
<rectangle x1="0.2588" y1="-0.3048" x2="0.5588" y2="0.2951" layer="51"/>
<rectangle x1="-0.1999" y1="-0.3" x2="0.1999" y2="0.3" layer="35"/>
<rectangle x1="-0.2032" y1="-0.3556" x2="0.2032" y2="0.3556" layer="21"/>
</package>
<package name="1/6W-RES">
<description>1/6W Thru-hole Resistor - *UNPROVEN*</description>
<wire x1="-1.55" y1="0.85" x2="-1.55" y2="-0.85" width="0.2032" layer="21"/>
<wire x1="-1.55" y1="-0.85" x2="1.55" y2="-0.85" width="0.2032" layer="21"/>
<wire x1="1.55" y1="-0.85" x2="1.55" y2="0.85" width="0.2032" layer="21"/>
<wire x1="1.55" y1="0.85" x2="-1.55" y2="0.85" width="0.2032" layer="21"/>
<pad name="1" x="-2.5" y="0" drill="0.762" diameter="1.6764"/>
<pad name="2" x="2.5" y="0" drill="0.762" diameter="1.6764"/>
<text x="-1.2662" y="0.9552" size="0.6096" layer="25">&gt;NAME</text>
<text x="-1.423" y="-0.4286" size="0.8128" layer="21" ratio="15">&gt;VALUE</text>
</package>
<package name="R2512">
<wire x1="-2.362" y1="1.473" x2="2.387" y2="1.473" width="0.1524" layer="51"/>
<wire x1="-2.362" y1="-1.473" x2="2.387" y2="-1.473" width="0.1524" layer="51"/>
<smd name="1" x="-2.8" y="0" dx="1.8" dy="3.2" layer="1"/>
<smd name="2" x="2.8" y="0" dx="1.8" dy="3.2" layer="1"/>
<text x="-2.54" y="1.905" size="1.27" layer="25">&gt;NAME</text>
<text x="-2.54" y="-3.175" size="1.27" layer="27">&gt;VALUE</text>
<rectangle x1="-3.2004" y1="-1.5494" x2="-2.3505" y2="1.5507" layer="51"/>
<rectangle x1="2.3622" y1="-1.5494" x2="3.2121" y2="1.5507" layer="51"/>
</package>
<package name="AXIAL-0.4">
<description>1/4W Resistor, 0.4" wide&lt;p&gt;

Yageo CFR series &lt;a href="http://www.yageo.com/pdf/yageo/Leaded-R_CFR_2008.pdf"&gt;http://www.yageo.com/pdf/yageo/Leaded-R_CFR_2008.pdf&lt;/a&gt;</description>
<wire x1="-3.15" y1="-1.2" x2="-3.15" y2="1.2" width="0.2032" layer="21"/>
<wire x1="-3.15" y1="1.2" x2="3.15" y2="1.2" width="0.2032" layer="21"/>
<wire x1="3.15" y1="1.2" x2="3.15" y2="-1.2" width="0.2032" layer="21"/>
<wire x1="3.15" y1="-1.2" x2="-3.15" y2="-1.2" width="0.2032" layer="21"/>
<pad name="P$1" x="-5.08" y="0" drill="0.9" diameter="1.8796"/>
<pad name="P$2" x="5.08" y="0" drill="0.9" diameter="1.8796"/>
<text x="-3.175" y="1.905" size="0.8128" layer="25" font="vector" ratio="15">&gt;Name</text>
<text x="-2.286" y="-0.381" size="0.8128" layer="21" font="vector" ratio="15">&gt;Value</text>
</package>
<package name="AXIAL-0.5">
<description>1/2W Resistor, 0.5" wide&lt;p&gt;

Yageo CFR series &lt;a href="http://www.yageo.com/pdf/yageo/Leaded-R_CFR_2008.pdf"&gt;http://www.yageo.com/pdf/yageo/Leaded-R_CFR_2008.pdf&lt;/a&gt;</description>
<wire x1="-4.5" y1="-1.65" x2="-4.5" y2="1.65" width="0.2032" layer="21"/>
<wire x1="-4.5" y1="1.65" x2="4.5" y2="1.65" width="0.2032" layer="21"/>
<wire x1="4.5" y1="1.65" x2="4.5" y2="-1.65" width="0.2032" layer="21"/>
<wire x1="4.5" y1="-1.65" x2="-4.5" y2="-1.65" width="0.2032" layer="21"/>
<pad name="P$1" x="-6.35" y="0" drill="0.9" diameter="1.8796"/>
<pad name="P$2" x="6.35" y="0" drill="0.9" diameter="1.8796"/>
<text x="-4.445" y="2.54" size="0.8128" layer="25" font="vector" ratio="15">&gt;Name</text>
<text x="-3.429" y="-0.381" size="0.8128" layer="21" font="vector" ratio="15">&gt;Value</text>
</package>
<package name="AXIAL-0.6">
<description>1W Resistor, 0.6" wide&lt;p&gt;

Yageo CFR series &lt;a href="http://www.yageo.com/pdf/yageo/Leaded-R_CFR_2008.pdf"&gt;http://www.yageo.com/pdf/yageo/Leaded-R_CFR_2008.pdf&lt;/a&gt;</description>
<wire x1="-5.75" y1="-2.25" x2="-5.75" y2="2.25" width="0.2032" layer="21"/>
<wire x1="-5.75" y1="2.25" x2="5.75" y2="2.25" width="0.2032" layer="21"/>
<wire x1="5.75" y1="2.25" x2="5.75" y2="-2.25" width="0.2032" layer="21"/>
<wire x1="5.75" y1="-2.25" x2="-5.75" y2="-2.25" width="0.2032" layer="21"/>
<pad name="P$1" x="-7.62" y="0" drill="1.2" diameter="1.8796"/>
<pad name="P$2" x="7.62" y="0" drill="1.2" diameter="1.8796"/>
<text x="-5.715" y="3.175" size="0.8128" layer="25" font="vector" ratio="15">&gt;Name</text>
<text x="-4.064" y="-0.381" size="0.8128" layer="21" font="vector" ratio="15">&gt;Value</text>
</package>
<package name="AXIAL-0.8">
<description>2W Resistor, 0.8" wide&lt;p&gt;

Yageo CFR series &lt;a href="http://www.yageo.com/pdf/yageo/Leaded-R_CFR_2008.pdf"&gt;http://www.yageo.com/pdf/yageo/Leaded-R_CFR_2008.pdf&lt;/a&gt;</description>
<wire x1="-7.75" y1="-2.5" x2="-7.75" y2="2.5" width="0.2032" layer="21"/>
<wire x1="-7.75" y1="2.5" x2="7.75" y2="2.5" width="0.2032" layer="21"/>
<wire x1="7.75" y1="2.5" x2="7.75" y2="-2.5" width="0.2032" layer="21"/>
<wire x1="7.75" y1="-2.5" x2="-7.75" y2="-2.5" width="0.2032" layer="21"/>
<pad name="P$1" x="-10.16" y="0" drill="1.2" diameter="1.8796"/>
<pad name="P$2" x="10.16" y="0" drill="1.2" diameter="1.8796"/>
<text x="-7.62" y="3.175" size="0.8128" layer="25" font="vector" ratio="15">&gt;Name</text>
<text x="-5.969" y="-0.381" size="0.8128" layer="21" font="vector" ratio="15">&gt;Value</text>
</package>
<package name="AXIAL-0.3-KIT">
<description>&lt;h3&gt;AXIAL-0.3-KIT&lt;/h3&gt;

Commonly used for 1/4W through-hole resistors. 0.3" pitch between holes.&lt;br&gt;
&lt;br&gt;

&lt;b&gt;Warning:&lt;/b&gt; This is the KIT version of the AXIAL-0.3 package. This package has a smaller diameter top stop mask, which doesn't cover the diameter of the pad. This means only the bottom side of the pads' copper will be exposed. You'll only be able to solder to the bottom side.</description>
<wire x1="-2.54" y1="1.27" x2="2.54" y2="1.27" width="0.254" layer="21"/>
<wire x1="2.54" y1="1.27" x2="2.54" y2="0" width="0.254" layer="21"/>
<wire x1="2.54" y1="0" x2="2.54" y2="-1.27" width="0.254" layer="21"/>
<wire x1="2.54" y1="-1.27" x2="-2.54" y2="-1.27" width="0.254" layer="21"/>
<wire x1="-2.54" y1="-1.27" x2="-2.54" y2="0" width="0.254" layer="21"/>
<wire x1="-2.54" y1="0" x2="-2.54" y2="1.27" width="0.254" layer="21"/>
<wire x1="2.54" y1="0" x2="2.794" y2="0" width="0.254" layer="21"/>
<wire x1="-2.54" y1="0" x2="-2.794" y2="0" width="0.254" layer="21"/>
<pad name="P$1" x="-3.81" y="0" drill="1.016" diameter="2.032" stop="no"/>
<pad name="P$2" x="3.81" y="0" drill="1.016" diameter="2.032" stop="no"/>
<text x="-2.54" y="1.27" size="0.4064" layer="25" font="vector">&gt;Name</text>
<text x="-2.159" y="-0.762" size="1.27" layer="21" font="vector" ratio="15">&gt;Value</text>
<polygon width="0.127" layer="30">
<vertex x="3.8201" y="-0.9449" curve="-90"/>
<vertex x="2.8652" y="-0.0152" curve="-90.011749"/>
<vertex x="3.8176" y="0.9602" curve="-90"/>
<vertex x="4.7676" y="-0.0178" curve="-90.024193"/>
</polygon>
<polygon width="0.127" layer="29">
<vertex x="3.8176" y="-0.4369" curve="-90.012891"/>
<vertex x="3.3731" y="-0.0127" curve="-90"/>
<vertex x="3.8176" y="0.4546" curve="-90"/>
<vertex x="4.2595" y="-0.0025" curve="-90.012967"/>
</polygon>
<polygon width="0.127" layer="30">
<vertex x="-3.8075" y="-0.9525" curve="-90"/>
<vertex x="-4.7624" y="-0.0228" curve="-90.011749"/>
<vertex x="-3.81" y="0.9526" curve="-90"/>
<vertex x="-2.86" y="-0.0254" curve="-90.024193"/>
</polygon>
<polygon width="0.127" layer="29">
<vertex x="-3.81" y="-0.4445" curve="-90.012891"/>
<vertex x="-4.2545" y="-0.0203" curve="-90"/>
<vertex x="-3.81" y="0.447" curve="-90"/>
<vertex x="-3.3681" y="-0.0101" curve="-90.012967"/>
</polygon>
</package>
<package name="AXIAL-0.3EZ">
<description>This is the "EZ" version of the standard .3" spaced resistor package.&lt;br&gt;
It has a reduced top mask to make it harder to install upside-down.</description>
<wire x1="-2.54" y1="0.762" x2="2.54" y2="0.762" width="0.2032" layer="21"/>
<wire x1="2.54" y1="0.762" x2="2.54" y2="0" width="0.2032" layer="21"/>
<wire x1="2.54" y1="0" x2="2.54" y2="-0.762" width="0.2032" layer="21"/>
<wire x1="2.54" y1="-0.762" x2="-2.54" y2="-0.762" width="0.2032" layer="21"/>
<wire x1="-2.54" y1="-0.762" x2="-2.54" y2="0" width="0.2032" layer="21"/>
<wire x1="-2.54" y1="0" x2="-2.54" y2="0.762" width="0.2032" layer="21"/>
<wire x1="2.54" y1="0" x2="2.794" y2="0" width="0.2032" layer="21"/>
<wire x1="-2.54" y1="0" x2="-2.794" y2="0" width="0.2032" layer="21"/>
<pad name="P$1" x="-3.81" y="0" drill="0.9" diameter="1.8796" stop="no"/>
<pad name="P$2" x="3.81" y="0" drill="0.9" diameter="1.8796" stop="no"/>
<text x="-2.54" y="1.27" size="0.4064" layer="25" font="vector">&gt;Name</text>
<text x="-2.032" y="-0.381" size="1.016" layer="21" font="vector" ratio="15">&gt;Value</text>
<circle x="-3.81" y="0" radius="0.508" width="0" layer="29"/>
<circle x="3.81" y="0" radius="0.523634375" width="0" layer="29"/>
<circle x="-3.81" y="0" radius="1.02390625" width="0" layer="30"/>
<circle x="3.81" y="0" radius="1.04726875" width="0" layer="30"/>
</package>
</packages>
<symbols>
<symbol name="RESISTOR">
<wire x1="-2.54" y1="0" x2="-2.159" y2="1.016" width="0.1524" layer="94"/>
<wire x1="-2.159" y1="1.016" x2="-1.524" y2="-1.016" width="0.1524" layer="94"/>
<wire x1="-1.524" y1="-1.016" x2="-0.889" y2="1.016" width="0.1524" layer="94"/>
<wire x1="-0.889" y1="1.016" x2="-0.254" y2="-1.016" width="0.1524" layer="94"/>
<wire x1="-0.254" y1="-1.016" x2="0.381" y2="1.016" width="0.1524" layer="94"/>
<wire x1="0.381" y1="1.016" x2="1.016" y2="-1.016" width="0.1524" layer="94"/>
<wire x1="1.016" y1="-1.016" x2="1.651" y2="1.016" width="0.1524" layer="94"/>
<wire x1="1.651" y1="1.016" x2="2.286" y2="-1.016" width="0.1524" layer="94"/>
<wire x1="2.286" y1="-1.016" x2="2.54" y2="0" width="0.1524" layer="94"/>
<text x="-3.81" y="1.4986" size="1.778" layer="95">&gt;NAME</text>
<text x="-3.81" y="-3.302" size="1.778" layer="96">&gt;VALUE</text>
<pin name="2" x="5.08" y="0" visible="off" length="short" direction="pas" swaplevel="1" rot="R180"/>
<pin name="1" x="-5.08" y="0" visible="off" length="short" direction="pas" swaplevel="1"/>
</symbol>
</symbols>
<devicesets>
<deviceset name="RESISTOR" prefix="R" uservalue="yes">
<description>&lt;b&gt;Resistor&lt;/b&gt;
Basic schematic elements and footprints for 0603, 1206, and PTH resistors.</description>
<gates>
<gate name="G$1" symbol="RESISTOR" x="0" y="0"/>
</gates>
<devices>
<device name="1206" package="1206">
<connects>
<connect gate="G$1" pin="1" pad="1"/>
<connect gate="G$1" pin="2" pad="2"/>
</connects>
<technologies>
<technology name=""/>
</technologies>
</device>
<device name="AXIAL-0.3" package="AXIAL-0.3">
<connects>
<connect gate="G$1" pin="1" pad="P$1"/>
<connect gate="G$1" pin="2" pad="P$2"/>
</connects>
<technologies>
<technology name=""/>
</technologies>
</device>
<device name="2010" package="R2010">
<connects>
<connect gate="G$1" pin="1" pad="1"/>
<connect gate="G$1" pin="2" pad="2"/>
</connects>
<technologies>
<technology name=""/>
</technologies>
</device>
<device name="0805-RES" package="0805">
<connects>
<connect gate="G$1" pin="1" pad="1"/>
<connect gate="G$1" pin="2" pad="2"/>
</connects>
<technologies>
<technology name=""/>
</technologies>
</device>
<device name="0603-RES" package="0603-RES">
<connects>
<connect gate="G$1" pin="1" pad="1"/>
<connect gate="G$1" pin="2" pad="2"/>
</connects>
<technologies>
<technology name=""/>
</technologies>
</device>
<device name="0402-RES" package="0402-RES">
<connects>
<connect gate="G$1" pin="1" pad="1"/>
<connect gate="G$1" pin="2" pad="2"/>
</connects>
<technologies>
<technology name=""/>
</technologies>
</device>
<device name="PTH-1/6W" package="1/6W-RES">
<connects>
<connect gate="G$1" pin="1" pad="1"/>
<connect gate="G$1" pin="2" pad="2"/>
</connects>
<technologies>
<technology name=""/>
</technologies>
</device>
<device name="2512" package="R2512">
<connects>
<connect gate="G$1" pin="1" pad="1"/>
<connect gate="G$1" pin="2" pad="2"/>
</connects>
<technologies>
<technology name=""/>
</technologies>
</device>
<device name="PTH-1/4W" package="AXIAL-0.4">
<connects>
<connect gate="G$1" pin="1" pad="P$1"/>
<connect gate="G$1" pin="2" pad="P$2"/>
</connects>
<technologies>
<technology name=""/>
</technologies>
</device>
<device name="PTH-1/2W" package="AXIAL-0.5">
<connects>
<connect gate="G$1" pin="1" pad="P$1"/>
<connect gate="G$1" pin="2" pad="P$2"/>
</connects>
<technologies>
<technology name=""/>
</technologies>
</device>
<device name="PTH-1W" package="AXIAL-0.6">
<connects>
<connect gate="G$1" pin="1" pad="P$1"/>
<connect gate="G$1" pin="2" pad="P$2"/>
</connects>
<technologies>
<technology name=""/>
</technologies>
</device>
<device name="PTH-2W" package="AXIAL-0.8">
<connects>
<connect gate="G$1" pin="1" pad="P$1"/>
<connect gate="G$1" pin="2" pad="P$2"/>
</connects>
<technologies>
<technology name=""/>
</technologies>
</device>
<device name="KIT" package="AXIAL-0.3-KIT">
<connects>
<connect gate="G$1" pin="1" pad="P$1"/>
<connect gate="G$1" pin="2" pad="P$2"/>
</connects>
<technologies>
<technology name=""/>
</technologies>
</device>
<device name="EZ" package="AXIAL-0.3EZ">
<connects>
<connect gate="G$1" pin="1" pad="P$1"/>
<connect gate="G$1" pin="2" pad="P$2"/>
</connects>
<technologies>
<technology name=""/>
</technologies>
</device>
</devices>
</deviceset>
</devicesets>
</library>
<library name="SparkFun-Connectors">
<description>&lt;h3&gt;SparkFun Electronics' preferred foot prints&lt;/h3&gt;
In this library you'll find connectors and sockets- basically anything that can be plugged into or onto.&lt;br&gt;&lt;br&gt;
We've spent an enormous amount of time creating and checking these footprints and parts, but it is the end user's responsibility to ensure correctness and suitablity for a given componet or application. If you enjoy using this library, please buy one of our products at www.sparkfun.com.
&lt;br&gt;&lt;br&gt;
&lt;b&gt;Licensing:&lt;/b&gt; CC v3.0 Share-Alike You are welcome to use this library for commercial purposes. For attribution, we ask that when you begin to sell your device using our footprint, you email us with a link to the product being sold. We want bragging rights that we helped (in a very small part) to create your 8th world wonder. We would like the opportunity to feature your device on our homepage.</description>
<packages>
<package name="RJ45-8">
<wire x1="-7.62" y1="10" x2="7.62" y2="10" width="0.2032" layer="21"/>
<wire x1="-7.62" y1="-3" x2="-7.62" y2="10" width="0.2032" layer="21"/>
<wire x1="-7.62" y1="-3" x2="7.62" y2="-3" width="0.2032" layer="21"/>
<wire x1="7.62" y1="10" x2="7.62" y2="-3" width="0.2032" layer="21"/>
<wire x1="-7.62" y1="-3" x2="-7.62" y2="-10.8" width="0.2032" layer="51"/>
<wire x1="-7.62" y1="-10.8" x2="7.62" y2="-10.8" width="0.2032" layer="51"/>
<wire x1="7.62" y1="-10.8" x2="7.62" y2="-3" width="0.2032" layer="51"/>
<pad name="8" x="4.445" y="8.89" drill="1" diameter="1.8796"/>
<pad name="7" x="3.175" y="6.35" drill="1" diameter="1.8796"/>
<pad name="6" x="1.905" y="8.89" drill="1" diameter="1.8796"/>
<pad name="4" x="-0.635" y="8.89" drill="1" diameter="1.8796"/>
<pad name="2" x="-3.175" y="8.89" drill="1" diameter="1.8796"/>
<pad name="5" x="0.635" y="6.35" drill="1" diameter="1.8796"/>
<pad name="3" x="-1.905" y="6.35" drill="1" diameter="1.8796"/>
<pad name="1" x="-4.445" y="6.35" drill="1" diameter="1.8796" shape="square"/>
<hole x="-5.715" y="0" drill="3.2"/>
<hole x="5.715" y="0" drill="3.2"/>
</package>
</packages>
<symbols>
<symbol name="RJ45-8">
<wire x1="-7.62" y1="-10.16" x2="5.08" y2="-10.16" width="0.254" layer="94"/>
<wire x1="5.08" y1="-10.16" x2="5.08" y2="12.7" width="0.254" layer="94"/>
<wire x1="5.08" y1="12.7" x2="-7.62" y2="12.7" width="0.254" layer="94"/>
<wire x1="-7.62" y1="12.7" x2="-7.62" y2="-10.16" width="0.254" layer="94"/>
<text x="-7.62" y="13.208" size="1.778" layer="95">&gt;Name</text>
<text x="-7.62" y="-12.7" size="1.778" layer="95">&gt;Value</text>
<pin name="1" x="-12.7" y="10.16" visible="pin" length="middle"/>
<pin name="2" x="-12.7" y="7.62" visible="pin" length="middle"/>
<pin name="3" x="-12.7" y="5.08" visible="pin" length="middle"/>
<pin name="4" x="-12.7" y="2.54" visible="pin" length="middle"/>
<pin name="8" x="-12.7" y="-7.62" visible="pin" length="middle"/>
<pin name="7" x="-12.7" y="-5.08" visible="pin" length="middle"/>
<pin name="6" x="-12.7" y="-2.54" visible="pin" length="middle"/>
<pin name="5" x="-12.7" y="0" visible="pin" length="middle"/>
</symbol>
</symbols>
<devicesets>
<deviceset name="RJ45-8">
<description>&lt;b&gt;RJ45 Jack&lt;/b&gt;
Simple RJ45, 8-pin connection - connector for common Cat5, Cat5e, and Cat6 Ethernet cables. Footprint not yet proven in production. Connector sku is PRT-00643; Breakout PCB sku is BOB-00716.</description>
<gates>
<gate name="G$1" symbol="RJ45-8" x="0" y="0"/>
</gates>
<devices>
<device name="PTH" package="RJ45-8">
<connects>
<connect gate="G$1" pin="1" pad="1"/>
<connect gate="G$1" pin="2" pad="2"/>
<connect gate="G$1" pin="3" pad="3"/>
<connect gate="G$1" pin="4" pad="4"/>
<connect gate="G$1" pin="5" pad="5"/>
<connect gate="G$1" pin="6" pad="6"/>
<connect gate="G$1" pin="7" pad="7"/>
<connect gate="G$1" pin="8" pad="8"/>
</connects>
<technologies>
<technology name=""/>
</technologies>
</device>
</devices>
</deviceset>
</devicesets>
</library>
<library name="PJS">
<packages>
<package name="3.2-MOUNT">
<hole x="0" y="0" drill="3.2"/>
<wire x1="4" y1="4.2" x2="-4" y2="4.2" width="0.127" layer="21"/>
<wire x1="-4" y1="4.2" x2="-4" y2="-4" width="0.127" layer="21"/>
<wire x1="-4" y1="-4" x2="4" y2="-4" width="0.127" layer="21"/>
<wire x1="4" y1="-4" x2="4" y2="4.2" width="0.127" layer="21"/>
<rectangle x1="-4" y1="-4" x2="4" y2="4" layer="41"/>
<rectangle x1="-4" y1="-4" x2="4" y2="4" layer="39"/>
<rectangle x1="-4" y1="-4" x2="4" y2="4" layer="40"/>
<rectangle x1="-4" y1="-4" x2="4" y2="4" layer="42"/>
</package>
</packages>
<symbols>
<symbol name="3.2-MOUNT">
<wire x1="4" y1="-4" x2="4" y2="4" width="0.254" layer="94"/>
<wire x1="4" y1="4" x2="-4" y2="4" width="0.254" layer="94"/>
<wire x1="-4" y1="4" x2="-4" y2="-4" width="0.254" layer="94"/>
<wire x1="-4" y1="-4" x2="4" y2="-4" width="0.254" layer="94"/>
<circle x="0" y="0" radius="1.6" width="0.254" layer="94"/>
</symbol>
</symbols>
<devicesets>
<deviceset name="3.2-MOUNT" prefix="MT">
<gates>
<gate name="G$1" symbol="3.2-MOUNT" x="0" y="2.54"/>
</gates>
<devices>
<device name="" package="3.2-MOUNT">
<technologies>
<technology name=""/>
</technologies>
</device>
</devices>
</deviceset>
</devicesets>
</library>
</libraries>
<attributes>
</attributes>
<variantdefs>
</variantdefs>
<classes>
<class number="0" name="default" width="0.635" drill="0">
</class>
<class number="1" name="power" width="0.635" drill="0">
</class>
</classes>
<parts>
<part name="FRAME1" library="frames" deviceset="LETTER_L" device=""/>
<part name="R2" library="SparkFun-Resistors" deviceset="RESISTOR" device="PTH-1/4W" value="82"/>
<part name="R1" library="SparkFun-Resistors" deviceset="RESISTOR" device="PTH-1/4W" value="150"/>
<part name="R3" library="SparkFun-Resistors" deviceset="RESISTOR" device="PTH-1/4W" value="82"/>
<part name="J1" library="SparkFun-Connectors" deviceset="RJ45-8" device="PTH"/>
<part name="SW2" library="SparkFun-Electromechanical" deviceset="ENCODER_RGB_CA" device="" value="SPARKFUN-COM-10982"/>
<part name="MT1" library="PJS" deviceset="3.2-MOUNT" device=""/>
<part name="MT2" library="PJS" deviceset="3.2-MOUNT" device=""/>
<part name="MT3" library="PJS" deviceset="3.2-MOUNT" device=""/>
<part name="MT4" library="PJS" deviceset="3.2-MOUNT" device=""/>
<part name="MT5" library="PJS" deviceset="3.2-MOUNT" device=""/>
</parts>
<sheets>
<sheet>
<plain>
<text x="111.76" y="-85.09" size="3.81" layer="94">1.10</text>
<text x="33.02" y="-85.09" size="3.048" layer="94">pete@soper.us SDevCS LLC</text>
<text x="-104.14" y="-59.69" size="2.54" layer="94" font="vector">All tests pass

   J1 pin 1 @ 4.2 volts when driven high
  RED LED Vf 3.3 volts @  11 mA
  GREEN LED Vf 2.2 volts @ 13 mA
  BLUE LED Vf 3.3 volts @ 11 mA </text>
<text x="25.4" y="-62.23" size="2.54" layer="94" font="vector">Creative Commons Universal License (CCO 1.0)</text>
<text x="25.4" y="-67.31" size="2.032" layer="94" font="vector">https://creativecommons.org/publicdomain/zero/1.0</text>
</plain>
<instances>
<instance part="FRAME1" gate="G$1" x="-124.46" y="-91.44"/>
<instance part="FRAME1" gate="G$2" x="22.86" y="-91.44"/>
<instance part="R2" gate="G$1" x="-15.24" y="43.18" rot="R180"/>
<instance part="R1" gate="G$1" x="-27.94" y="48.26" rot="R180"/>
<instance part="R3" gate="G$1" x="-2.54" y="38.1" rot="R180"/>
<instance part="J1" gate="G$1" x="52.705" y="12.7"/>
<instance part="SW2" gate="G$1" x="-35.56" y="13.335" rot="R90"/>
<instance part="MT1" gate="G$1" x="-116.84" y="-81.28"/>
<instance part="MT2" gate="G$1" x="-106.68" y="-81.28"/>
<instance part="MT3" gate="G$1" x="-96.52" y="-81.28"/>
<instance part="MT4" gate="G$1" x="-86.36" y="-81.28"/>
<instance part="MT5" gate="G$1" x="-76.2" y="-81.28"/>
</instances>
<busses>
</busses>
<nets>
<net name="QUAD-A" class="0">
<segment>
<wire x1="-40.64" y1="-1.905" x2="-40.64" y2="-22.86" width="0.1524" layer="91"/>
<wire x1="-40.64" y1="-22.86" x2="22.86" y2="-22.86" width="0.1524" layer="91"/>
<pinref part="SW2" gate="G$1" pin="A"/>
<pinref part="J1" gate="G$1" pin="8"/>
<wire x1="40.005" y1="5.08" x2="22.86" y2="5.08" width="0.1524" layer="91"/>
<wire x1="22.86" y1="5.08" x2="22.86" y2="-22.86" width="0.1524" layer="91"/>
<label x="40.64" y="7.62" size="1.778" layer="95" rot="R180"/>
</segment>
</net>
<net name="QUAD-C" class="0">
<segment>
<wire x1="-35.56" y1="-17.78" x2="15.24" y2="-17.78" width="0.1524" layer="91"/>
<pinref part="J1" gate="G$1" pin="7"/>
<wire x1="15.24" y1="-17.78" x2="15.24" y2="7.62" width="0.1524" layer="91"/>
<wire x1="15.24" y1="7.62" x2="40.005" y2="7.62" width="0.1524" layer="91"/>
<label x="40.64" y="10.16" size="1.778" layer="95" rot="R180"/>
<pinref part="SW2" gate="G$1" pin="C"/>
<wire x1="-35.56" y1="-1.905" x2="-35.56" y2="-17.78" width="0.1524" layer="91"/>
</segment>
</net>
<net name="QUAD-B" class="0">
<segment>
<pinref part="SW2" gate="G$1" pin="B"/>
<wire x1="-30.48" y1="-1.905" x2="-30.48" y2="-12.7" width="0.1524" layer="91"/>
<wire x1="-30.48" y1="-12.7" x2="10.16" y2="-12.7" width="0.1524" layer="91"/>
<pinref part="J1" gate="G$1" pin="6"/>
<wire x1="10.16" y1="-12.7" x2="10.16" y2="10.16" width="0.1524" layer="91"/>
<wire x1="10.16" y1="10.16" x2="40.005" y2="10.16" width="0.1524" layer="91"/>
<label x="40.64" y="12.7" size="1.778" layer="95" rot="R180"/>
</segment>
</net>
<net name="PUSHBUTTON" class="0">
<segment>
<pinref part="J1" gate="G$1" pin="5"/>
<wire x1="2.54" y1="33.02" x2="2.54" y2="12.7" width="0.1524" layer="91"/>
<wire x1="2.54" y1="12.7" x2="40.005" y2="12.7" width="0.1524" layer="91"/>
<label x="40.64" y="15.24" size="1.778" layer="95" rot="R180"/>
<pinref part="SW2" gate="G$1" pin="SW"/>
<wire x1="-27.94" y1="28.575" x2="-27.94" y2="33.02" width="0.1524" layer="91"/>
<wire x1="-27.94" y1="33.02" x2="2.54" y2="33.02" width="0.1524" layer="91"/>
</segment>
</net>
<net name="BLUE" class="0">
<segment>
<pinref part="R3" gate="G$1" pin="1"/>
<wire x1="2.54" y1="38.1" x2="7.62" y2="38.1" width="0.1524" layer="91"/>
<pinref part="J1" gate="G$1" pin="4"/>
<wire x1="7.62" y1="38.1" x2="7.62" y2="15.24" width="0.1524" layer="91"/>
<wire x1="7.62" y1="15.24" x2="40.005" y2="15.24" width="0.1524" layer="91"/>
<label x="40.64" y="17.78" size="1.778" layer="95" rot="R180"/>
</segment>
</net>
<net name="GREEN" class="0">
<segment>
<pinref part="R2" gate="G$1" pin="1"/>
<wire x1="-10.16" y1="43.18" x2="12.7" y2="43.18" width="0.1524" layer="91"/>
<pinref part="J1" gate="G$1" pin="3"/>
<wire x1="12.7" y1="43.18" x2="12.7" y2="17.78" width="0.1524" layer="91"/>
<wire x1="12.7" y1="17.78" x2="40.005" y2="17.78" width="0.1524" layer="91"/>
<label x="40.64" y="20.32" size="1.778" layer="95" rot="R180"/>
</segment>
</net>
<net name="RED" class="0">
<segment>
<pinref part="R1" gate="G$1" pin="1"/>
<wire x1="-22.86" y1="48.26" x2="17.78" y2="48.26" width="0.1524" layer="91"/>
<pinref part="J1" gate="G$1" pin="2"/>
<wire x1="17.78" y1="48.26" x2="17.78" y2="20.32" width="0.1524" layer="91"/>
<wire x1="17.78" y1="20.32" x2="40.005" y2="20.32" width="0.1524" layer="91"/>
<label x="40.64" y="22.86" size="1.778" layer="95" rot="R180"/>
</segment>
</net>
<net name="LED-SWITCH-COM" class="0">
<segment>
<wire x1="-43.18" y1="28.575" x2="-43.18" y2="53.34" width="0.1524" layer="91"/>
<wire x1="-43.18" y1="53.34" x2="22.86" y2="53.34" width="0.1524" layer="91"/>
<pinref part="SW2" gate="G$1" pin="+"/>
<pinref part="J1" gate="G$1" pin="1"/>
<wire x1="40.005" y1="22.86" x2="22.86" y2="22.86" width="0.1524" layer="91"/>
<wire x1="22.86" y1="22.86" x2="22.86" y2="53.34" width="0.1524" layer="91"/>
<label x="40.64" y="25.4" size="1.778" layer="95" rot="R180"/>
</segment>
</net>
<net name="N$1" class="0">
<segment>
<pinref part="SW2" gate="G$1" pin="-B"/>
<pinref part="R3" gate="G$1" pin="2"/>
<wire x1="-30.48" y1="28.575" x2="-30.48" y2="38.1" width="0.1524" layer="91"/>
<wire x1="-30.48" y1="38.1" x2="-7.62" y2="38.1" width="0.1524" layer="91"/>
</segment>
</net>
<net name="N$3" class="0">
<segment>
<pinref part="R2" gate="G$1" pin="2"/>
<wire x1="-33.02" y1="28.575" x2="-33.02" y2="43.18" width="0.1524" layer="91"/>
<wire x1="-33.02" y1="43.18" x2="-20.32" y2="43.18" width="0.1524" layer="91"/>
<pinref part="SW2" gate="G$1" pin="-G"/>
</segment>
</net>
<net name="N$2" class="0">
<segment>
<pinref part="SW2" gate="G$1" pin="-R"/>
<pinref part="R1" gate="G$1" pin="2"/>
<wire x1="-35.56" y1="28.575" x2="-35.56" y2="48.26" width="0.1524" layer="91"/>
<wire x1="-35.56" y1="48.26" x2="-33.02" y2="48.26" width="0.1524" layer="91"/>
</segment>
</net>
</nets>
</sheet>
</sheets>
<errors>
<approved hash="113,1,-0.104,1.166,FRAME1,,,,,"/>
</errors>
</schematic>
</drawing>
<compatibility>
<note version="6.3" minversion="6.2.2" severity="warning">
Since Version 6.2.2 text objects can contain more than one line,
which will not be processed correctly with this version.
</note>
</compatibility>
</eagle>
