<?xml version="1.0" encoding="utf-8"?>
<!DOCTYPE eagle SYSTEM "eagle.dtd">
<eagle version="7.7.0">
<drawing>
<settings>
<setting alwaysvectorfont="no"/>
<setting verticaltext="up"/>
</settings>
<grid distance="0.1" unitdist="inch" unit="inch" style="lines" multiple="1" display="no" altdistance="0.01" altunitdist="inch" altunit="inch"/>
<layers>
<layer number="1" name="Top" color="4" fill="1" visible="no" active="no"/>
<layer number="16" name="Bottom" color="1" fill="1" visible="no" active="no"/>
<layer number="17" name="Pads" color="2" fill="1" visible="no" active="no"/>
<layer number="18" name="Vias" color="2" fill="1" visible="no" active="no"/>
<layer number="19" name="Unrouted" color="6" fill="1" visible="no" active="no"/>
<layer number="20" name="Dimension" color="15" fill="1" visible="no" active="no"/>
<layer number="21" name="tPlace" color="7" fill="1" visible="no" active="no"/>
<layer number="22" name="bPlace" color="7" fill="1" visible="no" active="no"/>
<layer number="23" name="tOrigins" color="15" fill="1" visible="no" active="no"/>
<layer number="24" name="bOrigins" color="15" fill="1" visible="no" active="no"/>
<layer number="25" name="tNames" color="7" fill="1" visible="no" active="no"/>
<layer number="26" name="bNames" color="7" fill="1" visible="no" active="no"/>
<layer number="27" name="tValues" color="7" fill="1" visible="no" active="no"/>
<layer number="28" name="bValues" color="7" fill="1" visible="no" active="no"/>
<layer number="29" name="tStop" color="7" fill="3" visible="no" active="no"/>
<layer number="30" name="bStop" color="7" fill="6" visible="no" active="no"/>
<layer number="31" name="tCream" color="7" fill="4" visible="no" active="no"/>
<layer number="32" name="bCream" color="7" fill="5" visible="no" active="no"/>
<layer number="33" name="tFinish" color="6" fill="3" visible="no" active="no"/>
<layer number="34" name="bFinish" color="6" fill="6" visible="no" active="no"/>
<layer number="35" name="tGlue" color="7" fill="4" visible="no" active="no"/>
<layer number="36" name="bGlue" color="7" fill="5" visible="no" active="no"/>
<layer number="37" name="tTest" color="7" fill="1" visible="no" active="no"/>
<layer number="38" name="bTest" color="7" fill="1" visible="no" active="no"/>
<layer number="39" name="tKeepout" color="4" fill="11" visible="no" active="no"/>
<layer number="40" name="bKeepout" color="1" fill="11" visible="no" active="no"/>
<layer number="41" name="tRestrict" color="4" fill="10" visible="no" active="no"/>
<layer number="42" name="bRestrict" color="1" fill="10" visible="no" active="no"/>
<layer number="43" name="vRestrict" color="2" fill="10" visible="no" active="no"/>
<layer number="44" name="Drills" color="7" fill="1" visible="no" active="no"/>
<layer number="45" name="Holes" color="7" fill="1" visible="no" active="no"/>
<layer number="46" name="Milling" color="3" fill="1" visible="no" active="no"/>
<layer number="47" name="Measures" color="7" fill="1" visible="no" active="no"/>
<layer number="48" name="Document" color="7" fill="1" visible="no" active="no"/>
<layer number="49" name="Reference" color="7" fill="1" visible="no" active="no"/>
<layer number="50" name="dxf" color="7" fill="1" visible="no" active="no"/>
<layer number="51" name="tDocu" color="7" fill="1" visible="no" active="no"/>
<layer number="52" name="bDocu" color="7" fill="1" visible="no" active="no"/>
<layer number="53" name="tGND_GNDA" color="7" fill="9" visible="no" active="no"/>
<layer number="54" name="bGND_GNDA" color="1" fill="9" visible="no" active="no"/>
<layer number="56" name="wert" color="7" fill="1" visible="no" active="no"/>
<layer number="57" name="tCAD" color="7" fill="1" visible="no" active="no"/>
<layer number="59" name="tCarbon" color="7" fill="1" visible="no" active="no"/>
<layer number="60" name="bCarbon" color="7" fill="1" visible="no" active="no"/>
<layer number="90" name="Modules" color="5" fill="1" visible="yes" active="yes"/>
<layer number="91" name="Nets" color="2" fill="1" visible="yes" active="yes"/>
<layer number="92" name="Busses" color="1" fill="1" visible="yes" active="yes"/>
<layer number="93" name="Pins" color="2" fill="1" visible="no" active="yes"/>
<layer number="94" name="Symbols" color="4" fill="1" visible="yes" active="yes"/>
<layer number="95" name="Names" color="7" fill="1" visible="yes" active="yes"/>
<layer number="96" name="Values" color="7" fill="1" visible="yes" active="yes"/>
<layer number="97" name="Info" color="7" fill="1" visible="yes" active="yes"/>
<layer number="98" name="Guide" color="6" fill="1" visible="yes" active="yes"/>
<layer number="99" name="SpiceOrder" color="7" fill="1" visible="yes" active="yes"/>
<layer number="100" name="Muster" color="7" fill="1" visible="no" active="no"/>
<layer number="101" name="Patch_Top" color="12" fill="4" visible="yes" active="yes"/>
<layer number="102" name="Vscore" color="7" fill="1" visible="yes" active="yes"/>
<layer number="103" name="tMap" color="7" fill="1" visible="yes" active="yes"/>
<layer number="104" name="Name" color="16" fill="1" visible="yes" active="yes"/>
<layer number="105" name="tPlate" color="7" fill="1" visible="yes" active="yes"/>
<layer number="106" name="bPlate" color="7" fill="1" visible="yes" active="yes"/>
<layer number="107" name="Crop" color="7" fill="1" visible="yes" active="yes"/>
<layer number="108" name="tplace-old" color="10" fill="1" visible="yes" active="yes"/>
<layer number="109" name="ref-old" color="11" fill="1" visible="yes" active="yes"/>
<layer number="110" name="fp0" color="7" fill="1" visible="yes" active="yes"/>
<layer number="111" name="LPC17xx" color="7" fill="1" visible="yes" active="yes"/>
<layer number="112" name="tSilk" color="7" fill="1" visible="yes" active="yes"/>
<layer number="113" name="IDFDebug" color="4" fill="1" visible="yes" active="yes"/>
<layer number="114" name="Badge_Outline" color="7" fill="1" visible="no" active="yes"/>
<layer number="115" name="ReferenceISLANDS" color="7" fill="1" visible="no" active="yes"/>
<layer number="116" name="Patch_BOT" color="9" fill="4" visible="yes" active="yes"/>
<layer number="118" name="Rect_Pads" color="7" fill="1" visible="yes" active="yes"/>
<layer number="121" name="_tsilk" color="7" fill="1" visible="yes" active="yes"/>
<layer number="122" name="_bsilk" color="7" fill="1" visible="yes" active="yes"/>
<layer number="123" name="tTestmark" color="7" fill="1" visible="yes" active="yes"/>
<layer number="124" name="bTestmark" color="7" fill="1" visible="yes" active="yes"/>
<layer number="125" name="_tNames" color="7" fill="1" visible="yes" active="yes"/>
<layer number="126" name="_bNames" color="7" fill="1" visible="yes" active="yes"/>
<layer number="127" name="_tValues" color="7" fill="1" visible="yes" active="yes"/>
<layer number="128" name="_bValues" color="7" fill="1" visible="yes" active="yes"/>
<layer number="129" name="Mask" color="7" fill="1" visible="yes" active="yes"/>
<layer number="131" name="tAdjust" color="7" fill="1" visible="yes" active="yes"/>
<layer number="132" name="bAdjust" color="7" fill="1" visible="yes" active="yes"/>
<layer number="144" name="Drill_legend" color="7" fill="1" visible="yes" active="yes"/>
<layer number="150" name="Notes" color="7" fill="1" visible="yes" active="yes"/>
<layer number="151" name="HeatSink" color="7" fill="1" visible="yes" active="yes"/>
<layer number="152" name="_bDocu" color="7" fill="1" visible="yes" active="yes"/>
<layer number="153" name="FabDoc1" color="7" fill="1" visible="yes" active="yes"/>
<layer number="154" name="FabDoc2" color="7" fill="1" visible="yes" active="yes"/>
<layer number="155" name="FabDoc3" color="7" fill="1" visible="yes" active="yes"/>
<layer number="199" name="Contour" color="7" fill="1" visible="yes" active="yes"/>
<layer number="200" name="200bmp" color="1" fill="10" visible="yes" active="yes"/>
<layer number="201" name="201bmp" color="2" fill="10" visible="yes" active="yes"/>
<layer number="202" name="202bmp" color="3" fill="10" visible="yes" active="yes"/>
<layer number="203" name="203bmp" color="4" fill="10" visible="yes" active="yes"/>
<layer number="204" name="204bmp" color="5" fill="10" visible="yes" active="yes"/>
<layer number="205" name="205bmp" color="6" fill="10" visible="yes" active="yes"/>
<layer number="206" name="206bmp" color="7" fill="10" visible="yes" active="yes"/>
<layer number="207" name="207bmp" color="8" fill="10" visible="yes" active="yes"/>
<layer number="208" name="208bmp" color="9" fill="10" visible="yes" active="yes"/>
<layer number="209" name="209bmp" color="7" fill="1" visible="yes" active="yes"/>
<layer number="210" name="210bmp" color="7" fill="1" visible="yes" active="yes"/>
<layer number="211" name="211bmp" color="7" fill="1" visible="yes" active="yes"/>
<layer number="212" name="212bmp" color="7" fill="1" visible="yes" active="yes"/>
<layer number="213" name="213bmp" color="7" fill="1" visible="yes" active="yes"/>
<layer number="214" name="214bmp" color="7" fill="1" visible="yes" active="yes"/>
<layer number="215" name="215bmp" color="7" fill="1" visible="yes" active="yes"/>
<layer number="216" name="216bmp" color="7" fill="1" visible="yes" active="yes"/>
<layer number="217" name="217bmp" color="18" fill="1" visible="no" active="no"/>
<layer number="218" name="218bmp" color="19" fill="1" visible="no" active="no"/>
<layer number="219" name="219bmp" color="20" fill="1" visible="no" active="no"/>
<layer number="220" name="220bmp" color="21" fill="1" visible="no" active="no"/>
<layer number="221" name="221bmp" color="22" fill="1" visible="no" active="no"/>
<layer number="222" name="222bmp" color="23" fill="1" visible="no" active="no"/>
<layer number="223" name="223bmp" color="24" fill="1" visible="no" active="no"/>
<layer number="224" name="224bmp" color="25" fill="1" visible="no" active="no"/>
<layer number="225" name="225bmp" color="7" fill="1" visible="yes" active="yes"/>
<layer number="226" name="226bmp" color="7" fill="1" visible="yes" active="yes"/>
<layer number="227" name="227bmp" color="7" fill="1" visible="yes" active="yes"/>
<layer number="228" name="228bmp" color="7" fill="1" visible="yes" active="yes"/>
<layer number="229" name="229bmp" color="7" fill="1" visible="yes" active="yes"/>
<layer number="230" name="230bmp" color="7" fill="1" visible="yes" active="yes"/>
<layer number="231" name="231bmp" color="7" fill="1" visible="yes" active="yes"/>
<layer number="232" name="Eagle3D_PG2" color="7" fill="1" visible="no" active="no"/>
<layer number="233" name="Eagle3D_PG3" color="7" fill="1" visible="no" active="no"/>
<layer number="248" name="Housing" color="7" fill="1" visible="yes" active="yes"/>
<layer number="249" name="Edge" color="7" fill="1" visible="yes" active="yes"/>
<layer number="250" name="Descript" color="3" fill="1" visible="no" active="no"/>
<layer number="251" name="SMDround" color="12" fill="11" visible="no" active="no"/>
<layer number="254" name="cooling" color="7" fill="1" visible="yes" active="yes"/>
<layer number="255" name="routoute" color="7" fill="1" visible="yes" active="yes"/>
</layers>
<schematic xreflabel="%F%N/%S.%C%R" xrefpart="/%S.%C%R">
<libraries>
<library name="frames">
<description>&lt;b&gt;Frames for Sheet and Layout&lt;/b&gt;</description>
<packages>
</packages>
<symbols>
<symbol name="LETTER_L">
<frame x1="0" y1="0" x2="248.92" y2="185.42" columns="12" rows="17" layer="94" border-left="no" border-top="no" border-right="no" border-bottom="no"/>
</symbol>
<symbol name="DOCFIELD">
<wire x1="0" y1="0" x2="71.12" y2="0" width="0.1016" layer="94"/>
<wire x1="101.6" y1="15.24" x2="87.63" y2="15.24" width="0.1016" layer="94"/>
<wire x1="0" y1="0" x2="0" y2="5.08" width="0.1016" layer="94"/>
<wire x1="0" y1="5.08" x2="71.12" y2="5.08" width="0.1016" layer="94"/>
<wire x1="0" y1="5.08" x2="0" y2="15.24" width="0.1016" layer="94"/>
<wire x1="101.6" y1="15.24" x2="101.6" y2="5.08" width="0.1016" layer="94"/>
<wire x1="71.12" y1="5.08" x2="71.12" y2="0" width="0.1016" layer="94"/>
<wire x1="71.12" y1="5.08" x2="87.63" y2="5.08" width="0.1016" layer="94"/>
<wire x1="71.12" y1="0" x2="101.6" y2="0" width="0.1016" layer="94"/>
<wire x1="87.63" y1="15.24" x2="87.63" y2="5.08" width="0.1016" layer="94"/>
<wire x1="87.63" y1="15.24" x2="0" y2="15.24" width="0.1016" layer="94"/>
<wire x1="87.63" y1="5.08" x2="101.6" y2="5.08" width="0.1016" layer="94"/>
<wire x1="101.6" y1="5.08" x2="101.6" y2="0" width="0.1016" layer="94"/>
<wire x1="0" y1="15.24" x2="0" y2="22.86" width="0.1016" layer="94"/>
<wire x1="101.6" y1="35.56" x2="0" y2="35.56" width="0.1016" layer="94"/>
<wire x1="101.6" y1="35.56" x2="101.6" y2="22.86" width="0.1016" layer="94"/>
<wire x1="0" y1="22.86" x2="101.6" y2="22.86" width="0.1016" layer="94"/>
<wire x1="0" y1="22.86" x2="0" y2="35.56" width="0.1016" layer="94"/>
<wire x1="101.6" y1="22.86" x2="101.6" y2="15.24" width="0.1016" layer="94"/>
<text x="1.27" y="1.27" size="2.54" layer="94">Date:</text>
<text x="12.7" y="1.27" size="2.54" layer="94">&gt;LAST_DATE_TIME</text>
<text x="72.39" y="1.27" size="2.54" layer="94">Sheet:</text>
<text x="86.36" y="1.27" size="2.54" layer="94">&gt;SHEET</text>
<text x="88.9" y="11.43" size="2.54" layer="94">REV:</text>
<text x="1.27" y="19.05" size="2.54" layer="94">TITLE:</text>
<text x="1.27" y="11.43" size="2.54" layer="94">Document Number:</text>
<text x="17.78" y="19.05" size="2.54" layer="94">&gt;DRAWING_NAME</text>
</symbol>
</symbols>
<devicesets>
<deviceset name="LETTER_L" prefix="FRAME" uservalue="yes">
<description>&lt;b&gt;FRAME&lt;/b&gt;&lt;p&gt;
LETTER landscape</description>
<gates>
<gate name="G$1" symbol="LETTER_L" x="0" y="0"/>
<gate name="G$2" symbol="DOCFIELD" x="147.32" y="0" addlevel="must"/>
</gates>
<devices>
<device name="">
<technologies>
<technology name=""/>
</technologies>
</device>
</devices>
</deviceset>
</devicesets>
</library>
<library name="adafruit">
<packages>
<package name="1X03">
<description>&lt;b&gt;PIN HEADER&lt;/b&gt;</description>
<wire x1="-3.175" y1="1.27" x2="-1.905" y2="1.27" width="0.1524" layer="21"/>
<wire x1="-1.905" y1="1.27" x2="-1.27" y2="0.635" width="0.1524" layer="21"/>
<wire x1="-1.27" y1="0.635" x2="-1.27" y2="-0.635" width="0.1524" layer="21"/>
<wire x1="-1.27" y1="-0.635" x2="-1.905" y2="-1.27" width="0.1524" layer="21"/>
<wire x1="-1.27" y1="0.635" x2="-0.635" y2="1.27" width="0.1524" layer="21"/>
<wire x1="-0.635" y1="1.27" x2="0.635" y2="1.27" width="0.1524" layer="21"/>
<wire x1="0.635" y1="1.27" x2="1.27" y2="0.635" width="0.1524" layer="21"/>
<wire x1="1.27" y1="0.635" x2="1.27" y2="-0.635" width="0.1524" layer="21"/>
<wire x1="1.27" y1="-0.635" x2="0.635" y2="-1.27" width="0.1524" layer="21"/>
<wire x1="0.635" y1="-1.27" x2="-0.635" y2="-1.27" width="0.1524" layer="21"/>
<wire x1="-0.635" y1="-1.27" x2="-1.27" y2="-0.635" width="0.1524" layer="21"/>
<wire x1="-3.81" y1="0.635" x2="-3.81" y2="-0.635" width="0.1524" layer="21"/>
<wire x1="-3.175" y1="1.27" x2="-3.81" y2="0.635" width="0.1524" layer="21"/>
<wire x1="-3.81" y1="-0.635" x2="-3.175" y2="-1.27" width="0.1524" layer="21"/>
<wire x1="-1.905" y1="-1.27" x2="-3.175" y2="-1.27" width="0.1524" layer="21"/>
<wire x1="1.27" y1="0.635" x2="1.905" y2="1.27" width="0.1524" layer="21"/>
<wire x1="1.905" y1="1.27" x2="3.175" y2="1.27" width="0.1524" layer="21"/>
<wire x1="3.175" y1="1.27" x2="3.81" y2="0.635" width="0.1524" layer="21"/>
<wire x1="3.81" y1="0.635" x2="3.81" y2="-0.635" width="0.1524" layer="21"/>
<wire x1="3.81" y1="-0.635" x2="3.175" y2="-1.27" width="0.1524" layer="21"/>
<wire x1="3.175" y1="-1.27" x2="1.905" y2="-1.27" width="0.1524" layer="21"/>
<wire x1="1.905" y1="-1.27" x2="1.27" y2="-0.635" width="0.1524" layer="21"/>
<pad name="1" x="-2.54" y="0" drill="1.016" rot="R90"/>
<pad name="2" x="0" y="0" drill="1.016" rot="R90"/>
<pad name="3" x="2.54" y="0" drill="1.016" rot="R90"/>
<text x="-3.8862" y="1.8288" size="1.27" layer="25" ratio="10">&gt;NAME</text>
<text x="-3.81" y="-3.175" size="1.27" layer="27">&gt;VALUE</text>
<rectangle x1="-0.254" y1="-0.254" x2="0.254" y2="0.254" layer="51"/>
<rectangle x1="-2.794" y1="-0.254" x2="-2.286" y2="0.254" layer="51"/>
<rectangle x1="2.286" y1="-0.254" x2="2.794" y2="0.254" layer="51"/>
</package>
<package name="1X03-CLEANBIG">
<pad name="1" x="-2.54" y="0" drill="1.016" diameter="1.6764" rot="R90"/>
<pad name="2" x="0" y="0" drill="1.016" diameter="1.6764" rot="R90"/>
<pad name="3" x="2.54" y="0" drill="1.016" diameter="1.6764" rot="R90"/>
<text x="-3.8862" y="1.8288" size="1.27" layer="25" ratio="10">&gt;NAME</text>
<text x="-3.81" y="-3.175" size="1.27" layer="27">&gt;VALUE</text>
<rectangle x1="-0.254" y1="-0.254" x2="0.254" y2="0.254" layer="51"/>
<rectangle x1="-2.794" y1="-0.254" x2="-2.286" y2="0.254" layer="51"/>
<rectangle x1="2.286" y1="-0.254" x2="2.794" y2="0.254" layer="51"/>
</package>
</packages>
<symbols>
<symbol name="PINHD3">
<wire x1="-6.35" y1="-5.08" x2="1.27" y2="-5.08" width="0.4064" layer="94"/>
<wire x1="1.27" y1="-5.08" x2="1.27" y2="5.08" width="0.4064" layer="94"/>
<wire x1="1.27" y1="5.08" x2="-6.35" y2="5.08" width="0.4064" layer="94"/>
<wire x1="-6.35" y1="5.08" x2="-6.35" y2="-5.08" width="0.4064" layer="94"/>
<text x="-6.35" y="5.715" size="1.778" layer="95">&gt;NAME</text>
<text x="-6.35" y="-7.62" size="1.778" layer="96">&gt;VALUE</text>
<pin name="1" x="-2.54" y="2.54" visible="pad" length="short" direction="pas" function="dot"/>
<pin name="2" x="-2.54" y="0" visible="pad" length="short" direction="pas" function="dot"/>
<pin name="3" x="-2.54" y="-2.54" visible="pad" length="short" direction="pas" function="dot"/>
</symbol>
</symbols>
<devicesets>
<deviceset name="PINHD-1X3" prefix="JP" uservalue="yes">
<description>&lt;b&gt;PIN HEADER&lt;/b&gt;</description>
<gates>
<gate name="A" symbol="PINHD3" x="0" y="0"/>
</gates>
<devices>
<device name="" package="1X03">
<connects>
<connect gate="A" pin="1" pad="1"/>
<connect gate="A" pin="2" pad="2"/>
<connect gate="A" pin="3" pad="3"/>
</connects>
<technologies>
<technology name=""/>
</technologies>
</device>
<device name="CB" package="1X03-CLEANBIG">
<connects>
<connect gate="A" pin="1" pad="1"/>
<connect gate="A" pin="2" pad="2"/>
<connect gate="A" pin="3" pad="3"/>
</connects>
<technologies>
<technology name=""/>
</technologies>
</device>
</devices>
</deviceset>
</devicesets>
</library>
<library name="pinhead">
<description>&lt;b&gt;Pin Header Connectors&lt;/b&gt;&lt;p&gt;
&lt;author&gt;Created by librarian@cadsoft.de&lt;/author&gt;</description>
<packages>
<package name="2X07">
<description>&lt;b&gt;PIN HEADER&lt;/b&gt;</description>
<wire x1="-8.89" y1="-1.905" x2="-8.255" y2="-2.54" width="0.1524" layer="21"/>
<wire x1="-6.985" y1="-2.54" x2="-6.35" y2="-1.905" width="0.1524" layer="21"/>
<wire x1="-6.35" y1="-1.905" x2="-5.715" y2="-2.54" width="0.1524" layer="21"/>
<wire x1="-4.445" y1="-2.54" x2="-3.81" y2="-1.905" width="0.1524" layer="21"/>
<wire x1="-3.81" y1="-1.905" x2="-3.175" y2="-2.54" width="0.1524" layer="21"/>
<wire x1="-1.905" y1="-2.54" x2="-1.27" y2="-1.905" width="0.1524" layer="21"/>
<wire x1="-1.27" y1="-1.905" x2="-0.635" y2="-2.54" width="0.1524" layer="21"/>
<wire x1="0.635" y1="-2.54" x2="1.27" y2="-1.905" width="0.1524" layer="21"/>
<wire x1="1.27" y1="-1.905" x2="1.905" y2="-2.54" width="0.1524" layer="21"/>
<wire x1="3.175" y1="-2.54" x2="3.81" y2="-1.905" width="0.1524" layer="21"/>
<wire x1="3.81" y1="-1.905" x2="4.445" y2="-2.54" width="0.1524" layer="21"/>
<wire x1="5.715" y1="-2.54" x2="6.35" y2="-1.905" width="0.1524" layer="21"/>
<wire x1="-8.89" y1="-1.905" x2="-8.89" y2="1.905" width="0.1524" layer="21"/>
<wire x1="-8.89" y1="1.905" x2="-8.255" y2="2.54" width="0.1524" layer="21"/>
<wire x1="-8.255" y1="2.54" x2="-6.985" y2="2.54" width="0.1524" layer="21"/>
<wire x1="-6.985" y1="2.54" x2="-6.35" y2="1.905" width="0.1524" layer="21"/>
<wire x1="-6.35" y1="1.905" x2="-5.715" y2="2.54" width="0.1524" layer="21"/>
<wire x1="-5.715" y1="2.54" x2="-4.445" y2="2.54" width="0.1524" layer="21"/>
<wire x1="-4.445" y1="2.54" x2="-3.81" y2="1.905" width="0.1524" layer="21"/>
<wire x1="-3.81" y1="1.905" x2="-3.175" y2="2.54" width="0.1524" layer="21"/>
<wire x1="-3.175" y1="2.54" x2="-1.905" y2="2.54" width="0.1524" layer="21"/>
<wire x1="-1.905" y1="2.54" x2="-1.27" y2="1.905" width="0.1524" layer="21"/>
<wire x1="-1.27" y1="1.905" x2="-0.635" y2="2.54" width="0.1524" layer="21"/>
<wire x1="-0.635" y1="2.54" x2="0.635" y2="2.54" width="0.1524" layer="21"/>
<wire x1="0.635" y1="2.54" x2="1.27" y2="1.905" width="0.1524" layer="21"/>
<wire x1="1.27" y1="1.905" x2="1.905" y2="2.54" width="0.1524" layer="21"/>
<wire x1="1.905" y1="2.54" x2="3.175" y2="2.54" width="0.1524" layer="21"/>
<wire x1="3.175" y1="2.54" x2="3.81" y2="1.905" width="0.1524" layer="21"/>
<wire x1="3.81" y1="1.905" x2="4.445" y2="2.54" width="0.1524" layer="21"/>
<wire x1="4.445" y1="2.54" x2="5.715" y2="2.54" width="0.1524" layer="21"/>
<wire x1="5.715" y1="2.54" x2="6.35" y2="1.905" width="0.1524" layer="21"/>
<wire x1="-6.35" y1="1.905" x2="-6.35" y2="-1.905" width="0.1524" layer="21"/>
<wire x1="-3.81" y1="1.905" x2="-3.81" y2="-1.905" width="0.1524" layer="21"/>
<wire x1="-1.27" y1="1.905" x2="-1.27" y2="-1.905" width="0.1524" layer="21"/>
<wire x1="1.27" y1="1.905" x2="1.27" y2="-1.905" width="0.1524" layer="21"/>
<wire x1="3.81" y1="1.905" x2="3.81" y2="-1.905" width="0.1524" layer="21"/>
<wire x1="6.35" y1="1.905" x2="6.35" y2="-1.905" width="0.1524" layer="21"/>
<wire x1="4.445" y1="-2.54" x2="5.715" y2="-2.54" width="0.1524" layer="21"/>
<wire x1="1.905" y1="-2.54" x2="3.175" y2="-2.54" width="0.1524" layer="21"/>
<wire x1="-0.635" y1="-2.54" x2="0.635" y2="-2.54" width="0.1524" layer="21"/>
<wire x1="-3.175" y1="-2.54" x2="-1.905" y2="-2.54" width="0.1524" layer="21"/>
<wire x1="-5.715" y1="-2.54" x2="-4.445" y2="-2.54" width="0.1524" layer="21"/>
<wire x1="-8.255" y1="-2.54" x2="-6.985" y2="-2.54" width="0.1524" layer="21"/>
<wire x1="6.35" y1="-1.905" x2="6.985" y2="-2.54" width="0.1524" layer="21"/>
<wire x1="8.255" y1="-2.54" x2="8.89" y2="-1.905" width="0.1524" layer="21"/>
<wire x1="6.35" y1="1.905" x2="6.985" y2="2.54" width="0.1524" layer="21"/>
<wire x1="6.985" y1="2.54" x2="8.255" y2="2.54" width="0.1524" layer="21"/>
<wire x1="8.255" y1="2.54" x2="8.89" y2="1.905" width="0.1524" layer="21"/>
<wire x1="8.89" y1="1.905" x2="8.89" y2="-1.905" width="0.1524" layer="21"/>
<wire x1="6.985" y1="-2.54" x2="8.255" y2="-2.54" width="0.1524" layer="21"/>
<pad name="1" x="-7.62" y="-1.27" drill="1.016" shape="octagon"/>
<pad name="2" x="-7.62" y="1.27" drill="1.016" shape="octagon"/>
<pad name="3" x="-5.08" y="-1.27" drill="1.016" shape="octagon"/>
<pad name="4" x="-5.08" y="1.27" drill="1.016" shape="octagon"/>
<pad name="5" x="-2.54" y="-1.27" drill="1.016" shape="octagon"/>
<pad name="6" x="-2.54" y="1.27" drill="1.016" shape="octagon"/>
<pad name="7" x="0" y="-1.27" drill="1.016" shape="octagon"/>
<pad name="8" x="0" y="1.27" drill="1.016" shape="octagon"/>
<pad name="9" x="2.54" y="-1.27" drill="1.016" shape="octagon"/>
<pad name="10" x="2.54" y="1.27" drill="1.016" shape="octagon"/>
<pad name="11" x="5.08" y="-1.27" drill="1.016" shape="octagon"/>
<pad name="12" x="5.08" y="1.27" drill="1.016" shape="octagon"/>
<pad name="13" x="7.62" y="-1.27" drill="1.016" shape="octagon"/>
<pad name="14" x="7.62" y="1.27" drill="1.016" shape="octagon"/>
<text x="-8.89" y="3.175" size="1.27" layer="25" ratio="10">&gt;NAME</text>
<text x="-8.89" y="-4.445" size="1.27" layer="27">&gt;VALUE</text>
<rectangle x1="-7.874" y1="-1.524" x2="-7.366" y2="-1.016" layer="51"/>
<rectangle x1="-7.874" y1="1.016" x2="-7.366" y2="1.524" layer="51"/>
<rectangle x1="-5.334" y1="1.016" x2="-4.826" y2="1.524" layer="51"/>
<rectangle x1="-5.334" y1="-1.524" x2="-4.826" y2="-1.016" layer="51"/>
<rectangle x1="-2.794" y1="1.016" x2="-2.286" y2="1.524" layer="51"/>
<rectangle x1="-2.794" y1="-1.524" x2="-2.286" y2="-1.016" layer="51"/>
<rectangle x1="-0.254" y1="1.016" x2="0.254" y2="1.524" layer="51"/>
<rectangle x1="2.286" y1="1.016" x2="2.794" y2="1.524" layer="51"/>
<rectangle x1="4.826" y1="1.016" x2="5.334" y2="1.524" layer="51"/>
<rectangle x1="-0.254" y1="-1.524" x2="0.254" y2="-1.016" layer="51"/>
<rectangle x1="2.286" y1="-1.524" x2="2.794" y2="-1.016" layer="51"/>
<rectangle x1="4.826" y1="-1.524" x2="5.334" y2="-1.016" layer="51"/>
<rectangle x1="7.366" y1="1.016" x2="7.874" y2="1.524" layer="51"/>
<rectangle x1="7.366" y1="-1.524" x2="7.874" y2="-1.016" layer="51"/>
</package>
<package name="2X07/90">
<description>&lt;b&gt;PIN HEADER&lt;/b&gt;</description>
<wire x1="-8.89" y1="-1.905" x2="-6.35" y2="-1.905" width="0.1524" layer="21"/>
<wire x1="-6.35" y1="-1.905" x2="-6.35" y2="0.635" width="0.1524" layer="21"/>
<wire x1="-6.35" y1="0.635" x2="-8.89" y2="0.635" width="0.1524" layer="21"/>
<wire x1="-8.89" y1="0.635" x2="-8.89" y2="-1.905" width="0.1524" layer="21"/>
<wire x1="-7.62" y1="6.985" x2="-7.62" y2="1.27" width="0.762" layer="21"/>
<wire x1="-6.35" y1="-1.905" x2="-3.81" y2="-1.905" width="0.1524" layer="21"/>
<wire x1="-3.81" y1="-1.905" x2="-3.81" y2="0.635" width="0.1524" layer="21"/>
<wire x1="-3.81" y1="0.635" x2="-6.35" y2="0.635" width="0.1524" layer="21"/>
<wire x1="-5.08" y1="6.985" x2="-5.08" y2="1.27" width="0.762" layer="21"/>
<wire x1="-3.81" y1="-1.905" x2="-1.27" y2="-1.905" width="0.1524" layer="21"/>
<wire x1="-1.27" y1="-1.905" x2="-1.27" y2="0.635" width="0.1524" layer="21"/>
<wire x1="-1.27" y1="0.635" x2="-3.81" y2="0.635" width="0.1524" layer="21"/>
<wire x1="-2.54" y1="6.985" x2="-2.54" y2="1.27" width="0.762" layer="21"/>
<wire x1="-1.27" y1="-1.905" x2="1.27" y2="-1.905" width="0.1524" layer="21"/>
<wire x1="1.27" y1="-1.905" x2="1.27" y2="0.635" width="0.1524" layer="21"/>
<wire x1="1.27" y1="0.635" x2="-1.27" y2="0.635" width="0.1524" layer="21"/>
<wire x1="0" y1="6.985" x2="0" y2="1.27" width="0.762" layer="21"/>
<wire x1="1.27" y1="-1.905" x2="3.81" y2="-1.905" width="0.1524" layer="21"/>
<wire x1="3.81" y1="-1.905" x2="3.81" y2="0.635" width="0.1524" layer="21"/>
<wire x1="3.81" y1="0.635" x2="1.27" y2="0.635" width="0.1524" layer="21"/>
<wire x1="2.54" y1="6.985" x2="2.54" y2="1.27" width="0.762" layer="21"/>
<wire x1="3.81" y1="-1.905" x2="6.35" y2="-1.905" width="0.1524" layer="21"/>
<wire x1="6.35" y1="-1.905" x2="6.35" y2="0.635" width="0.1524" layer="21"/>
<wire x1="6.35" y1="0.635" x2="3.81" y2="0.635" width="0.1524" layer="21"/>
<wire x1="5.08" y1="6.985" x2="5.08" y2="1.27" width="0.762" layer="21"/>
<wire x1="6.35" y1="-1.905" x2="8.89" y2="-1.905" width="0.1524" layer="21"/>
<wire x1="8.89" y1="-1.905" x2="8.89" y2="0.635" width="0.1524" layer="21"/>
<wire x1="8.89" y1="0.635" x2="6.35" y2="0.635" width="0.1524" layer="21"/>
<wire x1="7.62" y1="6.985" x2="7.62" y2="1.27" width="0.762" layer="21"/>
<pad name="2" x="-7.62" y="-3.81" drill="1.016" shape="octagon"/>
<pad name="4" x="-5.08" y="-3.81" drill="1.016" shape="octagon"/>
<pad name="6" x="-2.54" y="-3.81" drill="1.016" shape="octagon"/>
<pad name="8" x="0" y="-3.81" drill="1.016" shape="octagon"/>
<pad name="10" x="2.54" y="-3.81" drill="1.016" shape="octagon"/>
<pad name="12" x="5.08" y="-3.81" drill="1.016" shape="octagon"/>
<pad name="14" x="7.62" y="-3.81" drill="1.016" shape="octagon"/>
<pad name="1" x="-7.62" y="-6.35" drill="1.016" shape="octagon"/>
<pad name="3" x="-5.08" y="-6.35" drill="1.016" shape="octagon"/>
<pad name="5" x="-2.54" y="-6.35" drill="1.016" shape="octagon"/>
<pad name="7" x="0" y="-6.35" drill="1.016" shape="octagon"/>
<pad name="9" x="2.54" y="-6.35" drill="1.016" shape="octagon"/>
<pad name="11" x="5.08" y="-6.35" drill="1.016" shape="octagon"/>
<pad name="13" x="7.62" y="-6.35" drill="1.016" shape="octagon"/>
<text x="-9.525" y="-3.81" size="1.27" layer="25" ratio="10" rot="R90">&gt;NAME</text>
<text x="10.795" y="-3.81" size="1.27" layer="27" rot="R90">&gt;VALUE</text>
<rectangle x1="-8.001" y1="0.635" x2="-7.239" y2="1.143" layer="21"/>
<rectangle x1="-5.461" y1="0.635" x2="-4.699" y2="1.143" layer="21"/>
<rectangle x1="-2.921" y1="0.635" x2="-2.159" y2="1.143" layer="21"/>
<rectangle x1="-0.381" y1="0.635" x2="0.381" y2="1.143" layer="21"/>
<rectangle x1="2.159" y1="0.635" x2="2.921" y2="1.143" layer="21"/>
<rectangle x1="4.699" y1="0.635" x2="5.461" y2="1.143" layer="21"/>
<rectangle x1="7.239" y1="0.635" x2="8.001" y2="1.143" layer="21"/>
<rectangle x1="-8.001" y1="-2.921" x2="-7.239" y2="-1.905" layer="21"/>
<rectangle x1="-5.461" y1="-2.921" x2="-4.699" y2="-1.905" layer="21"/>
<rectangle x1="-8.001" y1="-5.461" x2="-7.239" y2="-4.699" layer="21"/>
<rectangle x1="-8.001" y1="-4.699" x2="-7.239" y2="-2.921" layer="51"/>
<rectangle x1="-5.461" y1="-4.699" x2="-4.699" y2="-2.921" layer="51"/>
<rectangle x1="-5.461" y1="-5.461" x2="-4.699" y2="-4.699" layer="21"/>
<rectangle x1="-2.921" y1="-2.921" x2="-2.159" y2="-1.905" layer="21"/>
<rectangle x1="-0.381" y1="-2.921" x2="0.381" y2="-1.905" layer="21"/>
<rectangle x1="-2.921" y1="-5.461" x2="-2.159" y2="-4.699" layer="21"/>
<rectangle x1="-2.921" y1="-4.699" x2="-2.159" y2="-2.921" layer="51"/>
<rectangle x1="-0.381" y1="-4.699" x2="0.381" y2="-2.921" layer="51"/>
<rectangle x1="-0.381" y1="-5.461" x2="0.381" y2="-4.699" layer="21"/>
<rectangle x1="2.159" y1="-2.921" x2="2.921" y2="-1.905" layer="21"/>
<rectangle x1="4.699" y1="-2.921" x2="5.461" y2="-1.905" layer="21"/>
<rectangle x1="2.159" y1="-5.461" x2="2.921" y2="-4.699" layer="21"/>
<rectangle x1="2.159" y1="-4.699" x2="2.921" y2="-2.921" layer="51"/>
<rectangle x1="4.699" y1="-4.699" x2="5.461" y2="-2.921" layer="51"/>
<rectangle x1="4.699" y1="-5.461" x2="5.461" y2="-4.699" layer="21"/>
<rectangle x1="7.239" y1="-2.921" x2="8.001" y2="-1.905" layer="21"/>
<rectangle x1="7.239" y1="-5.461" x2="8.001" y2="-4.699" layer="21"/>
<rectangle x1="7.239" y1="-4.699" x2="8.001" y2="-2.921" layer="51"/>
</package>
</packages>
<symbols>
<symbol name="PINH2X7">
<wire x1="-6.35" y1="-10.16" x2="8.89" y2="-10.16" width="0.4064" layer="94"/>
<wire x1="8.89" y1="-10.16" x2="8.89" y2="10.16" width="0.4064" layer="94"/>
<wire x1="8.89" y1="10.16" x2="-6.35" y2="10.16" width="0.4064" layer="94"/>
<wire x1="-6.35" y1="10.16" x2="-6.35" y2="-10.16" width="0.4064" layer="94"/>
<text x="-6.35" y="10.795" size="1.778" layer="95">&gt;NAME</text>
<text x="-6.35" y="-12.7" size="1.778" layer="96">&gt;VALUE</text>
<pin name="1" x="-2.54" y="7.62" visible="pad" length="short" direction="pas" function="dot"/>
<pin name="2" x="5.08" y="7.62" visible="pad" length="short" direction="pas" function="dot" rot="R180"/>
<pin name="3" x="-2.54" y="5.08" visible="pad" length="short" direction="pas" function="dot"/>
<pin name="4" x="5.08" y="5.08" visible="pad" length="short" direction="pas" function="dot" rot="R180"/>
<pin name="5" x="-2.54" y="2.54" visible="pad" length="short" direction="pas" function="dot"/>
<pin name="6" x="5.08" y="2.54" visible="pad" length="short" direction="pas" function="dot" rot="R180"/>
<pin name="7" x="-2.54" y="0" visible="pad" length="short" direction="pas" function="dot"/>
<pin name="8" x="5.08" y="0" visible="pad" length="short" direction="pas" function="dot" rot="R180"/>
<pin name="9" x="-2.54" y="-2.54" visible="pad" length="short" direction="pas" function="dot"/>
<pin name="10" x="5.08" y="-2.54" visible="pad" length="short" direction="pas" function="dot" rot="R180"/>
<pin name="11" x="-2.54" y="-5.08" visible="pad" length="short" direction="pas" function="dot"/>
<pin name="12" x="5.08" y="-5.08" visible="pad" length="short" direction="pas" function="dot" rot="R180"/>
<pin name="13" x="-2.54" y="-7.62" visible="pad" length="short" direction="pas" function="dot"/>
<pin name="14" x="5.08" y="-7.62" visible="pad" length="short" direction="pas" function="dot" rot="R180"/>
</symbol>
</symbols>
<devicesets>
<deviceset name="PINHD-2X7" prefix="JP" uservalue="yes">
<description>&lt;b&gt;PIN HEADER&lt;/b&gt;</description>
<gates>
<gate name="A" symbol="PINH2X7" x="0" y="0"/>
</gates>
<devices>
<device name="" package="2X07">
<connects>
<connect gate="A" pin="1" pad="1"/>
<connect gate="A" pin="10" pad="10"/>
<connect gate="A" pin="11" pad="11"/>
<connect gate="A" pin="12" pad="12"/>
<connect gate="A" pin="13" pad="13"/>
<connect gate="A" pin="14" pad="14"/>
<connect gate="A" pin="2" pad="2"/>
<connect gate="A" pin="3" pad="3"/>
<connect gate="A" pin="4" pad="4"/>
<connect gate="A" pin="5" pad="5"/>
<connect gate="A" pin="6" pad="6"/>
<connect gate="A" pin="7" pad="7"/>
<connect gate="A" pin="8" pad="8"/>
<connect gate="A" pin="9" pad="9"/>
</connects>
<technologies>
<technology name=""/>
</technologies>
</device>
<device name="/90" package="2X07/90">
<connects>
<connect gate="A" pin="1" pad="1"/>
<connect gate="A" pin="10" pad="10"/>
<connect gate="A" pin="11" pad="11"/>
<connect gate="A" pin="12" pad="12"/>
<connect gate="A" pin="13" pad="13"/>
<connect gate="A" pin="14" pad="14"/>
<connect gate="A" pin="2" pad="2"/>
<connect gate="A" pin="3" pad="3"/>
<connect gate="A" pin="4" pad="4"/>
<connect gate="A" pin="5" pad="5"/>
<connect gate="A" pin="6" pad="6"/>
<connect gate="A" pin="7" pad="7"/>
<connect gate="A" pin="8" pad="8"/>
<connect gate="A" pin="9" pad="9"/>
</connects>
<technologies>
<technology name=""/>
</technologies>
</device>
</devices>
</deviceset>
</devicesets>
</library>
</libraries>
<attributes>
</attributes>
<variantdefs>
</variantdefs>
<classes>
<class number="0" name="default" width="0" drill="0">
</class>
</classes>
<parts>
<part name="FRAME1" library="frames" deviceset="LETTER_L" device=""/>
<part name="KT-1" library="adafruit" deviceset="PINHD-1X3" device=""/>
<part name="KT-2" library="adafruit" deviceset="PINHD-1X3" device=""/>
<part name="KT-3" library="adafruit" deviceset="PINHD-1X3" device=""/>
<part name="JP1" library="pinhead" deviceset="PINHD-2X7" device=""/>
<part name="KT-4" library="adafruit" deviceset="PINHD-1X3" device=""/>
<part name="KT-5" library="adafruit" deviceset="PINHD-1X3" device=""/>
<part name="KT-6" library="adafruit" deviceset="PINHD-1X3" device=""/>
<part name="KT-7" library="adafruit" deviceset="PINHD-1X3" device=""/>
<part name="KT-8" library="adafruit" deviceset="PINHD-1X3" device=""/>
<part name="KT-9" library="adafruit" deviceset="PINHD-1X3" device=""/>
<part name="KT-10" library="adafruit" deviceset="PINHD-1X3" device=""/>
<part name="KT-11" library="adafruit" deviceset="PINHD-1X3" device=""/>
<part name="KT-12" library="adafruit" deviceset="PINHD-1X3" device=""/>
<part name="KT-13" library="adafruit" deviceset="PINHD-1X3" device=""/>
<part name="KT-14" library="adafruit" deviceset="PINHD-1X3" device=""/>
<part name="KT-15" library="adafruit" deviceset="PINHD-1X3" device=""/>
<part name="KT-16" library="adafruit" deviceset="PINHD-1X3" device=""/>
</parts>
<sheets>
<sheet>
<plain>
<text x="-109.22" y="-76.2" size="2.54" layer="94" font="fixed">EXAMPLE relayTable.h line: { 0b0 000 000 001 101 001, 2, 1, 4, 5, 3 }, // RWDCI 
      DIODE FWD/REVERSED SELECT^
                     WIRE relays ^^^
                     RESISTOR relays ^^^
                        CAPACITOR relays ^^^
                             INDUCTOR relays ^^^
                             DIODE to PAD relays ^^^
                                     WIRE to PAD2     ^
                                      RESISTOR to PAD1   ^        
                                  CAPACITOR to PAD4 (K7 on) ^
                                  INDUCTOR TO PAD5 (K4, K6 on) ^
                                            DIODE to PAD3 (K1 on) ^</text>
<text x="127" y="-91.44" size="3.048" layer="94" font="fixed">1.21</text>
<text x="130.175" y="2.54" size="1.778" layer="94" rot="R270">NO</text>
<text x="127.635" y="2.54" size="1.778" layer="94" rot="R270">COM</text>
<text x="125.095" y="2.54" size="1.778" layer="94" rot="R270">NC</text>
<text x="114.935" y="6.985" size="1.778" layer="94" rot="R270">NO - 010</text>
<text x="112.395" y="2.54" size="1.778" layer="94" rot="R270">COM</text>
<text x="109.855" y="6.985" size="1.778" layer="94" rot="R270">NC - 000</text>
<text x="99.695" y="6.985" size="1.778" layer="94" rot="R270">NO - 101</text>
<text x="97.155" y="2.54" size="1.778" layer="94" rot="R270">COM</text>
<text x="94.615" y="6.985" size="1.778" layer="94" rot="R270">NC - 001</text>
<text x="43.18" y="-74.93" size="2.794" layer="94">Southeastcon2017 Hardware Challenge 
relay board and probe pad board
connections.</text>
<text x="103.505" y="52.07" size="3.048" layer="94">DIODE</text>
<text x="8.89" y="44.45" size="3.048" layer="94">CAPACITOR</text>
<text x="-34.29" y="44.45" size="3.048" layer="94">RESISTOR</text>
<text x="49.53" y="44.45" size="3.048" layer="94">INDUCTOR</text>
<text x="-74.93" y="44.45" size="3.048" layer="94">WIRE</text>
<text x="84.455" y="2.54" size="1.778" layer="94" rot="R270">NO</text>
<text x="81.915" y="2.54" size="1.778" layer="94" rot="R270">COM</text>
<text x="79.375" y="2.54" size="1.778" layer="94" rot="R270">NC</text>
<text x="69.215" y="6.985" size="1.778" layer="94" rot="R270">NO - 010</text>
<text x="66.675" y="2.54" size="1.778" layer="94" rot="R270">COM</text>
<text x="64.135" y="6.985" size="1.778" layer="94" rot="R270">NC - 000</text>
<text x="53.975" y="6.985" size="1.778" layer="94" rot="R270">NO - 101</text>
<text x="51.435" y="2.54" size="1.778" layer="94" rot="R270">COM</text>
<text x="48.895" y="6.985" size="1.778" layer="94" rot="R270">NC - 001</text>
<text x="38.735" y="2.54" size="1.778" layer="94" rot="R270">NO</text>
<text x="36.195" y="2.54" size="1.778" layer="94" rot="R270">COM</text>
<text x="33.655" y="2.54" size="1.778" layer="94" rot="R270">NC</text>
<text x="23.495" y="6.985" size="1.778" layer="94" rot="R270">NO - 010</text>
<text x="20.955" y="2.54" size="1.778" layer="94" rot="R270">COM</text>
<text x="18.415" y="6.985" size="1.778" layer="94" rot="R270">NC - 000</text>
<text x="8.255" y="6.985" size="1.778" layer="94" rot="R270">NO - 101</text>
<text x="5.715" y="2.54" size="1.778" layer="94" rot="R270">COM</text>
<text x="3.175" y="6.985" size="1.778" layer="94" rot="R270">NC - 001</text>
<text x="-6.985" y="2.54" size="1.778" layer="94" rot="R270">NO</text>
<text x="-9.525" y="2.54" size="1.778" layer="94" rot="R270">COM</text>
<text x="-12.065" y="2.54" size="1.778" layer="94" rot="R270">NC</text>
<text x="-22.225" y="6.985" size="1.778" layer="94" rot="R270">NO - 010</text>
<text x="-24.765" y="2.54" size="1.778" layer="94" rot="R270">COM</text>
<text x="-27.305" y="6.985" size="1.778" layer="94" rot="R270">NC - 000</text>
<text x="-37.465" y="6.985" size="1.778" layer="94" rot="R270">NO - 101</text>
<text x="-40.005" y="2.54" size="1.778" layer="94" rot="R270">COM</text>
<text x="-42.545" y="6.985" size="1.778" layer="94" rot="R270">NC - 001</text>
<text x="-52.705" y="2.54" size="1.778" layer="94" rot="R270">NO</text>
<text x="-55.245" y="2.54" size="1.778" layer="94" rot="R270">COM</text>
<text x="-57.785" y="2.54" size="1.778" layer="94" rot="R270">NC</text>
<text x="-67.945" y="6.985" size="1.778" layer="94" rot="R270">NO - 010</text>
<text x="-70.485" y="2.54" size="1.778" layer="94" rot="R270">COM</text>
<text x="-73.025" y="6.985" size="1.778" layer="94" rot="R270">NC - 000</text>
<text x="-83.185" y="6.985" size="1.778" layer="94" rot="R270">NO - 101</text>
<text x="-85.725" y="2.54" size="1.778" layer="94" rot="R270">COM</text>
<text x="-88.265" y="6.985" size="1.778" layer="94" rot="R270">NC - 001</text>
<text x="-98.425" y="6.985" size="1.778" layer="94" rot="R270">NO - 1</text>
<text x="-100.965" y="2.54" size="1.778" layer="94" rot="R270">COM</text>
<text x="-103.505" y="6.985" size="1.778" layer="94" rot="R270">NC - 0</text>
<text x="-44.45" y="59.69" size="5.08" layer="94">RELAY BOARD CONNECTIONS</text>
<text x="-90.17" y="-95.25" size="3.048" layer="94">PROBE BOARD CONNECTIONS</text>
<text x="-99.06" y="-78.74" size="2.032" layer="94">(2 - YELLOW)</text>
<text x="-99.06" y="-81.28" size="2.032" layer="94">(1 - RED)</text>
<text x="-99.06" y="-76.2" size="2.032" layer="94">(3 - GREEN)</text>
<text x="-99.06" y="-73.66" size="2.032" layer="94">(4 - BLUE)</text>
<text x="-99.06" y="-71.12" size="2.032" layer="94">(5 - WHITE)</text>
<text x="-64.135" y="8.255" size="2.032" layer="94">black</text>
<text x="-64.135" y="5.08" size="2.032" layer="94">black</text>
<text x="-18.415" y="8.255" size="2.032" layer="94">black</text>
<text x="-18.415" y="5.08" size="2.032" layer="94">black</text>
<text x="26.67" y="7.62" size="2.032" layer="94">black</text>
<text x="26.67" y="5.08" size="2.032" layer="94">black</text>
<text x="71.755" y="7.62" size="2.032" layer="94">black</text>
<text x="71.755" y="5.08" size="2.032" layer="94">black</text>
<text x="117.475" y="7.62" size="2.032" layer="94">black</text>
<text x="118.11" y="5.08" size="2.032" layer="94">black</text>
<text x="-64.135" y="20.32" size="2.032" layer="94">yellow</text>
<text x="-64.135" y="22.86" size="2.032" layer="94">green</text>
<text x="-64.135" y="25.4" size="2.032" layer="94">blue</text>
<text x="-64.135" y="27.94" size="2.032" layer="94">white</text>
<text x="37.465" y="20.32" size="2.032" layer="94">yellow</text>
<text x="37.465" y="22.86" size="2.032" layer="94">green</text>
<text x="37.465" y="25.4" size="2.032" layer="94">blue</text>
<text x="37.465" y="27.94" size="2.032" layer="94">white</text>
<text x="37.465" y="17.78" size="2.032" layer="94">red</text>
<text x="83.82" y="20.32" size="2.032" layer="94">yellow</text>
<text x="83.82" y="22.86" size="2.032" layer="94">green</text>
<text x="83.82" y="25.4" size="2.032" layer="94">blue</text>
<text x="83.82" y="17.78" size="2.032" layer="94">red</text>
<text x="-8.255" y="20.32" size="2.032" layer="94">yellow</text>
<text x="-8.255" y="22.86" size="2.032" layer="94">green</text>
<text x="-8.255" y="25.4" size="2.032" layer="94">blue</text>
<text x="-8.255" y="27.94" size="2.032" layer="94">white</text>
<text x="-8.255" y="17.78" size="2.032" layer="94">red</text>
<text x="-107.315" y="-24.13" size="3.048" layer="94">Bit 15</text>
<text x="-74.295" y="-24.13" size="3.048" layer="94">Bit 14-12</text>
<text x="-28.575" y="-24.13" size="3.048" layer="94">Bit 11-9</text>
<text x="14.605" y="-24.13" size="3.048" layer="94">Bit 8-6</text>
<text x="60.325" y="-24.13" size="3.048" layer="94">Bit 5-3</text>
<text x="106.045" y="-24.13" size="3.048" layer="94">Bit 2-0</text>
<text x="-94.615" y="33.655" size="2.032" layer="94">black</text>
<text x="118.745" y="33.655" size="2.032" layer="94">black</text>
<text x="1.905" y="33.655" size="2.032" layer="94">black</text>
</plain>
<instances>
<instance part="FRAME1" gate="G$1" x="-111.76" y="-99.06"/>
<instance part="FRAME1" gate="G$2" x="35.56" y="-99.06"/>
<instance part="KT-1" gate="A" x="127" y="-10.16" rot="R270"/>
<instance part="KT-2" gate="A" x="111.76" y="-10.16" rot="R270"/>
<instance part="KT-3" gate="A" x="96.52" y="-10.16" rot="R270"/>
<instance part="JP1" gate="A" x="-63.5" y="-76.2"/>
<instance part="KT-4" gate="A" x="81.28" y="-10.16" rot="R270"/>
<instance part="KT-5" gate="A" x="66.04" y="-10.16" rot="R270"/>
<instance part="KT-6" gate="A" x="50.8" y="-10.16" rot="R270"/>
<instance part="KT-7" gate="A" x="35.56" y="-10.16" rot="R270"/>
<instance part="KT-8" gate="A" x="20.32" y="-10.16" rot="R270"/>
<instance part="KT-9" gate="A" x="5.08" y="-10.16" rot="R270"/>
<instance part="KT-10" gate="A" x="-10.16" y="-10.16" rot="R270"/>
<instance part="KT-11" gate="A" x="-25.4" y="-10.16" rot="R270"/>
<instance part="KT-12" gate="A" x="-40.64" y="-10.16" rot="R270"/>
<instance part="KT-13" gate="A" x="-55.88" y="-10.16" rot="R270"/>
<instance part="KT-14" gate="A" x="-71.12" y="-10.16" rot="R270"/>
<instance part="KT-15" gate="A" x="-86.36" y="-10.16" rot="R270"/>
<instance part="KT-16" gate="A" x="-101.6" y="-10.16" rot="R270"/>
</instances>
<busses>
</busses>
<nets>
<net name="PAD1" class="0">
<segment>
<wire x1="-78.74" y1="-81.28" x2="-66.04" y2="-81.28" width="0.1524" layer="91"/>
<pinref part="JP1" gate="A" pin="11"/>
<label x="-78.74" y="-81.28" size="1.778" layer="95"/>
</segment>
<segment>
<pinref part="KT-2" gate="A" pin="3"/>
<wire x1="109.22" y1="-7.62" x2="109.22" y2="17.78" width="0.1524" layer="91"/>
<label x="111.125" y="10.16" size="1.778" layer="95" rot="R90"/>
<pinref part="KT-5" gate="A" pin="3"/>
<wire x1="63.5" y1="-7.62" x2="63.5" y2="17.78" width="0.1524" layer="91"/>
<label x="65.405" y="10.16" size="1.778" layer="95" rot="R90"/>
<wire x1="109.22" y1="17.78" x2="63.5" y2="17.78" width="0.1524" layer="91"/>
<pinref part="KT-8" gate="A" pin="3"/>
<wire x1="17.78" y1="-7.62" x2="17.78" y2="17.78" width="0.1524" layer="91"/>
<label x="19.685" y="10.16" size="1.778" layer="95" rot="R90"/>
<wire x1="63.5" y1="17.78" x2="17.78" y2="17.78" width="0.1524" layer="91"/>
<junction x="63.5" y="17.78"/>
<pinref part="KT-11" gate="A" pin="3"/>
<wire x1="-27.94" y1="-7.62" x2="-27.94" y2="17.78" width="0.1524" layer="91"/>
<label x="-26.035" y="10.16" size="1.778" layer="95" rot="R90"/>
<wire x1="17.78" y1="17.78" x2="-27.94" y2="17.78" width="0.1524" layer="91"/>
<junction x="17.78" y="17.78"/>
<wire x1="109.22" y1="17.78" x2="109.22" y2="40.64" width="0.1524" layer="91"/>
<junction x="109.22" y="17.78"/>
<label x="109.22" y="43.18" size="1.778" layer="95"/>
</segment>
</net>
<net name="PAD2" class="0">
<segment>
<wire x1="-78.74" y1="-78.74" x2="-66.04" y2="-78.74" width="0.1524" layer="91"/>
<pinref part="JP1" gate="A" pin="9"/>
<label x="-78.74" y="-78.74" size="1.778" layer="95"/>
</segment>
<segment>
<pinref part="KT-2" gate="A" pin="1"/>
<wire x1="114.3" y1="-7.62" x2="114.3" y2="20.32" width="0.1524" layer="91"/>
<label x="116.205" y="10.16" size="1.778" layer="95" rot="R90"/>
<pinref part="KT-8" gate="A" pin="1"/>
<wire x1="22.86" y1="-7.62" x2="22.86" y2="20.32" width="0.1524" layer="91"/>
<label x="24.765" y="10.16" size="1.778" layer="95" rot="R90"/>
<wire x1="114.3" y1="20.32" x2="68.58" y2="20.32" width="0.1524" layer="91"/>
<pinref part="KT-14" gate="A" pin="3"/>
<wire x1="68.58" y1="20.32" x2="22.86" y2="20.32" width="0.1524" layer="91"/>
<wire x1="-73.66" y1="-7.62" x2="-73.66" y2="20.32" width="0.1524" layer="91"/>
<label x="-71.755" y="10.16" size="1.778" layer="95" rot="R90"/>
<wire x1="22.86" y1="20.32" x2="-73.66" y2="20.32" width="0.1524" layer="91"/>
<junction x="22.86" y="20.32"/>
<wire x1="114.3" y1="20.32" x2="114.3" y2="40.64" width="0.1524" layer="91"/>
<junction x="114.3" y="20.32"/>
<label x="114.3" y="40.64" size="1.778" layer="95"/>
<pinref part="KT-5" gate="A" pin="1"/>
<wire x1="68.58" y1="-7.62" x2="68.58" y2="20.32" width="0.1524" layer="91"/>
<label x="70.485" y="10.16" size="1.778" layer="95" rot="R90"/>
<junction x="68.58" y="20.32"/>
</segment>
</net>
<net name="PAD4" class="0">
<segment>
<wire x1="-78.74" y1="-73.66" x2="-66.04" y2="-73.66" width="0.1524" layer="91"/>
<pinref part="JP1" gate="A" pin="5"/>
<label x="-78.74" y="-73.66" size="1.778" layer="95"/>
</segment>
<segment>
<pinref part="KT-15" gate="A" pin="3"/>
<wire x1="-88.9" y1="-7.62" x2="-88.9" y2="25.4" width="0.1524" layer="91"/>
<label x="-86.995" y="10.16" size="1.778" layer="95" rot="R90"/>
<pinref part="KT-12" gate="A" pin="3"/>
<wire x1="-43.18" y1="-7.62" x2="-43.18" y2="25.4" width="0.1524" layer="91"/>
<label x="-41.275" y="10.16" size="1.778" layer="95" rot="R90"/>
<pinref part="KT-3" gate="A" pin="1"/>
<wire x1="99.06" y1="-7.62" x2="99.06" y2="25.4" width="0.1524" layer="91"/>
<label x="100.965" y="10.16" size="1.778" layer="95" rot="R90"/>
<pinref part="KT-9" gate="A" pin="3"/>
<wire x1="2.54" y1="-7.62" x2="2.54" y2="25.4" width="0.1524" layer="91"/>
<label x="4.445" y="10.16" size="1.778" layer="95" rot="R90"/>
<wire x1="99.06" y1="25.4" x2="2.54" y2="25.4" width="0.1524" layer="91"/>
<wire x1="-43.18" y1="25.4" x2="2.54" y2="25.4" width="0.1524" layer="91"/>
<junction x="2.54" y="25.4"/>
<wire x1="-88.9" y1="25.4" x2="-43.18" y2="25.4" width="0.1524" layer="91"/>
<junction x="-43.18" y="25.4"/>
<wire x1="99.06" y1="25.4" x2="99.06" y2="40.64" width="0.1524" layer="91"/>
<junction x="99.06" y="25.4"/>
<label x="99.06" y="40.64" size="1.778" layer="95"/>
</segment>
</net>
<net name="PAD3" class="0">
<segment>
<wire x1="-78.74" y1="-76.2" x2="-66.04" y2="-76.2" width="0.1524" layer="91"/>
<pinref part="JP1" gate="A" pin="7"/>
<label x="-78.74" y="-76.2" size="1.778" layer="95"/>
</segment>
<segment>
<pinref part="KT-3" gate="A" pin="3"/>
<wire x1="93.98" y1="-7.62" x2="93.98" y2="22.86" width="0.1524" layer="91"/>
<label x="95.885" y="10.16" size="1.778" layer="95" rot="R90"/>
<pinref part="KT-6" gate="A" pin="3"/>
<wire x1="48.26" y1="-7.62" x2="48.26" y2="22.86" width="0.1524" layer="91"/>
<label x="50.165" y="10.16" size="1.778" layer="95" rot="R90"/>
<wire x1="93.98" y1="22.86" x2="48.26" y2="22.86" width="0.1524" layer="91"/>
<pinref part="KT-11" gate="A" pin="1"/>
<wire x1="-22.86" y1="-7.62" x2="-22.86" y2="22.86" width="0.1524" layer="91"/>
<label x="-20.955" y="10.16" size="1.778" layer="95" rot="R90"/>
<pinref part="KT-14" gate="A" pin="1"/>
<wire x1="-68.58" y1="-7.62" x2="-68.58" y2="22.86" width="0.1524" layer="91"/>
<label x="-66.675" y="10.16" size="1.778" layer="95" rot="R90"/>
<wire x1="-22.86" y1="22.86" x2="-68.58" y2="22.86" width="0.1524" layer="91"/>
<wire x1="48.26" y1="22.86" x2="-22.86" y2="22.86" width="0.1524" layer="91"/>
<junction x="48.26" y="22.86"/>
<junction x="-22.86" y="22.86"/>
<wire x1="93.98" y1="22.86" x2="93.98" y2="40.64" width="0.1524" layer="91"/>
<junction x="93.98" y="22.86"/>
<label x="93.98" y="43.18" size="1.778" layer="95"/>
<wire x1="-22.86" y1="22.86" x2="-68.58" y2="22.86" width="0.1524" layer="91"/>
<wire x1="-22.86" y1="22.86" x2="-68.58" y2="22.86" width="0.1524" layer="91"/>
</segment>
</net>
<net name="N$11" class="0">
<segment>
<pinref part="KT-1" gate="A" pin="1"/>
<wire x1="129.54" y1="-7.62" x2="129.54" y2="7.62" width="0.1524" layer="91"/>
<pinref part="KT-3" gate="A" pin="2"/>
<wire x1="96.52" y1="-7.62" x2="96.52" y2="7.62" width="0.1524" layer="91"/>
<wire x1="129.54" y1="7.62" x2="96.52" y2="7.62" width="0.1524" layer="91"/>
</segment>
</net>
<net name="N$13" class="0">
<segment>
<pinref part="KT-1" gate="A" pin="3"/>
<wire x1="124.46" y1="-7.62" x2="124.46" y2="5.08" width="0.1524" layer="91"/>
<pinref part="KT-2" gate="A" pin="2"/>
<wire x1="111.76" y1="-7.62" x2="111.76" y2="5.08" width="0.1524" layer="91"/>
<wire x1="124.46" y1="5.08" x2="111.76" y2="5.08" width="0.1524" layer="91"/>
</segment>
</net>
<net name="I" class="0">
<segment>
<wire x1="-58.42" y1="-73.66" x2="-45.72" y2="-73.66" width="0.1524" layer="91"/>
<pinref part="JP1" gate="A" pin="6"/>
<label x="-50.8" y="-73.66" size="1.778" layer="95"/>
</segment>
<segment>
<pinref part="KT-4" gate="A" pin="2"/>
<wire x1="81.28" y1="-7.62" x2="81.28" y2="40.64" width="0.1524" layer="91"/>
<label x="83.82" y="38.735" size="1.778" layer="95"/>
</segment>
</net>
<net name="W" class="0">
<segment>
<pinref part="KT-16" gate="A" pin="2"/>
<wire x1="-101.6" y1="-7.62" x2="-101.6" y2="33.02" width="0.1524" layer="91"/>
<wire x1="-101.6" y1="33.02" x2="127" y2="33.02" width="0.1524" layer="91"/>
<pinref part="KT-1" gate="A" pin="2"/>
<wire x1="127" y1="-7.62" x2="127" y2="33.02" width="0.1524" layer="91"/>
</segment>
<segment>
<pinref part="KT-13" gate="A" pin="2"/>
<wire x1="-55.88" y1="-7.62" x2="-55.88" y2="40.64" width="0.1524" layer="91"/>
<label x="-53.34" y="38.1" size="1.778" layer="95"/>
</segment>
<segment>
<wire x1="-58.42" y1="-81.28" x2="-45.72" y2="-81.28" width="0.1524" layer="91"/>
<pinref part="JP1" gate="A" pin="12"/>
<label x="-50.8" y="-81.28" size="1.778" layer="95"/>
</segment>
</net>
<net name="PAD5" class="0">
<segment>
<wire x1="-78.74" y1="-71.12" x2="-66.04" y2="-71.12" width="0.1524" layer="91"/>
<pinref part="JP1" gate="A" pin="3"/>
<label x="-78.74" y="-71.12" size="1.778" layer="95"/>
</segment>
<segment>
<pinref part="KT-15" gate="A" pin="1"/>
<wire x1="-83.82" y1="-7.62" x2="-83.82" y2="27.94" width="0.1524" layer="91"/>
<label x="-81.915" y="10.16" size="1.778" layer="95" rot="R90"/>
<pinref part="KT-12" gate="A" pin="1"/>
<wire x1="-38.1" y1="-7.62" x2="-38.1" y2="27.94" width="0.1524" layer="91"/>
<label x="-36.195" y="10.16" size="1.778" layer="95" rot="R90"/>
<pinref part="KT-9" gate="A" pin="1"/>
<wire x1="7.62" y1="-7.62" x2="7.62" y2="27.94" width="0.1524" layer="91"/>
<label x="9.525" y="10.16" size="1.778" layer="95" rot="R90"/>
<pinref part="KT-6" gate="A" pin="1"/>
<wire x1="53.34" y1="-7.62" x2="53.34" y2="27.94" width="0.1524" layer="91"/>
<label x="55.245" y="10.16" size="1.778" layer="95" rot="R90"/>
<wire x1="7.62" y1="27.94" x2="53.34" y2="27.94" width="0.1524" layer="91"/>
<wire x1="-38.1" y1="27.94" x2="7.62" y2="27.94" width="0.1524" layer="91"/>
<junction x="7.62" y="27.94"/>
<wire x1="-83.82" y1="27.94" x2="-38.1" y2="27.94" width="0.1524" layer="91"/>
<junction x="-38.1" y="27.94"/>
<wire x1="-83.82" y1="27.94" x2="-83.82" y2="40.64" width="0.1524" layer="91"/>
<junction x="-83.82" y="27.94"/>
<label x="-83.82" y="38.1" size="1.778" layer="95"/>
</segment>
</net>
<net name="C" class="0">
<segment>
<wire x1="-58.42" y1="-71.12" x2="-45.72" y2="-71.12" width="0.1524" layer="91"/>
<pinref part="JP1" gate="A" pin="4"/>
<label x="-50.8" y="-71.12" size="1.778" layer="95"/>
</segment>
<segment>
<pinref part="KT-7" gate="A" pin="2"/>
<wire x1="35.56" y1="-7.62" x2="35.56" y2="40.64" width="0.1524" layer="91"/>
<label x="38.1" y="38.735" size="1.778" layer="95"/>
</segment>
</net>
<net name="R" class="0">
<segment>
<pinref part="JP1" gate="A" pin="2"/>
<wire x1="-58.42" y1="-68.58" x2="-45.72" y2="-68.58" width="0.1524" layer="91"/>
<label x="-50.8" y="-68.58" size="1.778" layer="95"/>
</segment>
<segment>
<pinref part="KT-10" gate="A" pin="2"/>
<wire x1="-10.16" y1="-7.62" x2="-10.16" y2="40.64" width="0.1524" layer="91"/>
<label x="-7.62" y="38.735" size="1.778" layer="95"/>
</segment>
</net>
<net name="DR" class="0">
<segment>
<wire x1="-58.42" y1="-78.74" x2="-45.72" y2="-78.74" width="0.1524" layer="91"/>
<pinref part="JP1" gate="A" pin="10"/>
<label x="-50.8" y="-78.74" size="1.778" layer="95"/>
</segment>
<segment>
<pinref part="KT-16" gate="A" pin="3"/>
<wire x1="-104.14" y1="-7.62" x2="-104.14" y2="40.64" width="0.1524" layer="91"/>
<label x="-101.6" y="41.275" size="1.778" layer="95"/>
</segment>
</net>
<net name="PAD6-COMMON" class="0">
<segment>
<wire x1="-81.28" y1="-68.58" x2="-66.04" y2="-68.58" width="0.1524" layer="91"/>
<pinref part="JP1" gate="A" pin="1"/>
<label x="-88.9" y="-68.58" size="1.778" layer="95"/>
<wire x1="-81.28" y1="-68.58" x2="-81.28" y2="-88.9" width="0.1524" layer="91"/>
<wire x1="-58.42" y1="-83.82" x2="-45.72" y2="-83.82" width="0.1524" layer="91"/>
<pinref part="JP1" gate="A" pin="14"/>
<label x="-50.8" y="-83.82" size="1.778" layer="95"/>
<wire x1="-81.28" y1="-88.9" x2="-45.72" y2="-88.9" width="0.1524" layer="91"/>
<wire x1="-45.72" y1="-88.9" x2="-45.72" y2="-83.82" width="0.1524" layer="91"/>
</segment>
</net>
<net name="N$12" class="0">
<segment>
<pinref part="KT-4" gate="A" pin="1"/>
<wire x1="83.82" y1="-7.62" x2="83.82" y2="7.62" width="0.1524" layer="91"/>
<pinref part="KT-6" gate="A" pin="2"/>
<wire x1="50.8" y1="-7.62" x2="50.8" y2="7.62" width="0.1524" layer="91"/>
<wire x1="83.82" y1="7.62" x2="50.8" y2="7.62" width="0.1524" layer="91"/>
</segment>
</net>
<net name="N$14" class="0">
<segment>
<pinref part="KT-4" gate="A" pin="3"/>
<wire x1="78.74" y1="-7.62" x2="78.74" y2="5.08" width="0.1524" layer="91"/>
<pinref part="KT-5" gate="A" pin="2"/>
<wire x1="66.04" y1="-7.62" x2="66.04" y2="5.08" width="0.1524" layer="91"/>
<wire x1="78.74" y1="5.08" x2="66.04" y2="5.08" width="0.1524" layer="91"/>
</segment>
</net>
<net name="N$15" class="0">
<segment>
<pinref part="KT-7" gate="A" pin="1"/>
<wire x1="38.1" y1="-7.62" x2="38.1" y2="7.62" width="0.1524" layer="91"/>
<pinref part="KT-9" gate="A" pin="2"/>
<wire x1="5.08" y1="-7.62" x2="5.08" y2="7.62" width="0.1524" layer="91"/>
<wire x1="38.1" y1="7.62" x2="5.08" y2="7.62" width="0.1524" layer="91"/>
</segment>
</net>
<net name="N$16" class="0">
<segment>
<pinref part="KT-7" gate="A" pin="3"/>
<wire x1="33.02" y1="-7.62" x2="33.02" y2="5.08" width="0.1524" layer="91"/>
<pinref part="KT-8" gate="A" pin="2"/>
<wire x1="20.32" y1="-7.62" x2="20.32" y2="5.08" width="0.1524" layer="91"/>
<wire x1="33.02" y1="5.08" x2="20.32" y2="5.08" width="0.1524" layer="91"/>
</segment>
</net>
<net name="N$17" class="0">
<segment>
<pinref part="KT-10" gate="A" pin="1"/>
<wire x1="-7.62" y1="-7.62" x2="-7.62" y2="7.62" width="0.1524" layer="91"/>
<pinref part="KT-12" gate="A" pin="2"/>
<wire x1="-40.64" y1="-7.62" x2="-40.64" y2="7.62" width="0.1524" layer="91"/>
<wire x1="-7.62" y1="7.62" x2="-40.64" y2="7.62" width="0.1524" layer="91"/>
</segment>
</net>
<net name="N$18" class="0">
<segment>
<pinref part="KT-10" gate="A" pin="3"/>
<wire x1="-12.7" y1="-7.62" x2="-12.7" y2="5.08" width="0.1524" layer="91"/>
<pinref part="KT-11" gate="A" pin="2"/>
<wire x1="-25.4" y1="-7.62" x2="-25.4" y2="5.08" width="0.1524" layer="91"/>
<wire x1="-12.7" y1="5.08" x2="-25.4" y2="5.08" width="0.1524" layer="91"/>
</segment>
</net>
<net name="N$20" class="0">
<segment>
<pinref part="KT-13" gate="A" pin="3"/>
<wire x1="-58.42" y1="-7.62" x2="-58.42" y2="5.08" width="0.1524" layer="91"/>
<pinref part="KT-14" gate="A" pin="2"/>
<wire x1="-71.12" y1="-7.62" x2="-71.12" y2="5.08" width="0.1524" layer="91"/>
<wire x1="-58.42" y1="5.08" x2="-71.12" y2="5.08" width="0.1524" layer="91"/>
</segment>
</net>
<net name="N$23" class="0">
<segment>
<pinref part="KT-13" gate="A" pin="1"/>
<wire x1="-53.34" y1="-7.62" x2="-53.34" y2="7.62" width="0.1524" layer="91"/>
<pinref part="KT-15" gate="A" pin="2"/>
<wire x1="-86.36" y1="-7.62" x2="-86.36" y2="7.62" width="0.1524" layer="91"/>
<wire x1="-53.34" y1="7.62" x2="-86.36" y2="7.62" width="0.1524" layer="91"/>
</segment>
</net>
<net name="N$1" class="0">
<segment>
<wire x1="-91.44" y1="-15.24" x2="-50.8" y2="-15.24" width="2.032" layer="91"/>
</segment>
<segment>
<wire x1="-45.72" y1="-15.24" x2="-5.08" y2="-15.24" width="2.032" layer="91"/>
</segment>
<segment>
<wire x1="0" y1="-15.24" x2="40.64" y2="-15.24" width="2.032" layer="91"/>
</segment>
<segment>
<wire x1="91.44" y1="-15.24" x2="132.08" y2="-15.24" width="2.032" layer="91"/>
</segment>
<segment>
<wire x1="45.72" y1="-15.24" x2="86.36" y2="-15.24" width="2.032" layer="91"/>
</segment>
</net>
<net name="D" class="0">
<segment>
<wire x1="-58.42" y1="-76.2" x2="-45.72" y2="-76.2" width="0.1524" layer="91"/>
<pinref part="JP1" gate="A" pin="8"/>
<label x="-50.8" y="-76.2" size="1.778" layer="95"/>
</segment>
<segment>
<pinref part="KT-16" gate="A" pin="1"/>
<wire x1="-99.06" y1="-7.62" x2="-99.06" y2="40.64" width="0.1524" layer="91"/>
<label x="-96.52" y="38.735" size="1.778" layer="95"/>
</segment>
</net>
</nets>
</sheet>
</sheets>
</schematic>
</drawing>
<compatibility>
<note version="6.3" minversion="6.2.2" severity="warning">
Since Version 6.2.2 text objects can contain more than one line,
which will not be processed correctly with this version.
</note>
</compatibility>
</eagle>
