<?xml version="1.0" encoding="utf-8"?>
<!DOCTYPE eagle SYSTEM "eagle.dtd">
<eagle version="7.6.0">
<drawing>
<settings>
<setting alwaysvectorfont="yes"/>
<setting verticaltext="up"/>
</settings>
<grid distance="0.1" unitdist="inch" unit="inch" style="lines" multiple="1" display="no" altdistance="0.01" altunitdist="inch" altunit="inch"/>
<layers>
<layer number="1" name="Top" color="4" fill="1" visible="no" active="no"/>
<layer number="16" name="Bottom" color="1" fill="1" visible="no" active="no"/>
<layer number="17" name="Pads" color="2" fill="1" visible="no" active="no"/>
<layer number="18" name="Vias" color="2" fill="1" visible="no" active="no"/>
<layer number="19" name="Unrouted" color="6" fill="1" visible="no" active="no"/>
<layer number="20" name="Dimension" color="15" fill="1" visible="no" active="no"/>
<layer number="21" name="tPlace" color="16" fill="1" visible="no" active="no"/>
<layer number="22" name="bPlace" color="7" fill="1" visible="no" active="no"/>
<layer number="23" name="tOrigins" color="15" fill="1" visible="no" active="no"/>
<layer number="24" name="bOrigins" color="15" fill="1" visible="no" active="no"/>
<layer number="25" name="tNames" color="7" fill="1" visible="no" active="no"/>
<layer number="26" name="bNames" color="7" fill="1" visible="no" active="no"/>
<layer number="27" name="tValues" color="7" fill="1" visible="no" active="no"/>
<layer number="28" name="bValues" color="7" fill="1" visible="no" active="no"/>
<layer number="29" name="tStop" color="7" fill="3" visible="no" active="no"/>
<layer number="30" name="bStop" color="7" fill="6" visible="no" active="no"/>
<layer number="31" name="tCream" color="7" fill="4" visible="no" active="no"/>
<layer number="32" name="bCream" color="7" fill="5" visible="no" active="no"/>
<layer number="33" name="tFinish" color="6" fill="3" visible="no" active="no"/>
<layer number="34" name="bFinish" color="6" fill="6" visible="no" active="no"/>
<layer number="35" name="tGlue" color="7" fill="4" visible="no" active="no"/>
<layer number="36" name="bGlue" color="7" fill="5" visible="no" active="no"/>
<layer number="37" name="tTest" color="7" fill="1" visible="no" active="no"/>
<layer number="38" name="bTest" color="7" fill="1" visible="no" active="no"/>
<layer number="39" name="tKeepout" color="4" fill="11" visible="no" active="no"/>
<layer number="40" name="bKeepout" color="1" fill="11" visible="no" active="no"/>
<layer number="41" name="tRestrict" color="4" fill="10" visible="no" active="no"/>
<layer number="42" name="bRestrict" color="1" fill="10" visible="no" active="no"/>
<layer number="43" name="vRestrict" color="2" fill="10" visible="no" active="no"/>
<layer number="44" name="Drills" color="7" fill="1" visible="no" active="no"/>
<layer number="45" name="Holes" color="7" fill="1" visible="no" active="no"/>
<layer number="46" name="Milling" color="3" fill="1" visible="no" active="no"/>
<layer number="47" name="Measures" color="7" fill="1" visible="no" active="no"/>
<layer number="48" name="Document" color="7" fill="1" visible="no" active="no"/>
<layer number="49" name="Reference" color="7" fill="1" visible="no" active="no"/>
<layer number="50" name="dxf" color="7" fill="1" visible="no" active="no"/>
<layer number="51" name="tDocu" color="7" fill="1" visible="no" active="no"/>
<layer number="52" name="bDocu" color="7" fill="1" visible="no" active="no"/>
<layer number="53" name="tGND_GNDA" color="7" fill="9" visible="no" active="no"/>
<layer number="54" name="bGND_GNDA" color="1" fill="9" visible="no" active="no"/>
<layer number="56" name="wert" color="7" fill="1" visible="no" active="no"/>
<layer number="57" name="tCAD" color="7" fill="1" visible="no" active="no"/>
<layer number="59" name="tCarbon" color="7" fill="1" visible="no" active="no"/>
<layer number="60" name="bCarbon" color="7" fill="1" visible="no" active="no"/>
<layer number="90" name="Modules" color="5" fill="1" visible="yes" active="yes"/>
<layer number="91" name="Nets" color="2" fill="1" visible="yes" active="yes"/>
<layer number="92" name="Busses" color="1" fill="1" visible="yes" active="yes"/>
<layer number="93" name="Pins" color="2" fill="1" visible="no" active="yes"/>
<layer number="94" name="Symbols" color="4" fill="1" visible="yes" active="yes"/>
<layer number="95" name="Names" color="7" fill="1" visible="yes" active="yes"/>
<layer number="96" name="Values" color="7" fill="1" visible="yes" active="yes"/>
<layer number="97" name="Info" color="7" fill="1" visible="yes" active="yes"/>
<layer number="98" name="Guide" color="6" fill="1" visible="yes" active="yes"/>
<layer number="99" name="SpiceOrder" color="7" fill="1" visible="yes" active="yes"/>
<layer number="100" name="Muster" color="7" fill="1" visible="no" active="no"/>
<layer number="101" name="Patch_Top" color="12" fill="4" visible="no" active="yes"/>
<layer number="102" name="Vscore" color="7" fill="1" visible="no" active="yes"/>
<layer number="103" name="tMap" color="7" fill="1" visible="no" active="yes"/>
<layer number="104" name="Name" color="16" fill="1" visible="no" active="yes"/>
<layer number="105" name="tPlate" color="7" fill="1" visible="no" active="yes"/>
<layer number="106" name="bPlate" color="7" fill="1" visible="no" active="yes"/>
<layer number="107" name="Crop" color="7" fill="1" visible="no" active="yes"/>
<layer number="108" name="fp8" color="7" fill="1" visible="yes" active="yes"/>
<layer number="109" name="fp9" color="7" fill="1" visible="yes" active="yes"/>
<layer number="110" name="fp0" color="7" fill="1" visible="yes" active="yes"/>
<layer number="111" name="LPC17xx" color="7" fill="1" visible="yes" active="yes"/>
<layer number="112" name="tSilk" color="7" fill="1" visible="yes" active="yes"/>
<layer number="113" name="IDFDebug" color="7" fill="1" visible="no" active="no"/>
<layer number="114" name="FRNTMAAT1" color="7" fill="1" visible="yes" active="yes"/>
<layer number="115" name="FRNTMAAT2" color="7" fill="1" visible="yes" active="yes"/>
<layer number="116" name="Patch_BOT" color="9" fill="4" visible="no" active="yes"/>
<layer number="117" name="BACKMAAT1" color="7" fill="1" visible="yes" active="yes"/>
<layer number="118" name="Rect_Pads" color="7" fill="1" visible="no" active="no"/>
<layer number="119" name="KAP_TEKEN" color="7" fill="1" visible="yes" active="yes"/>
<layer number="120" name="KAP_MAAT1" color="7" fill="1" visible="yes" active="yes"/>
<layer number="121" name="_tsilk" color="7" fill="1" visible="no" active="yes"/>
<layer number="122" name="_bsilk" color="7" fill="1" visible="no" active="yes"/>
<layer number="123" name="tTestmark" color="7" fill="1" visible="yes" active="yes"/>
<layer number="124" name="bTestmark" color="7" fill="1" visible="yes" active="yes"/>
<layer number="125" name="_tNames" color="7" fill="1" visible="no" active="yes"/>
<layer number="126" name="_bNames" color="7" fill="1" visible="yes" active="yes"/>
<layer number="127" name="_tValues" color="7" fill="1" visible="yes" active="yes"/>
<layer number="128" name="_bValues" color="7" fill="1" visible="yes" active="yes"/>
<layer number="129" name="Mask" color="7" fill="1" visible="yes" active="yes"/>
<layer number="130" name="SMDSTROOK" color="7" fill="1" visible="yes" active="yes"/>
<layer number="131" name="tAdjust" color="7" fill="1" visible="yes" active="yes"/>
<layer number="132" name="bAdjust" color="7" fill="1" visible="yes" active="yes"/>
<layer number="144" name="Drill_legend" color="7" fill="1" visible="no" active="yes"/>
<layer number="150" name="Notes" color="7" fill="1" visible="no" active="yes"/>
<layer number="151" name="HeatSink" color="7" fill="1" visible="no" active="yes"/>
<layer number="152" name="_bDocu" color="7" fill="1" visible="yes" active="yes"/>
<layer number="153" name="FabDoc1" color="6" fill="1" visible="no" active="no"/>
<layer number="154" name="FabDoc2" color="2" fill="1" visible="no" active="no"/>
<layer number="155" name="FabDoc3" color="7" fill="15" visible="no" active="no"/>
<layer number="199" name="Contour" color="7" fill="1" visible="yes" active="yes"/>
<layer number="200" name="200bmp" color="1" fill="10" visible="no" active="yes"/>
<layer number="201" name="201bmp" color="2" fill="10" visible="no" active="yes"/>
<layer number="202" name="202bmp" color="3" fill="10" visible="no" active="yes"/>
<layer number="203" name="203bmp" color="4" fill="10" visible="no" active="yes"/>
<layer number="204" name="204bmp" color="5" fill="10" visible="no" active="yes"/>
<layer number="205" name="205bmp" color="6" fill="10" visible="no" active="yes"/>
<layer number="206" name="206bmp" color="7" fill="10" visible="no" active="yes"/>
<layer number="207" name="207bmp" color="8" fill="10" visible="no" active="yes"/>
<layer number="208" name="208bmp" color="9" fill="10" visible="no" active="yes"/>
<layer number="209" name="209bmp" color="7" fill="1" visible="no" active="yes"/>
<layer number="210" name="210bmp" color="7" fill="1" visible="no" active="yes"/>
<layer number="211" name="211bmp" color="7" fill="1" visible="no" active="yes"/>
<layer number="212" name="212bmp" color="7" fill="1" visible="no" active="yes"/>
<layer number="213" name="213bmp" color="7" fill="1" visible="no" active="yes"/>
<layer number="214" name="214bmp" color="7" fill="1" visible="no" active="yes"/>
<layer number="215" name="215bmp" color="7" fill="1" visible="no" active="yes"/>
<layer number="216" name="216bmp" color="7" fill="1" visible="no" active="yes"/>
<layer number="217" name="217bmp" color="18" fill="1" visible="no" active="no"/>
<layer number="218" name="218bmp" color="19" fill="1" visible="no" active="no"/>
<layer number="219" name="219bmp" color="20" fill="1" visible="no" active="no"/>
<layer number="220" name="220bmp" color="21" fill="1" visible="no" active="no"/>
<layer number="221" name="221bmp" color="22" fill="1" visible="no" active="no"/>
<layer number="222" name="222bmp" color="23" fill="1" visible="no" active="no"/>
<layer number="223" name="223bmp" color="24" fill="1" visible="no" active="no"/>
<layer number="224" name="224bmp" color="25" fill="1" visible="no" active="no"/>
<layer number="225" name="225bmp" color="7" fill="1" visible="no" active="no"/>
<layer number="226" name="226bmp" color="7" fill="1" visible="no" active="no"/>
<layer number="227" name="227bmp" color="7" fill="1" visible="no" active="no"/>
<layer number="228" name="228bmp" color="7" fill="1" visible="no" active="no"/>
<layer number="229" name="229bmp" color="7" fill="1" visible="yes" active="yes"/>
<layer number="230" name="230bmp" color="7" fill="1" visible="no" active="no"/>
<layer number="231" name="Eagle3D_PG1" color="7" fill="1" visible="yes" active="yes"/>
<layer number="232" name="Eagle3D_PG2" color="7" fill="1" visible="yes" active="yes"/>
<layer number="233" name="Eagle3D_PG3" color="7" fill="1" visible="yes" active="yes"/>
<layer number="248" name="Housing" color="7" fill="1" visible="yes" active="yes"/>
<layer number="249" name="Edge" color="7" fill="1" visible="yes" active="yes"/>
<layer number="250" name="Descript" color="3" fill="1" visible="no" active="no"/>
<layer number="251" name="SMDround" color="12" fill="11" visible="no" active="no"/>
<layer number="254" name="cooling" color="7" fill="1" visible="no" active="yes"/>
<layer number="255" name="Accent" color="7" fill="1" visible="yes" active="yes"/>
</layers>
<schematic xreflabel="%F%N/%S.%C%R" xrefpart="/%S.%C%R">
<libraries>
<library name="SparkFun-Electromechanical">
<description>&lt;h3&gt;SparkFun Electronics' preferred foot prints&lt;/h3&gt;
In this library you'll find anything that moves- switches, relays, buttons, potentiometers. Also, anything that goes on a board but isn't electrical in nature- screws, standoffs, etc.&lt;br&gt;&lt;br&gt;
We've spent an enormous amount of time creating and checking these footprints and parts, but it is the end user's responsibility to ensure correctness and suitablity for a given componet or application. If you enjoy using this library, please buy one of our products at www.sparkfun.com.
&lt;br&gt;&lt;br&gt;
&lt;b&gt;Licensing:&lt;/b&gt; CC v3.0 Share-Alike You are welcome to use this library for commercial purposes. For attribution, we ask that when you begin to sell your device using our footprint, you email us with a link to the product being sold. We want bragging rights that we helped (in a very small part) to create your 8th world wonder. We would like the opportunity to feature your device on our homepage.</description>
<packages>
<package name="TACTILE-PTH">
<description>&lt;b&gt;OMRON SWITCH&lt;/b&gt;</description>
<wire x1="3.048" y1="1.016" x2="3.048" y2="2.54" width="0.2032" layer="51"/>
<wire x1="3.048" y1="2.54" x2="2.54" y2="3.048" width="0.2032" layer="51"/>
<wire x1="2.54" y1="-3.048" x2="3.048" y2="-2.54" width="0.2032" layer="51"/>
<wire x1="3.048" y1="-2.54" x2="3.048" y2="-1.016" width="0.2032" layer="51"/>
<wire x1="-2.54" y1="3.048" x2="-3.048" y2="2.54" width="0.2032" layer="51"/>
<wire x1="-3.048" y1="2.54" x2="-3.048" y2="1.016" width="0.2032" layer="51"/>
<wire x1="-2.54" y1="-3.048" x2="-3.048" y2="-2.54" width="0.2032" layer="51"/>
<wire x1="-3.048" y1="-2.54" x2="-3.048" y2="-1.016" width="0.2032" layer="51"/>
<wire x1="2.54" y1="-3.048" x2="2.159" y2="-3.048" width="0.2032" layer="51"/>
<wire x1="-2.54" y1="-3.048" x2="-2.159" y2="-3.048" width="0.2032" layer="51"/>
<wire x1="-2.54" y1="3.048" x2="-2.159" y2="3.048" width="0.2032" layer="51"/>
<wire x1="2.54" y1="3.048" x2="2.159" y2="3.048" width="0.2032" layer="51"/>
<wire x1="2.159" y1="3.048" x2="-2.159" y2="3.048" width="0.2032" layer="21"/>
<wire x1="-2.159" y1="-3.048" x2="2.159" y2="-3.048" width="0.2032" layer="21"/>
<wire x1="3.048" y1="0.998" x2="3.048" y2="-1.016" width="0.2032" layer="21"/>
<wire x1="-3.048" y1="1.028" x2="-3.048" y2="-1.016" width="0.2032" layer="21"/>
<wire x1="-2.54" y1="1.27" x2="-2.54" y2="0.508" width="0.2032" layer="51"/>
<wire x1="-2.54" y1="-0.508" x2="-2.54" y2="-1.27" width="0.2032" layer="51"/>
<wire x1="-2.54" y1="0.508" x2="-2.159" y2="-0.381" width="0.2032" layer="51"/>
<circle x="0" y="0" radius="1.778" width="0.2032" layer="21"/>
<pad name="1" x="-3.2512" y="2.2606" drill="1.016" diameter="1.8796"/>
<pad name="2" x="3.2512" y="2.2606" drill="1.016" diameter="1.8796"/>
<pad name="3" x="-3.2512" y="-2.2606" drill="1.016" diameter="1.8796"/>
<pad name="4" x="3.2512" y="-2.2606" drill="1.016" diameter="1.8796"/>
<text x="-2.54" y="3.81" size="1.27" layer="25" ratio="10">&gt;NAME</text>
</package>
<package name="TACTILE_SWITCH_SMD">
<wire x1="-1.54" y1="-2.54" x2="-2.54" y2="-1.54" width="0.2032" layer="51"/>
<wire x1="-2.54" y1="-1.24" x2="-2.54" y2="1.27" width="0.2032" layer="21"/>
<wire x1="-2.54" y1="1.54" x2="-1.54" y2="2.54" width="0.2032" layer="51"/>
<wire x1="-1.54" y1="2.54" x2="1.54" y2="2.54" width="0.2032" layer="21"/>
<wire x1="1.54" y1="2.54" x2="2.54" y2="1.54" width="0.2032" layer="51"/>
<wire x1="2.54" y1="1.24" x2="2.54" y2="-1.24" width="0.2032" layer="21"/>
<wire x1="2.54" y1="-1.54" x2="1.54" y2="-2.54" width="0.2032" layer="51"/>
<wire x1="1.54" y1="-2.54" x2="-1.54" y2="-2.54" width="0.2032" layer="21"/>
<wire x1="1.905" y1="1.27" x2="1.905" y2="0.445" width="0.127" layer="51"/>
<wire x1="1.905" y1="0.445" x2="2.16" y2="-0.01" width="0.127" layer="51"/>
<wire x1="1.905" y1="-0.23" x2="1.905" y2="-1.115" width="0.127" layer="51"/>
<circle x="0" y="0" radius="1.27" width="0.2032" layer="21"/>
<smd name="1" x="-2.54" y="1.905" dx="0.762" dy="1.524" layer="1" rot="R90"/>
<smd name="2" x="2.54" y="1.905" dx="0.762" dy="1.524" layer="1" rot="R90"/>
<smd name="3" x="-2.54" y="-1.905" dx="0.762" dy="1.524" layer="1" rot="R90"/>
<smd name="4" x="2.54" y="-1.905" dx="0.762" dy="1.524" layer="1" rot="R90"/>
<text x="-0.889" y="1.778" size="0.4064" layer="25">&gt;NAME</text>
<text x="-0.889" y="-2.032" size="0.4064" layer="27">&gt;Value</text>
</package>
<package name="TACTILE_SWITCH_SMD-2">
<wire x1="1.905" y1="1.27" x2="1.905" y2="0.445" width="0.127" layer="51"/>
<wire x1="1.905" y1="0.445" x2="2.16" y2="-0.01" width="0.127" layer="51"/>
<wire x1="1.905" y1="-0.23" x2="1.905" y2="-1.115" width="0.127" layer="51"/>
<wire x1="-2.25" y1="2.25" x2="2.25" y2="2.25" width="0.127" layer="51"/>
<wire x1="2.25" y1="2.25" x2="2.25" y2="-2.25" width="0.127" layer="51"/>
<wire x1="2.25" y1="-2.25" x2="-2.25" y2="-2.25" width="0.127" layer="51"/>
<wire x1="-2.25" y1="-2.25" x2="-2.25" y2="2.25" width="0.127" layer="51"/>
<wire x1="-2.2" y1="0.8" x2="-2.2" y2="-0.8" width="0.2032" layer="21"/>
<wire x1="1.3" y1="2.2" x2="-1.3" y2="2.2" width="0.2032" layer="21"/>
<wire x1="2.2" y1="-0.8" x2="2.2" y2="0.8" width="0.2032" layer="21"/>
<wire x1="-1.3" y1="-2.2" x2="1.3" y2="-2.2" width="0.2032" layer="21"/>
<wire x1="2.2" y1="0.8" x2="1.8" y2="0.8" width="0.2032" layer="21"/>
<wire x1="2.2" y1="-0.8" x2="1.8" y2="-0.8" width="0.2032" layer="21"/>
<wire x1="-1.8" y1="0.8" x2="-2.2" y2="0.8" width="0.2032" layer="21"/>
<wire x1="-1.8" y1="-0.8" x2="-2.2" y2="-0.8" width="0.2032" layer="21"/>
<circle x="0" y="0" radius="1.27" width="0.2032" layer="21"/>
<smd name="1" x="2.225" y="1.75" dx="1.1" dy="0.7" layer="1" rot="R90"/>
<smd name="2" x="2.225" y="-1.75" dx="1.1" dy="0.7" layer="1" rot="R90"/>
<smd name="3" x="-2.225" y="-1.75" dx="1.1" dy="0.7" layer="1" rot="R90"/>
<smd name="4" x="-2.225" y="1.75" dx="1.1" dy="0.7" layer="1" rot="R90"/>
<text x="-0.889" y="1.778" size="0.4064" layer="25">&gt;NAME</text>
<text x="-0.889" y="-2.032" size="0.4064" layer="27">&gt;Value</text>
</package>
<package name="TACTILE-PTH-12MM">
<wire x1="5" y1="-1.3" x2="5" y2="-0.7" width="0.2032" layer="51"/>
<wire x1="5" y1="-0.7" x2="4.5" y2="-0.2" width="0.2032" layer="51"/>
<wire x1="5" y1="0.2" x2="5" y2="1" width="0.2032" layer="51"/>
<wire x1="-6" y1="4" x2="-6" y2="5" width="0.2032" layer="21"/>
<wire x1="-5" y1="6" x2="5" y2="6" width="0.2032" layer="21"/>
<wire x1="6" y1="5" x2="6" y2="4" width="0.2032" layer="21"/>
<wire x1="6" y1="1" x2="6" y2="-1" width="0.2032" layer="21"/>
<wire x1="6" y1="-4" x2="6" y2="-5" width="0.2032" layer="21"/>
<wire x1="5" y1="-6" x2="-5" y2="-6" width="0.2032" layer="21"/>
<wire x1="-6" y1="-5" x2="-6" y2="-4" width="0.2032" layer="21"/>
<wire x1="-6" y1="-1" x2="-6" y2="1" width="0.2032" layer="21"/>
<wire x1="-6" y1="5" x2="-5" y2="6" width="0.2032" layer="21" curve="-90"/>
<wire x1="5" y1="6" x2="6" y2="5" width="0.2032" layer="21" curve="-90"/>
<wire x1="6" y1="-5" x2="5" y2="-6" width="0.2032" layer="21" curve="-90"/>
<wire x1="-5" y1="-6" x2="-6" y2="-5" width="0.2032" layer="21" curve="-90"/>
<circle x="0" y="0" radius="3.5" width="0.2032" layer="21"/>
<circle x="-4.5" y="4.5" radius="0.3" width="0.7" layer="21"/>
<circle x="4.5" y="4.5" radius="0.3" width="0.7" layer="21"/>
<circle x="4.5" y="-4.5" radius="0.3" width="0.7" layer="21"/>
<circle x="-4.5" y="-4.5" radius="0.3" width="0.7" layer="21"/>
<pad name="4" x="-6.25" y="2.5" drill="1.2" diameter="2.159"/>
<pad name="2" x="-6.25" y="-2.5" drill="1.2" diameter="2.159"/>
<pad name="1" x="6.25" y="-2.5" drill="1.2" diameter="2.159"/>
<pad name="3" x="6.25" y="2.5" drill="1.2" diameter="2.159"/>
</package>
<package name="TACTILE-SWITCH-1101NE">
<description>Sparkfun SKU# COM-08229</description>
<wire x1="-3" y1="1.1" x2="-3" y2="-1.1" width="0.127" layer="51"/>
<wire x1="3" y1="1.1" x2="3" y2="-1.1" width="0.127" layer="51"/>
<wire x1="-2.75" y1="1.75" x2="-3" y2="1.5" width="0.127" layer="21" curve="90"/>
<wire x1="-2.75" y1="1.75" x2="2.75" y2="1.75" width="0.127" layer="21"/>
<wire x1="2.75" y1="1.75" x2="3" y2="1.5" width="0.127" layer="21" curve="-90"/>
<wire x1="3" y1="-1.5" x2="2.65" y2="-1.75" width="0.127" layer="21" curve="-90"/>
<wire x1="2.65" y1="-1.75" x2="-2.75" y2="-1.75" width="0.127" layer="21"/>
<wire x1="-3" y1="-1.5" x2="-2.75" y2="-1.75" width="0.127" layer="21" curve="90"/>
<wire x1="-3" y1="-1.5" x2="-3" y2="-1.1" width="0.127" layer="21"/>
<wire x1="-3" y1="1.1" x2="-3" y2="1.5" width="0.127" layer="21"/>
<wire x1="3" y1="1.1" x2="3" y2="1.5" width="0.127" layer="21"/>
<wire x1="3" y1="-1.5" x2="3" y2="-1.1" width="0.127" layer="21"/>
<wire x1="-1.5" y1="0.75" x2="1.5" y2="0.75" width="0.127" layer="21"/>
<wire x1="1.5" y1="-0.75" x2="-1.5" y2="-0.75" width="0.127" layer="21"/>
<wire x1="-1.5" y1="-0.75" x2="-1.5" y2="0.75" width="0.127" layer="21"/>
<wire x1="1.5" y1="-0.75" x2="1.5" y2="0.75" width="0.127" layer="21"/>
<wire x1="-2" y1="0" x2="-1" y2="0" width="0.127" layer="51"/>
<wire x1="-1" y1="0" x2="0.1" y2="0.5" width="0.127" layer="51"/>
<wire x1="0.3" y1="0" x2="2" y2="0" width="0.127" layer="51"/>
<smd name="P$1" x="-3.15" y="0" dx="2.3" dy="1.6" layer="1" rot="R180"/>
<smd name="P$2" x="3.15" y="0" dx="2.3" dy="1.6" layer="1" rot="R180"/>
<text x="-3" y="2" size="0.762" layer="25">&gt;NAME</text>
<text x="-3" y="-2.7" size="0.762" layer="27">&gt;VALUE</text>
</package>
<package name="REED_SWITCH_PTH">
<wire x1="-6.985" y1="-0.635" x2="6.985" y2="-0.635" width="0.127" layer="21"/>
<wire x1="-6.985" y1="-0.635" x2="-6.985" y2="0" width="0.127" layer="21"/>
<wire x1="-6.985" y1="0" x2="-6.985" y2="0.635" width="0.127" layer="21"/>
<wire x1="-6.985" y1="0.635" x2="6.985" y2="0.635" width="0.127" layer="21"/>
<wire x1="6.985" y1="0.635" x2="6.985" y2="0" width="0.127" layer="21"/>
<wire x1="6.985" y1="0" x2="6.985" y2="-0.635" width="0.127" layer="21"/>
<wire x1="-6.985" y1="0" x2="-7.62" y2="0" width="0.127" layer="21"/>
<wire x1="6.985" y1="0" x2="7.62" y2="0" width="0.127" layer="21"/>
<pad name="P$1" x="-8.89" y="0" drill="1.016" diameter="1.8796"/>
<pad name="P$2" x="8.89" y="0" drill="1.016" diameter="1.8796"/>
</package>
<package name="TACTILE_SWITCH_TALL">
<wire x1="-3" y1="-3" x2="3" y2="-3" width="0.254" layer="21"/>
<wire x1="3" y1="-3" x2="3" y2="3" width="0.254" layer="21"/>
<wire x1="3" y1="3" x2="-3" y2="3" width="0.254" layer="21"/>
<wire x1="-3" y1="3" x2="-3" y2="-3" width="0.254" layer="21"/>
<circle x="0" y="0" radius="1.75" width="0.254" layer="21"/>
<smd name="A1" x="-3.975" y="-2.25" dx="1.3" dy="1.55" layer="1" rot="R90"/>
<smd name="A2" x="3.975" y="-2.25" dx="1.3" dy="1.55" layer="1" rot="R90"/>
<smd name="B1" x="-3.975" y="2.25" dx="1.3" dy="1.55" layer="1" rot="R90"/>
<smd name="B2" x="3.975" y="2.25" dx="1.3" dy="1.55" layer="1" rot="R90"/>
</package>
<package name="REED_SWITCH_PLASTIC">
<wire x1="-7.5" y1="-1.65" x2="7.5" y2="-1.65" width="0.127" layer="21"/>
<wire x1="-7.5" y1="-1.65" x2="-7.5" y2="0" width="0.127" layer="21"/>
<wire x1="-7.5" y1="0" x2="-7.5" y2="1.65" width="0.127" layer="21"/>
<wire x1="-7.5" y1="1.65" x2="7.5" y2="1.65" width="0.127" layer="21"/>
<wire x1="7.5" y1="1.65" x2="7.5" y2="0" width="0.127" layer="21"/>
<wire x1="7.5" y1="0" x2="7.5" y2="-1.65" width="0.127" layer="21"/>
<wire x1="-7.5" y1="0" x2="-7.72" y2="0" width="0.127" layer="21"/>
<wire x1="7.5" y1="0" x2="7.72" y2="0" width="0.127" layer="21"/>
<pad name="P$1" x="-8.89" y="0" drill="1.016" diameter="1.8796"/>
<pad name="P$2" x="8.89" y="0" drill="1.016" diameter="1.8796"/>
</package>
<package name="TACTILE-PTH-SIDEEZ">
<wire x1="1.5" y1="-3.8" x2="-1.5" y2="-3.8" width="0.2032" layer="51"/>
<wire x1="-3.65" y1="-2" x2="-3.65" y2="3.5" width="0.2032" layer="51"/>
<wire x1="-3.65" y1="3.5" x2="-3" y2="3.5" width="0.2032" layer="51"/>
<wire x1="3" y1="3.5" x2="3.65" y2="3.5" width="0.2032" layer="51"/>
<wire x1="3.65" y1="3.5" x2="3.65" y2="-2" width="0.2032" layer="51"/>
<wire x1="-3" y1="2" x2="3" y2="2" width="0.2032" layer="51"/>
<wire x1="-3" y1="2" x2="-3" y2="3.5" width="0.2032" layer="51"/>
<wire x1="3" y1="2" x2="3" y2="3.5" width="0.2032" layer="51"/>
<wire x1="-3.65" y1="-2" x2="-1.5" y2="-2" width="0.2032" layer="51"/>
<wire x1="-1.5" y1="-2" x2="1.5" y2="-2" width="0.2032" layer="51"/>
<wire x1="1.5" y1="-2" x2="3.65" y2="-2" width="0.2032" layer="51"/>
<wire x1="1.5" y1="-2" x2="1.5" y2="-3.8" width="0.2032" layer="51"/>
<wire x1="-1.5" y1="-2" x2="-1.5" y2="-3.8" width="0.2032" layer="51"/>
<wire x1="-3.65" y1="1" x2="-3.65" y2="-2" width="0.2032" layer="21"/>
<wire x1="-3.65" y1="-2" x2="3.65" y2="-2" width="0.2032" layer="21"/>
<wire x1="3.65" y1="-2" x2="3.65" y2="1" width="0.2032" layer="21"/>
<wire x1="2" y1="2" x2="-2" y2="2" width="0.2032" layer="21"/>
<pad name="ANCHOR1" x="-3.5" y="2.5" drill="1.2" diameter="2.2" stop="no"/>
<pad name="ANCHOR2" x="3.5" y="2.5" drill="1.2" diameter="2.2" stop="no"/>
<pad name="1" x="-2.5" y="0" drill="0.8" diameter="1.7" stop="no"/>
<pad name="2" x="2.5" y="0" drill="0.8" diameter="1.7" stop="no"/>
<text x="-2.54" y="3.81" size="1.27" layer="25" ratio="10">&gt;NAME</text>
<circle x="2.5" y="0" radius="0.4445" width="0" layer="29"/>
<circle x="-2.5" y="0" radius="0.4445" width="0" layer="29"/>
<circle x="-3.5" y="2.5" radius="0.635" width="0" layer="29"/>
<circle x="3.5" y="2.5" radius="0.635" width="0" layer="29"/>
<circle x="-3.5" y="2.5" radius="1.143" width="0" layer="30"/>
<circle x="2.5" y="0" radius="0.889" width="0" layer="30"/>
<circle x="-2.5" y="0" radius="0.889" width="0" layer="30"/>
<circle x="3.5" y="2.5" radius="1.143" width="0" layer="30"/>
</package>
</packages>
<symbols>
<symbol name="SWITCH-MOMENTARY-2">
<wire x1="1.905" y1="0" x2="2.54" y2="0" width="0.254" layer="94"/>
<wire x1="-2.54" y1="0" x2="1.905" y2="1.27" width="0.254" layer="94"/>
<circle x="-2.54" y="0" radius="0.127" width="0.4064" layer="94"/>
<circle x="2.54" y="0" radius="0.127" width="0.4064" layer="94"/>
<text x="-2.54" y="2.54" size="1.778" layer="95">&gt;NAME</text>
<text x="-2.54" y="-2.54" size="1.778" layer="96">&gt;VALUE</text>
<pin name="1" x="-5.08" y="0" visible="off" length="short" direction="pas" swaplevel="2"/>
<pin name="2" x="5.08" y="0" visible="off" length="short" direction="pas" swaplevel="1" rot="R180"/>
</symbol>
</symbols>
<devicesets>
<deviceset name="SWITCH-MOMENTARY-2" prefix="S">
<description>Various NO switches- pushbuttons, reed, etc</description>
<gates>
<gate name="G$1" symbol="SWITCH-MOMENTARY-2" x="0" y="0"/>
</gates>
<devices>
<device name="PTH" package="TACTILE-PTH">
<connects>
<connect gate="G$1" pin="1" pad="1"/>
<connect gate="G$1" pin="2" pad="3"/>
</connects>
<technologies>
<technology name=""/>
</technologies>
</device>
<device name="SMD" package="TACTILE_SWITCH_SMD">
<connects>
<connect gate="G$1" pin="1" pad="1"/>
<connect gate="G$1" pin="2" pad="3"/>
</connects>
<technologies>
<technology name=""/>
</technologies>
</device>
<device name="SMD-2" package="TACTILE_SWITCH_SMD-2">
<connects>
<connect gate="G$1" pin="1" pad="2"/>
<connect gate="G$1" pin="2" pad="1"/>
</connects>
<technologies>
<technology name=""/>
</technologies>
</device>
<device name="12MM" package="TACTILE-PTH-12MM">
<connects>
<connect gate="G$1" pin="1" pad="1"/>
<connect gate="G$1" pin="2" pad="3"/>
</connects>
<technologies>
<technology name=""/>
</technologies>
</device>
<device name="-SMD-1101NE" package="TACTILE-SWITCH-1101NE">
<connects>
<connect gate="G$1" pin="1" pad="P$1"/>
<connect gate="G$1" pin="2" pad="P$2"/>
</connects>
<technologies>
<technology name=""/>
</technologies>
</device>
<device name="PTH_REED" package="REED_SWITCH_PTH">
<connects>
<connect gate="G$1" pin="1" pad="P$1"/>
<connect gate="G$1" pin="2" pad="P$2"/>
</connects>
<technologies>
<technology name=""/>
</technologies>
</device>
<device name="" package="TACTILE_SWITCH_TALL">
<connects>
<connect gate="G$1" pin="1" pad="A2"/>
<connect gate="G$1" pin="2" pad="B2"/>
</connects>
<technologies>
<technology name=""/>
</technologies>
</device>
<device name="PTH_REED2" package="REED_SWITCH_PLASTIC">
<connects>
<connect gate="G$1" pin="1" pad="P$1"/>
<connect gate="G$1" pin="2" pad="P$2"/>
</connects>
<technologies>
<technology name=""/>
</technologies>
</device>
<device name="SIDE_EZ" package="TACTILE-PTH-SIDEEZ">
<connects>
<connect gate="G$1" pin="1" pad="1"/>
<connect gate="G$1" pin="2" pad="2"/>
</connects>
<technologies>
<technology name=""/>
</technologies>
</device>
</devices>
</deviceset>
</devicesets>
</library>
<library name="SparkFun-Connectors">
<description>&lt;h3&gt;SparkFun Electronics' preferred foot prints&lt;/h3&gt;
In this library you'll find connectors and sockets- basically anything that can be plugged into or onto.&lt;br&gt;&lt;br&gt;
We've spent an enormous amount of time creating and checking these footprints and parts, but it is the end user's responsibility to ensure correctness and suitablity for a given componet or application. If you enjoy using this library, please buy one of our products at www.sparkfun.com.
&lt;br&gt;&lt;br&gt;
&lt;b&gt;Licensing:&lt;/b&gt; CC v3.0 Share-Alike You are welcome to use this library for commercial purposes. For attribution, we ask that when you begin to sell your device using our footprint, you email us with a link to the product being sold. We want bragging rights that we helped (in a very small part) to create your 8th world wonder. We would like the opportunity to feature your device on our homepage.</description>
<packages>
<package name="1X04">
<wire x1="6.985" y1="1.27" x2="8.255" y2="1.27" width="0.2032" layer="21"/>
<wire x1="8.255" y1="1.27" x2="8.89" y2="0.635" width="0.2032" layer="21"/>
<wire x1="8.89" y1="-0.635" x2="8.255" y2="-1.27" width="0.2032" layer="21"/>
<wire x1="3.81" y1="0.635" x2="4.445" y2="1.27" width="0.2032" layer="21"/>
<wire x1="4.445" y1="1.27" x2="5.715" y2="1.27" width="0.2032" layer="21"/>
<wire x1="5.715" y1="1.27" x2="6.35" y2="0.635" width="0.2032" layer="21"/>
<wire x1="6.35" y1="-0.635" x2="5.715" y2="-1.27" width="0.2032" layer="21"/>
<wire x1="5.715" y1="-1.27" x2="4.445" y2="-1.27" width="0.2032" layer="21"/>
<wire x1="4.445" y1="-1.27" x2="3.81" y2="-0.635" width="0.2032" layer="21"/>
<wire x1="6.985" y1="1.27" x2="6.35" y2="0.635" width="0.2032" layer="21"/>
<wire x1="6.35" y1="-0.635" x2="6.985" y2="-1.27" width="0.2032" layer="21"/>
<wire x1="8.255" y1="-1.27" x2="6.985" y2="-1.27" width="0.2032" layer="21"/>
<wire x1="-0.635" y1="1.27" x2="0.635" y2="1.27" width="0.2032" layer="21"/>
<wire x1="0.635" y1="1.27" x2="1.27" y2="0.635" width="0.2032" layer="21"/>
<wire x1="1.27" y1="-0.635" x2="0.635" y2="-1.27" width="0.2032" layer="21"/>
<wire x1="1.27" y1="0.635" x2="1.905" y2="1.27" width="0.2032" layer="21"/>
<wire x1="1.905" y1="1.27" x2="3.175" y2="1.27" width="0.2032" layer="21"/>
<wire x1="3.175" y1="1.27" x2="3.81" y2="0.635" width="0.2032" layer="21"/>
<wire x1="3.81" y1="-0.635" x2="3.175" y2="-1.27" width="0.2032" layer="21"/>
<wire x1="3.175" y1="-1.27" x2="1.905" y2="-1.27" width="0.2032" layer="21"/>
<wire x1="1.905" y1="-1.27" x2="1.27" y2="-0.635" width="0.2032" layer="21"/>
<wire x1="-1.27" y1="0.635" x2="-1.27" y2="-0.635" width="0.2032" layer="21"/>
<wire x1="-0.635" y1="1.27" x2="-1.27" y2="0.635" width="0.2032" layer="21"/>
<wire x1="-1.27" y1="-0.635" x2="-0.635" y2="-1.27" width="0.2032" layer="21"/>
<wire x1="0.635" y1="-1.27" x2="-0.635" y2="-1.27" width="0.2032" layer="21"/>
<wire x1="8.89" y1="0.635" x2="8.89" y2="-0.635" width="0.2032" layer="21"/>
<pad name="1" x="0" y="0" drill="1.016" diameter="1.8796" shape="square" rot="R90"/>
<pad name="2" x="2.54" y="0" drill="1.016" diameter="1.8796" rot="R90"/>
<pad name="3" x="5.08" y="0" drill="1.016" diameter="1.8796" rot="R90"/>
<pad name="4" x="7.62" y="0" drill="1.016" diameter="1.8796" rot="R90"/>
<text x="-1.3462" y="1.8288" size="1.27" layer="25" ratio="10">&gt;NAME</text>
<text x="-1.27" y="-3.175" size="1.27" layer="27">&gt;VALUE</text>
<rectangle x1="7.366" y1="-0.254" x2="7.874" y2="0.254" layer="51"/>
<rectangle x1="4.826" y1="-0.254" x2="5.334" y2="0.254" layer="51"/>
<rectangle x1="2.286" y1="-0.254" x2="2.794" y2="0.254" layer="51"/>
<rectangle x1="-0.254" y1="-0.254" x2="0.254" y2="0.254" layer="51"/>
</package>
<package name="MOLEX-1X4">
<wire x1="-1.27" y1="3.048" x2="-1.27" y2="-2.54" width="0.127" layer="21"/>
<wire x1="8.89" y1="3.048" x2="8.89" y2="-2.54" width="0.127" layer="21"/>
<wire x1="8.89" y1="3.048" x2="-1.27" y2="3.048" width="0.127" layer="21"/>
<wire x1="8.89" y1="-2.54" x2="7.62" y2="-2.54" width="0.127" layer="21"/>
<wire x1="7.62" y1="-2.54" x2="0" y2="-2.54" width="0.127" layer="21"/>
<wire x1="0" y1="-2.54" x2="-1.27" y2="-2.54" width="0.127" layer="21"/>
<wire x1="0" y1="-2.54" x2="0" y2="-1.27" width="0.127" layer="21"/>
<wire x1="0" y1="-1.27" x2="7.62" y2="-1.27" width="0.127" layer="21"/>
<wire x1="7.62" y1="-1.27" x2="7.62" y2="-2.54" width="0.127" layer="21"/>
<pad name="1" x="0" y="0" drill="1.016" diameter="1.8796" shape="square"/>
<pad name="2" x="2.54" y="0" drill="1.016" diameter="1.8796"/>
<pad name="3" x="5.08" y="0" drill="1.016" diameter="1.8796"/>
<pad name="4" x="7.62" y="0" drill="1.016" diameter="1.8796"/>
</package>
<package name="SCREWTERMINAL-3.5MM-4">
<wire x1="-2.3" y1="3.4" x2="12.8" y2="3.4" width="0.2032" layer="21"/>
<wire x1="12.8" y1="3.4" x2="12.8" y2="-2.8" width="0.2032" layer="21"/>
<wire x1="12.8" y1="-2.8" x2="12.8" y2="-3.6" width="0.2032" layer="21"/>
<wire x1="12.8" y1="-3.6" x2="-2.3" y2="-3.6" width="0.2032" layer="21"/>
<wire x1="-2.3" y1="-3.6" x2="-2.3" y2="-2.8" width="0.2032" layer="21"/>
<wire x1="-2.3" y1="-2.8" x2="-2.3" y2="3.4" width="0.2032" layer="21"/>
<wire x1="12.8" y1="-2.8" x2="-2.3" y2="-2.8" width="0.2032" layer="21"/>
<wire x1="-2.3" y1="-1.35" x2="-2.7" y2="-1.35" width="0.2032" layer="51"/>
<wire x1="-2.7" y1="-1.35" x2="-2.7" y2="-2.35" width="0.2032" layer="51"/>
<wire x1="-2.7" y1="-2.35" x2="-2.3" y2="-2.35" width="0.2032" layer="51"/>
<wire x1="12.8" y1="3.15" x2="13.2" y2="3.15" width="0.2032" layer="51"/>
<wire x1="13.2" y1="3.15" x2="13.2" y2="2.15" width="0.2032" layer="51"/>
<wire x1="13.2" y1="2.15" x2="12.8" y2="2.15" width="0.2032" layer="51"/>
<circle x="0" y="0" radius="0.425" width="0.001" layer="51"/>
<circle x="3.5" y="0" radius="0.425" width="0.001" layer="51"/>
<circle x="7" y="0" radius="0.425" width="0.001" layer="51"/>
<circle x="10.5" y="0" radius="0.425" width="0.001" layer="51"/>
<pad name="1" x="0" y="0" drill="1.2" diameter="2.032" shape="square"/>
<pad name="2" x="3.5" y="0" drill="1.2" diameter="2.032"/>
<pad name="3" x="7" y="0" drill="1.2" diameter="2.032"/>
<pad name="4" x="10.5" y="0" drill="1.2" diameter="2.032"/>
<text x="-1.27" y="2.54" size="0.4064" layer="25">&gt;NAME</text>
<text x="-1.27" y="1.27" size="0.4064" layer="27">&gt;VALUE</text>
</package>
<package name="1X04-1.27MM">
<wire x1="-0.381" y1="-0.889" x2="0.381" y2="-0.889" width="0.127" layer="21"/>
<wire x1="0.381" y1="-0.889" x2="0.635" y2="-0.635" width="0.127" layer="21"/>
<wire x1="0.635" y1="-0.635" x2="0.889" y2="-0.889" width="0.127" layer="21"/>
<wire x1="0.889" y1="-0.889" x2="1.651" y2="-0.889" width="0.127" layer="21"/>
<wire x1="1.651" y1="-0.889" x2="1.905" y2="-0.635" width="0.127" layer="21"/>
<wire x1="1.905" y1="-0.635" x2="2.159" y2="-0.889" width="0.127" layer="21"/>
<wire x1="2.159" y1="-0.889" x2="2.921" y2="-0.889" width="0.127" layer="21"/>
<wire x1="2.921" y1="-0.889" x2="3.175" y2="-0.635" width="0.127" layer="21"/>
<wire x1="3.175" y1="-0.635" x2="3.429" y2="-0.889" width="0.127" layer="21"/>
<wire x1="3.429" y1="-0.889" x2="4.191" y2="-0.889" width="0.127" layer="21"/>
<wire x1="4.191" y1="0.889" x2="3.429" y2="0.889" width="0.127" layer="21"/>
<wire x1="3.429" y1="0.889" x2="3.175" y2="0.635" width="0.127" layer="21"/>
<wire x1="3.175" y1="0.635" x2="2.921" y2="0.889" width="0.127" layer="21"/>
<wire x1="2.921" y1="0.889" x2="2.159" y2="0.889" width="0.127" layer="21"/>
<wire x1="2.159" y1="0.889" x2="1.905" y2="0.635" width="0.127" layer="21"/>
<wire x1="1.905" y1="0.635" x2="1.651" y2="0.889" width="0.127" layer="21"/>
<wire x1="1.651" y1="0.889" x2="0.889" y2="0.889" width="0.127" layer="21"/>
<wire x1="0.889" y1="0.889" x2="0.635" y2="0.635" width="0.127" layer="21"/>
<wire x1="0.635" y1="0.635" x2="0.381" y2="0.889" width="0.127" layer="21"/>
<wire x1="0.381" y1="0.889" x2="-0.381" y2="0.889" width="0.127" layer="21"/>
<wire x1="-0.381" y1="0.889" x2="-0.889" y2="0.381" width="0.127" layer="21"/>
<wire x1="-0.889" y1="-0.381" x2="-0.381" y2="-0.889" width="0.127" layer="21"/>
<wire x1="-0.889" y1="0.381" x2="-0.889" y2="-0.381" width="0.127" layer="21"/>
<wire x1="4.191" y1="0.889" x2="4.699" y2="0.381" width="0.127" layer="21"/>
<wire x1="4.699" y1="0.381" x2="4.699" y2="-0.381" width="0.127" layer="21"/>
<wire x1="4.699" y1="-0.381" x2="4.191" y2="-0.889" width="0.127" layer="21"/>
<pad name="4" x="3.81" y="0" drill="0.508" diameter="1"/>
<pad name="3" x="2.54" y="0" drill="0.508" diameter="1"/>
<pad name="2" x="1.27" y="0" drill="0.508" diameter="1"/>
<pad name="1" x="0" y="0" drill="0.508" diameter="1"/>
<text x="-0.508" y="1.27" size="0.4064" layer="25">&gt;NAME</text>
<text x="-0.508" y="-1.651" size="0.4064" layer="27">&gt;VALUE</text>
</package>
<package name="1X04_LOCK">
<wire x1="6.985" y1="1.27" x2="8.255" y2="1.27" width="0.2032" layer="21"/>
<wire x1="8.255" y1="1.27" x2="8.89" y2="0.635" width="0.2032" layer="21"/>
<wire x1="8.89" y1="-0.635" x2="8.255" y2="-1.27" width="0.2032" layer="21"/>
<wire x1="3.81" y1="0.635" x2="4.445" y2="1.27" width="0.2032" layer="21"/>
<wire x1="4.445" y1="1.27" x2="5.715" y2="1.27" width="0.2032" layer="21"/>
<wire x1="5.715" y1="1.27" x2="6.35" y2="0.635" width="0.2032" layer="21"/>
<wire x1="6.35" y1="-0.635" x2="5.715" y2="-1.27" width="0.2032" layer="21"/>
<wire x1="5.715" y1="-1.27" x2="4.445" y2="-1.27" width="0.2032" layer="21"/>
<wire x1="4.445" y1="-1.27" x2="3.81" y2="-0.635" width="0.2032" layer="21"/>
<wire x1="6.985" y1="1.27" x2="6.35" y2="0.635" width="0.2032" layer="21"/>
<wire x1="6.35" y1="-0.635" x2="6.985" y2="-1.27" width="0.2032" layer="21"/>
<wire x1="8.255" y1="-1.27" x2="6.985" y2="-1.27" width="0.2032" layer="21"/>
<wire x1="-0.635" y1="1.27" x2="0.635" y2="1.27" width="0.2032" layer="21"/>
<wire x1="0.635" y1="1.27" x2="1.27" y2="0.635" width="0.2032" layer="21"/>
<wire x1="1.27" y1="-0.635" x2="0.635" y2="-1.27" width="0.2032" layer="21"/>
<wire x1="1.27" y1="0.635" x2="1.905" y2="1.27" width="0.2032" layer="21"/>
<wire x1="1.905" y1="1.27" x2="3.175" y2="1.27" width="0.2032" layer="21"/>
<wire x1="3.175" y1="1.27" x2="3.81" y2="0.635" width="0.2032" layer="21"/>
<wire x1="3.81" y1="-0.635" x2="3.175" y2="-1.27" width="0.2032" layer="21"/>
<wire x1="3.175" y1="-1.27" x2="1.905" y2="-1.27" width="0.2032" layer="21"/>
<wire x1="1.905" y1="-1.27" x2="1.27" y2="-0.635" width="0.2032" layer="21"/>
<wire x1="-1.27" y1="0.635" x2="-1.27" y2="-0.635" width="0.2032" layer="21"/>
<wire x1="-0.635" y1="1.27" x2="-1.27" y2="0.635" width="0.2032" layer="21"/>
<wire x1="-1.27" y1="-0.635" x2="-0.635" y2="-1.27" width="0.2032" layer="21"/>
<wire x1="0.635" y1="-1.27" x2="-0.635" y2="-1.27" width="0.2032" layer="21"/>
<wire x1="8.89" y1="0.635" x2="8.89" y2="-0.635" width="0.2032" layer="21"/>
<pad name="1" x="0" y="0.127" drill="1.016" diameter="1.8796" shape="square" rot="R90"/>
<pad name="2" x="2.54" y="-0.127" drill="1.016" diameter="1.8796" rot="R90"/>
<pad name="3" x="5.08" y="0.127" drill="1.016" diameter="1.8796" rot="R90"/>
<pad name="4" x="7.62" y="-0.127" drill="1.016" diameter="1.8796" rot="R90"/>
<text x="-1.3462" y="1.8288" size="1.27" layer="25" ratio="10">&gt;NAME</text>
<text x="-1.27" y="-3.175" size="1.27" layer="27">&gt;VALUE</text>
<rectangle x1="7.366" y1="-0.254" x2="7.874" y2="0.254" layer="51"/>
<rectangle x1="4.826" y1="-0.254" x2="5.334" y2="0.254" layer="51"/>
<rectangle x1="2.286" y1="-0.254" x2="2.794" y2="0.254" layer="51"/>
<rectangle x1="-0.254" y1="-0.254" x2="0.254" y2="0.254" layer="51"/>
</package>
<package name="1X04_LOCK_LONGPADS">
<description>This footprint was designed to help hold the alignment of a through-hole component (i.e.  6-pin header) while soldering it into place.  
You may notice that each hole has been shifted either up or down by 0.005 of an inch from it's more standard position (which is a perfectly straight line).  
This slight alteration caused the pins (the squares in the middle) to touch the edges of the holes.  Because they are alternating, it causes a "brace" 
to hold the component in place.  0.005 has proven to be the perfect amount of "off-center" position when using our standard breakaway headers.
Although looks a little odd when you look at the bare footprint, once you have a header in there, the alteration is very hard to notice.  Also,
if you push a header all the way into place, it is covered up entirely on the bottom side.  This idea of altering the position of holes to aid alignment 
will be further integrated into the Sparkfun Library for other footprints.  It can help hold any component with 3 or more connection pins.</description>
<wire x1="1.524" y1="-0.127" x2="1.016" y2="-0.127" width="0.2032" layer="21"/>
<wire x1="4.064" y1="-0.127" x2="3.556" y2="-0.127" width="0.2032" layer="21"/>
<wire x1="6.604" y1="-0.127" x2="6.096" y2="-0.127" width="0.2032" layer="21"/>
<wire x1="-1.27" y1="-0.127" x2="-1.016" y2="-0.127" width="0.2032" layer="21"/>
<wire x1="-1.27" y1="-0.127" x2="-1.27" y2="0.8636" width="0.2032" layer="21"/>
<wire x1="-1.27" y1="0.8636" x2="-0.9906" y2="1.143" width="0.2032" layer="21"/>
<wire x1="-1.27" y1="-0.127" x2="-1.27" y2="-1.1176" width="0.2032" layer="21"/>
<wire x1="-1.27" y1="-1.1176" x2="-0.9906" y2="-1.397" width="0.2032" layer="21"/>
<wire x1="8.89" y1="-0.127" x2="8.636" y2="-0.127" width="0.2032" layer="21"/>
<wire x1="8.89" y1="-0.127" x2="8.89" y2="-1.1176" width="0.2032" layer="21"/>
<wire x1="8.89" y1="-1.1176" x2="8.6106" y2="-1.397" width="0.2032" layer="21"/>
<wire x1="8.89" y1="-0.127" x2="8.89" y2="0.8636" width="0.2032" layer="21"/>
<wire x1="8.89" y1="0.8636" x2="8.6106" y2="1.143" width="0.2032" layer="21"/>
<pad name="1" x="0" y="0" drill="1.016" shape="long" rot="R90"/>
<pad name="2" x="2.54" y="-0.254" drill="1.016" shape="long" rot="R90"/>
<pad name="3" x="5.08" y="0" drill="1.016" shape="long" rot="R90"/>
<pad name="4" x="7.62" y="-0.254" drill="1.016" shape="long" rot="R90"/>
<text x="-1.27" y="1.778" size="1.27" layer="25" font="vector">&gt;NAME</text>
<text x="-1.27" y="-3.302" size="1.27" layer="27" font="vector">&gt;VALUE</text>
<rectangle x1="-0.2921" y1="-0.4191" x2="0.2921" y2="0.1651" layer="51"/>
<rectangle x1="2.2479" y1="-0.4191" x2="2.8321" y2="0.1651" layer="51"/>
<rectangle x1="4.7879" y1="-0.4191" x2="5.3721" y2="0.1651" layer="51"/>
<rectangle x1="7.3279" y1="-0.4191" x2="7.9121" y2="0.1651" layer="51" rot="R90"/>
</package>
<package name="MOLEX-1X4_LOCK">
<wire x1="-1.27" y1="3.048" x2="-1.27" y2="-2.54" width="0.127" layer="21"/>
<wire x1="8.89" y1="3.048" x2="8.89" y2="-2.54" width="0.127" layer="21"/>
<wire x1="8.89" y1="3.048" x2="-1.27" y2="3.048" width="0.127" layer="21"/>
<wire x1="8.89" y1="-2.54" x2="7.62" y2="-2.54" width="0.127" layer="21"/>
<wire x1="7.62" y1="-2.54" x2="0" y2="-2.54" width="0.127" layer="21"/>
<wire x1="0" y1="-2.54" x2="-1.27" y2="-2.54" width="0.127" layer="21"/>
<wire x1="0" y1="-2.54" x2="0" y2="-1.27" width="0.127" layer="21"/>
<wire x1="0" y1="-1.27" x2="7.62" y2="-1.27" width="0.127" layer="21"/>
<wire x1="7.62" y1="-1.27" x2="7.62" y2="-2.54" width="0.127" layer="21"/>
<pad name="1" x="0" y="0.127" drill="1.016" diameter="1.8796" shape="square"/>
<pad name="2" x="2.54" y="-0.127" drill="1.016" diameter="1.8796"/>
<pad name="3" x="5.08" y="0.127" drill="1.016" diameter="1.8796"/>
<pad name="4" x="7.62" y="-0.127" drill="1.016" diameter="1.8796"/>
</package>
<package name="1X04-SMD">
<wire x1="5.08" y1="1.25" x2="-5.08" y2="1.25" width="0.127" layer="51"/>
<wire x1="-5.08" y1="1.25" x2="-5.08" y2="-1.25" width="0.127" layer="51"/>
<wire x1="-5.08" y1="-1.25" x2="-3.81" y2="-1.25" width="0.127" layer="51"/>
<wire x1="-3.81" y1="-1.25" x2="-1.27" y2="-1.25" width="0.127" layer="51"/>
<wire x1="-1.27" y1="-1.25" x2="1.27" y2="-1.25" width="0.127" layer="51"/>
<wire x1="1.27" y1="-1.25" x2="3.81" y2="-1.25" width="0.127" layer="51"/>
<wire x1="3.81" y1="-1.25" x2="5.08" y2="-1.25" width="0.127" layer="51"/>
<wire x1="5.08" y1="-1.25" x2="5.08" y2="1.25" width="0.127" layer="51"/>
<wire x1="3.81" y1="-1.25" x2="3.81" y2="-7.25" width="0.127" layer="51"/>
<wire x1="1.27" y1="-1.25" x2="1.27" y2="-7.25" width="0.127" layer="51"/>
<wire x1="-1.27" y1="-1.25" x2="-1.27" y2="-7.25" width="0.127" layer="51"/>
<wire x1="-3.81" y1="-1.25" x2="-3.81" y2="-7.25" width="0.127" layer="51"/>
<smd name="4" x="3.81" y="5" dx="3" dy="1" layer="1" rot="R90"/>
<smd name="3" x="1.27" y="5" dx="3" dy="1" layer="1" rot="R90"/>
<smd name="2" x="-1.27" y="5" dx="3" dy="1" layer="1" rot="R90"/>
<smd name="1" x="-3.81" y="5" dx="3" dy="1" layer="1" rot="R90"/>
<hole x="-2.54" y="0" drill="1.4"/>
<hole x="2.54" y="0" drill="1.4"/>
</package>
<package name="1X04_LONGPADS">
<wire x1="-1.27" y1="0.635" x2="-1.27" y2="-0.635" width="0.2032" layer="21"/>
<wire x1="8.89" y1="0.635" x2="8.89" y2="-0.635" width="0.2032" layer="21"/>
<pad name="1" x="0" y="0" drill="1.1176" diameter="1.8796" shape="long" rot="R90"/>
<pad name="2" x="2.54" y="0" drill="1.1176" diameter="1.8796" shape="long" rot="R90"/>
<pad name="3" x="5.08" y="0" drill="1.1176" diameter="1.8796" shape="long" rot="R90"/>
<pad name="4" x="7.62" y="0" drill="1.1176" diameter="1.8796" shape="long" rot="R90"/>
<text x="-1.3462" y="2.4638" size="1.27" layer="25" ratio="10">&gt;NAME</text>
<text x="-1.27" y="-3.81" size="1.27" layer="27">&gt;VALUE</text>
<rectangle x1="7.366" y1="-0.254" x2="7.874" y2="0.254" layer="51"/>
<rectangle x1="4.826" y1="-0.254" x2="5.334" y2="0.254" layer="51"/>
<rectangle x1="2.286" y1="-0.254" x2="2.794" y2="0.254" layer="51"/>
<rectangle x1="-0.254" y1="-0.254" x2="0.254" y2="0.254" layer="51"/>
</package>
<package name="1X04_NO_SILK">
<pad name="1" x="0" y="0" drill="1.016" diameter="1.8796" shape="square" rot="R90"/>
<pad name="2" x="2.54" y="0" drill="1.016" diameter="1.8796" rot="R90"/>
<pad name="3" x="5.08" y="0" drill="1.016" diameter="1.8796" rot="R90"/>
<pad name="4" x="7.62" y="0" drill="1.016" diameter="1.8796" rot="R90"/>
<text x="-1.3462" y="1.8288" size="1.27" layer="25" ratio="10">&gt;NAME</text>
<text x="-1.27" y="-3.175" size="1.27" layer="27">&gt;VALUE</text>
<rectangle x1="7.366" y1="-0.254" x2="7.874" y2="0.254" layer="51"/>
<rectangle x1="4.826" y1="-0.254" x2="5.334" y2="0.254" layer="51"/>
<rectangle x1="2.286" y1="-0.254" x2="2.794" y2="0.254" layer="51"/>
<rectangle x1="-0.254" y1="-0.254" x2="0.254" y2="0.254" layer="51"/>
</package>
<package name="JST-4-PTH">
<wire x1="-4.5" y1="-5" x2="-5.2" y2="-5" width="0.2032" layer="21"/>
<wire x1="-5.2" y1="-5" x2="-5.2" y2="-6.3" width="0.2032" layer="21"/>
<wire x1="-5.2" y1="-6.3" x2="-6" y2="-6.3" width="0.2032" layer="21"/>
<wire x1="-6" y1="-6.3" x2="-6" y2="1.1" width="0.2032" layer="21"/>
<wire x1="-6" y1="1.1" x2="6" y2="1.1" width="0.2032" layer="21"/>
<wire x1="6" y1="1.1" x2="6" y2="-6.3" width="0.2032" layer="21"/>
<wire x1="6" y1="-6.3" x2="5.2" y2="-6.3" width="0.2032" layer="21"/>
<wire x1="5.2" y1="-6.3" x2="5.2" y2="-5" width="0.2032" layer="21"/>
<wire x1="5.2" y1="-5" x2="4.5" y2="-5" width="0.2032" layer="21"/>
<pad name="1" x="-3" y="-5" drill="0.7"/>
<pad name="2" x="-1" y="-5" drill="0.7"/>
<pad name="3" x="1" y="-5" drill="0.7"/>
<pad name="4" x="3" y="-5" drill="0.7"/>
<text x="-2.27" y="0.27" size="0.4064" layer="25">&gt;Name</text>
<text x="-2.27" y="-1" size="0.4064" layer="27">&gt;Value</text>
<text x="-3.4" y="-4.3" size="1.27" layer="51">+</text>
<text x="-1.4" y="-4.3" size="1.27" layer="51">-</text>
<text x="0.7" y="-4.1" size="0.8" layer="51">S</text>
<text x="2.7" y="-4.1" size="0.8" layer="51">S</text>
</package>
<package name="SCREWTERMINAL-3.5MM-4_LOCK">
<wire x1="-2.3" y1="3.4" x2="12.8" y2="3.4" width="0.2032" layer="21"/>
<wire x1="12.8" y1="3.4" x2="12.8" y2="-2.8" width="0.2032" layer="21"/>
<wire x1="12.8" y1="-2.8" x2="12.8" y2="-3.6" width="0.2032" layer="21"/>
<wire x1="12.8" y1="-3.6" x2="-2.3" y2="-3.6" width="0.2032" layer="21"/>
<wire x1="-2.3" y1="-3.6" x2="-2.3" y2="-2.8" width="0.2032" layer="21"/>
<wire x1="-2.3" y1="-2.8" x2="-2.3" y2="3.4" width="0.2032" layer="21"/>
<wire x1="12.8" y1="-2.8" x2="-2.3" y2="-2.8" width="0.2032" layer="21"/>
<wire x1="-2.3" y1="-1.35" x2="-2.7" y2="-1.35" width="0.2032" layer="51"/>
<wire x1="-2.7" y1="-1.35" x2="-2.7" y2="-2.35" width="0.2032" layer="51"/>
<wire x1="-2.7" y1="-2.35" x2="-2.3" y2="-2.35" width="0.2032" layer="51"/>
<wire x1="12.8" y1="3.15" x2="13.2" y2="3.15" width="0.2032" layer="51"/>
<wire x1="13.2" y1="3.15" x2="13.2" y2="2.15" width="0.2032" layer="51"/>
<wire x1="13.2" y1="2.15" x2="12.8" y2="2.15" width="0.2032" layer="51"/>
<circle x="0" y="0" radius="0.425" width="0.001" layer="51"/>
<circle x="3.5" y="0" radius="0.425" width="0.001" layer="51"/>
<circle x="7" y="0" radius="0.425" width="0.001" layer="51"/>
<circle x="10.5" y="0" radius="0.425" width="0.001" layer="51"/>
<pad name="1" x="-0.1778" y="0" drill="1.2" diameter="2.032" shape="square"/>
<pad name="2" x="3.6778" y="0" drill="1.2" diameter="2.032"/>
<pad name="3" x="6.8222" y="0" drill="1.2" diameter="2.032"/>
<pad name="4" x="10.6778" y="0" drill="1.2" diameter="2.032"/>
<text x="-1.27" y="2.54" size="0.4064" layer="25">&gt;NAME</text>
<text x="-1.27" y="1.27" size="0.4064" layer="27">&gt;VALUE</text>
</package>
<package name="1X04-1MM-RA">
<wire x1="-1.5" y1="-4.6" x2="1.5" y2="-4.6" width="0.254" layer="21"/>
<wire x1="-3" y1="-2" x2="-3" y2="-0.35" width="0.254" layer="21"/>
<wire x1="2.25" y1="-0.35" x2="3" y2="-0.35" width="0.254" layer="21"/>
<wire x1="3" y1="-0.35" x2="3" y2="-2" width="0.254" layer="21"/>
<wire x1="-3" y1="-0.35" x2="-2.25" y2="-0.35" width="0.254" layer="21"/>
<circle x="-2.5" y="0.3" radius="0.1414" width="0.4" layer="21"/>
<smd name="NC2" x="-2.8" y="-3.675" dx="1.2" dy="2" layer="1"/>
<smd name="NC1" x="2.8" y="-3.675" dx="1.2" dy="2" layer="1"/>
<smd name="1" x="-1.5" y="0" dx="0.6" dy="1.35" layer="1"/>
<smd name="2" x="-0.5" y="0" dx="0.6" dy="1.35" layer="1"/>
<smd name="3" x="0.5" y="0" dx="0.6" dy="1.35" layer="1"/>
<smd name="4" x="1.5" y="0" dx="0.6" dy="1.35" layer="1"/>
<text x="-1.73" y="1.73" size="0.4064" layer="25" rot="R180">&gt;NAME</text>
<text x="3.46" y="1.73" size="0.4064" layer="27" rot="R180">&gt;VALUE</text>
</package>
<package name="1X04_SMD_STRAIGHT_COMBO">
<wire x1="7.62" y1="1.27" x2="7.62" y2="-1.27" width="0.4064" layer="1"/>
<wire x1="5.08" y1="1.27" x2="5.08" y2="-1.27" width="0.4064" layer="1"/>
<wire x1="2.54" y1="1.27" x2="2.54" y2="-1.27" width="0.4064" layer="1"/>
<wire x1="0" y1="1.27" x2="0" y2="-1.27" width="0.4064" layer="1"/>
<wire x1="-1.37" y1="-1.25" x2="-1.37" y2="1.25" width="0.1778" layer="21"/>
<wire x1="8.99" y1="1.25" x2="8.99" y2="-1.25" width="0.1778" layer="21"/>
<wire x1="-0.73" y1="-1.25" x2="-1.37" y2="-1.25" width="0.1778" layer="21"/>
<wire x1="8.99" y1="-1.25" x2="8.32" y2="-1.25" width="0.1778" layer="21"/>
<wire x1="8.32" y1="1.25" x2="8.99" y2="1.25" width="0.1778" layer="21"/>
<wire x1="-1.37" y1="1.25" x2="-0.73" y2="1.25" width="0.1778" layer="21"/>
<wire x1="5.869" y1="-1.29" x2="6.831" y2="-1.29" width="0.1778" layer="21"/>
<wire x1="5.869" y1="1.25" x2="6.831" y2="1.25" width="0.1778" layer="21"/>
<wire x1="3.329" y1="-1.29" x2="4.291" y2="-1.29" width="0.1778" layer="21"/>
<wire x1="3.329" y1="1.25" x2="4.291" y2="1.25" width="0.1778" layer="21"/>
<wire x1="0.789" y1="-1.29" x2="1.751" y2="-1.29" width="0.1778" layer="21"/>
<wire x1="0.789" y1="1.25" x2="1.751" y2="1.25" width="0.1778" layer="21"/>
<smd name="3" x="5.08" y="-1.65" dx="2" dy="1" layer="1" rot="R270"/>
<smd name="1" x="0" y="-1.65" dx="2" dy="1" layer="1" rot="R270"/>
<smd name="4" x="7.62" y="1.65" dx="2" dy="1" layer="1" rot="R270"/>
<smd name="2" x="2.54" y="1.65" dx="2" dy="1" layer="1" rot="R270"/>
<smd name="1-2" x="0" y="1.65" dx="2" dy="1" layer="1" rot="R90"/>
<smd name="2-2" x="2.54" y="-1.65" dx="2" dy="1" layer="1" rot="R90"/>
<smd name="3-2" x="5.08" y="1.65" dx="2" dy="1" layer="1" rot="R90"/>
<smd name="4-2" x="7.62" y="-1.65" dx="2" dy="1" layer="1" rot="R90"/>
<text x="0" y="2.921" size="1.27" layer="25" ratio="10">&gt;NAME</text>
<text x="0" y="-4.191" size="1.27" layer="27">&gt;VALUE</text>
</package>
<package name="RJ45-8">
<wire x1="-7.62" y1="10" x2="7.62" y2="10" width="0.2032" layer="21"/>
<wire x1="-7.62" y1="-3" x2="-7.62" y2="10" width="0.2032" layer="21"/>
<wire x1="-7.62" y1="-3" x2="7.62" y2="-3" width="0.2032" layer="21"/>
<wire x1="7.62" y1="10" x2="7.62" y2="-3" width="0.2032" layer="21"/>
<wire x1="-7.62" y1="-3" x2="-7.62" y2="-10.8" width="0.2032" layer="51"/>
<wire x1="-7.62" y1="-10.8" x2="7.62" y2="-10.8" width="0.2032" layer="51"/>
<wire x1="7.62" y1="-10.8" x2="7.62" y2="-3" width="0.2032" layer="51"/>
<pad name="8" x="4.445" y="8.89" drill="1" diameter="1.8796"/>
<pad name="7" x="3.175" y="6.35" drill="1" diameter="1.8796"/>
<pad name="6" x="1.905" y="8.89" drill="1" diameter="1.8796"/>
<pad name="4" x="-0.635" y="8.89" drill="1" diameter="1.8796"/>
<pad name="2" x="-3.175" y="8.89" drill="1" diameter="1.8796"/>
<pad name="5" x="0.635" y="6.35" drill="1" diameter="1.8796"/>
<pad name="3" x="-1.905" y="6.35" drill="1" diameter="1.8796"/>
<pad name="1" x="-4.445" y="6.35" drill="1" diameter="1.8796" shape="square"/>
<hole x="-5.715" y="0" drill="3.2"/>
<hole x="5.715" y="0" drill="3.2"/>
</package>
</packages>
<symbols>
<symbol name="M04">
<wire x1="1.27" y1="-5.08" x2="-5.08" y2="-5.08" width="0.4064" layer="94"/>
<wire x1="-1.27" y1="2.54" x2="0" y2="2.54" width="0.6096" layer="94"/>
<wire x1="-1.27" y1="0" x2="0" y2="0" width="0.6096" layer="94"/>
<wire x1="-1.27" y1="-2.54" x2="0" y2="-2.54" width="0.6096" layer="94"/>
<wire x1="-5.08" y1="7.62" x2="-5.08" y2="-5.08" width="0.4064" layer="94"/>
<wire x1="1.27" y1="-5.08" x2="1.27" y2="7.62" width="0.4064" layer="94"/>
<wire x1="-5.08" y1="7.62" x2="1.27" y2="7.62" width="0.4064" layer="94"/>
<wire x1="-1.27" y1="5.08" x2="0" y2="5.08" width="0.6096" layer="94"/>
<text x="-5.08" y="-7.62" size="1.778" layer="96">&gt;VALUE</text>
<text x="-5.08" y="8.382" size="1.778" layer="95">&gt;NAME</text>
<pin name="1" x="5.08" y="-2.54" visible="pad" length="middle" direction="pas" swaplevel="1" rot="R180"/>
<pin name="2" x="5.08" y="0" visible="pad" length="middle" direction="pas" swaplevel="1" rot="R180"/>
<pin name="3" x="5.08" y="2.54" visible="pad" length="middle" direction="pas" swaplevel="1" rot="R180"/>
<pin name="4" x="5.08" y="5.08" visible="pad" length="middle" direction="pas" swaplevel="1" rot="R180"/>
</symbol>
<symbol name="RJ45-8">
<wire x1="-7.62" y1="-10.16" x2="5.08" y2="-10.16" width="0.254" layer="94"/>
<wire x1="5.08" y1="-10.16" x2="5.08" y2="12.7" width="0.254" layer="94"/>
<wire x1="5.08" y1="12.7" x2="-7.62" y2="12.7" width="0.254" layer="94"/>
<wire x1="-7.62" y1="12.7" x2="-7.62" y2="-10.16" width="0.254" layer="94"/>
<text x="-7.62" y="13.208" size="1.778" layer="95">&gt;Name</text>
<text x="-7.62" y="-12.7" size="1.778" layer="95">&gt;Value</text>
<pin name="1" x="-12.7" y="10.16" visible="pin" length="middle"/>
<pin name="2" x="-12.7" y="7.62" visible="pin" length="middle"/>
<pin name="3" x="-12.7" y="5.08" visible="pin" length="middle"/>
<pin name="4" x="-12.7" y="2.54" visible="pin" length="middle"/>
<pin name="8" x="-12.7" y="-7.62" visible="pin" length="middle"/>
<pin name="7" x="-12.7" y="-5.08" visible="pin" length="middle"/>
<pin name="6" x="-12.7" y="-2.54" visible="pin" length="middle"/>
<pin name="5" x="-12.7" y="0" visible="pin" length="middle"/>
</symbol>
</symbols>
<devicesets>
<deviceset name="M04" prefix="JP" uservalue="yes">
<description>&lt;b&gt;Header 4&lt;/b&gt;
Standard 4-pin 0.1" header. Use with straight break away headers (SKU : PRT-00116), right angle break away headers (PRT-00553), swiss pins (PRT-00743), machine pins (PRT-00117), and female headers (PRT-00115). Molex polarized connector foot print use with SKU : PRT-08231 with associated crimp pins and housings. 1MM SMD Version SKU: PRT-10208</description>
<gates>
<gate name="G$1" symbol="M04" x="-2.54" y="0"/>
</gates>
<devices>
<device name="PTH" package="1X04">
<connects>
<connect gate="G$1" pin="1" pad="1"/>
<connect gate="G$1" pin="2" pad="2"/>
<connect gate="G$1" pin="3" pad="3"/>
<connect gate="G$1" pin="4" pad="4"/>
</connects>
<technologies>
<technology name=""/>
</technologies>
</device>
<device name="POLAR" package="MOLEX-1X4">
<connects>
<connect gate="G$1" pin="1" pad="1"/>
<connect gate="G$1" pin="2" pad="2"/>
<connect gate="G$1" pin="3" pad="3"/>
<connect gate="G$1" pin="4" pad="4"/>
</connects>
<technologies>
<technology name=""/>
</technologies>
</device>
<device name="SCREW" package="SCREWTERMINAL-3.5MM-4">
<connects>
<connect gate="G$1" pin="1" pad="1"/>
<connect gate="G$1" pin="2" pad="2"/>
<connect gate="G$1" pin="3" pad="3"/>
<connect gate="G$1" pin="4" pad="4"/>
</connects>
<technologies>
<technology name=""/>
</technologies>
</device>
<device name="1.27MM" package="1X04-1.27MM">
<connects>
<connect gate="G$1" pin="1" pad="1"/>
<connect gate="G$1" pin="2" pad="2"/>
<connect gate="G$1" pin="3" pad="3"/>
<connect gate="G$1" pin="4" pad="4"/>
</connects>
<technologies>
<technology name=""/>
</technologies>
</device>
<device name="LOCK" package="1X04_LOCK">
<connects>
<connect gate="G$1" pin="1" pad="1"/>
<connect gate="G$1" pin="2" pad="2"/>
<connect gate="G$1" pin="3" pad="3"/>
<connect gate="G$1" pin="4" pad="4"/>
</connects>
<technologies>
<technology name=""/>
</technologies>
</device>
<device name="LOCK_LONGPADS" package="1X04_LOCK_LONGPADS">
<connects>
<connect gate="G$1" pin="1" pad="1"/>
<connect gate="G$1" pin="2" pad="2"/>
<connect gate="G$1" pin="3" pad="3"/>
<connect gate="G$1" pin="4" pad="4"/>
</connects>
<technologies>
<technology name=""/>
</technologies>
</device>
<device name="POLAR_LOCK" package="MOLEX-1X4_LOCK">
<connects>
<connect gate="G$1" pin="1" pad="1"/>
<connect gate="G$1" pin="2" pad="2"/>
<connect gate="G$1" pin="3" pad="3"/>
<connect gate="G$1" pin="4" pad="4"/>
</connects>
<technologies>
<technology name=""/>
</technologies>
</device>
<device name="SMD" package="1X04-SMD">
<connects>
<connect gate="G$1" pin="1" pad="1"/>
<connect gate="G$1" pin="2" pad="2"/>
<connect gate="G$1" pin="3" pad="3"/>
<connect gate="G$1" pin="4" pad="4"/>
</connects>
<technologies>
<technology name=""/>
</technologies>
</device>
<device name="LONGPADS" package="1X04_LONGPADS">
<connects>
<connect gate="G$1" pin="1" pad="1"/>
<connect gate="G$1" pin="2" pad="2"/>
<connect gate="G$1" pin="3" pad="3"/>
<connect gate="G$1" pin="4" pad="4"/>
</connects>
<technologies>
<technology name=""/>
</technologies>
</device>
<device name="1X04_NO_SILK" package="1X04_NO_SILK">
<connects>
<connect gate="G$1" pin="1" pad="1"/>
<connect gate="G$1" pin="2" pad="2"/>
<connect gate="G$1" pin="3" pad="3"/>
<connect gate="G$1" pin="4" pad="4"/>
</connects>
<technologies>
<technology name=""/>
</technologies>
</device>
<device name="JST-PTH" package="JST-4-PTH">
<connects>
<connect gate="G$1" pin="1" pad="1"/>
<connect gate="G$1" pin="2" pad="2"/>
<connect gate="G$1" pin="3" pad="3"/>
<connect gate="G$1" pin="4" pad="4"/>
</connects>
<technologies>
<technology name=""/>
</technologies>
</device>
<device name="SCREW_LOCK" package="SCREWTERMINAL-3.5MM-4_LOCK">
<connects>
<connect gate="G$1" pin="1" pad="1"/>
<connect gate="G$1" pin="2" pad="2"/>
<connect gate="G$1" pin="3" pad="3"/>
<connect gate="G$1" pin="4" pad="4"/>
</connects>
<technologies>
<technology name=""/>
</technologies>
</device>
<device name="SMD2" package="1X04-1MM-RA">
<connects>
<connect gate="G$1" pin="1" pad="1"/>
<connect gate="G$1" pin="2" pad="2"/>
<connect gate="G$1" pin="3" pad="3"/>
<connect gate="G$1" pin="4" pad="4"/>
</connects>
<technologies>
<technology name=""/>
</technologies>
</device>
<device name="SMD_STRAIGHT_COMBO" package="1X04_SMD_STRAIGHT_COMBO">
<connects>
<connect gate="G$1" pin="1" pad="1"/>
<connect gate="G$1" pin="2" pad="2"/>
<connect gate="G$1" pin="3" pad="3"/>
<connect gate="G$1" pin="4" pad="4"/>
</connects>
<technologies>
<technology name=""/>
</technologies>
</device>
</devices>
</deviceset>
<deviceset name="RJ45-8">
<description>&lt;b&gt;RJ45 Jack&lt;/b&gt;
Simple RJ45, 8-pin connection - connector for common Cat5, Cat5e, and Cat6 Ethernet cables. Footprint not yet proven in production. Connector sku is PRT-00643; Breakout PCB sku is BOB-00716.</description>
<gates>
<gate name="G$1" symbol="RJ45-8" x="0" y="0"/>
</gates>
<devices>
<device name="PTH" package="RJ45-8">
<connects>
<connect gate="G$1" pin="1" pad="1"/>
<connect gate="G$1" pin="2" pad="2"/>
<connect gate="G$1" pin="3" pad="3"/>
<connect gate="G$1" pin="4" pad="4"/>
<connect gate="G$1" pin="5" pad="5"/>
<connect gate="G$1" pin="6" pad="6"/>
<connect gate="G$1" pin="7" pad="7"/>
<connect gate="G$1" pin="8" pad="8"/>
</connects>
<technologies>
<technology name=""/>
</technologies>
</device>
</devices>
</deviceset>
</devicesets>
</library>
<library name="frames">
<description>&lt;b&gt;Frames for Sheet and Layout&lt;/b&gt;</description>
<packages>
</packages>
<symbols>
<symbol name="LETTER_L">
<frame x1="0" y1="0" x2="248.92" y2="185.42" columns="12" rows="17" layer="94" border-left="no" border-top="no" border-right="no" border-bottom="no"/>
</symbol>
<symbol name="DOCFIELD">
<wire x1="0" y1="0" x2="71.12" y2="0" width="0.1016" layer="94"/>
<wire x1="101.6" y1="15.24" x2="87.63" y2="15.24" width="0.1016" layer="94"/>
<wire x1="0" y1="0" x2="0" y2="5.08" width="0.1016" layer="94"/>
<wire x1="0" y1="5.08" x2="71.12" y2="5.08" width="0.1016" layer="94"/>
<wire x1="0" y1="5.08" x2="0" y2="15.24" width="0.1016" layer="94"/>
<wire x1="101.6" y1="15.24" x2="101.6" y2="5.08" width="0.1016" layer="94"/>
<wire x1="71.12" y1="5.08" x2="71.12" y2="0" width="0.1016" layer="94"/>
<wire x1="71.12" y1="5.08" x2="87.63" y2="5.08" width="0.1016" layer="94"/>
<wire x1="71.12" y1="0" x2="101.6" y2="0" width="0.1016" layer="94"/>
<wire x1="87.63" y1="15.24" x2="87.63" y2="5.08" width="0.1016" layer="94"/>
<wire x1="87.63" y1="15.24" x2="0" y2="15.24" width="0.1016" layer="94"/>
<wire x1="87.63" y1="5.08" x2="101.6" y2="5.08" width="0.1016" layer="94"/>
<wire x1="101.6" y1="5.08" x2="101.6" y2="0" width="0.1016" layer="94"/>
<wire x1="0" y1="15.24" x2="0" y2="22.86" width="0.1016" layer="94"/>
<wire x1="101.6" y1="35.56" x2="0" y2="35.56" width="0.1016" layer="94"/>
<wire x1="101.6" y1="35.56" x2="101.6" y2="22.86" width="0.1016" layer="94"/>
<wire x1="0" y1="22.86" x2="101.6" y2="22.86" width="0.1016" layer="94"/>
<wire x1="0" y1="22.86" x2="0" y2="35.56" width="0.1016" layer="94"/>
<wire x1="101.6" y1="22.86" x2="101.6" y2="15.24" width="0.1016" layer="94"/>
<text x="1.27" y="1.27" size="2.54" layer="94">Date:</text>
<text x="12.7" y="1.27" size="2.54" layer="94">&gt;LAST_DATE_TIME</text>
<text x="72.39" y="1.27" size="2.54" layer="94">Sheet:</text>
<text x="86.36" y="1.27" size="2.54" layer="94">&gt;SHEET</text>
<text x="88.9" y="11.43" size="2.54" layer="94">REV:</text>
<text x="1.27" y="19.05" size="2.54" layer="94">TITLE:</text>
<text x="1.27" y="11.43" size="2.54" layer="94">Document Number:</text>
<text x="17.78" y="19.05" size="2.54" layer="94">&gt;DRAWING_NAME</text>
</symbol>
</symbols>
<devicesets>
<deviceset name="LETTER_L" prefix="FRAME" uservalue="yes">
<description>&lt;b&gt;FRAME&lt;/b&gt;&lt;p&gt;
LETTER landscape</description>
<gates>
<gate name="G$1" symbol="LETTER_L" x="0" y="0"/>
<gate name="G$2" symbol="DOCFIELD" x="147.32" y="0" addlevel="must"/>
</gates>
<devices>
<device name="">
<technologies>
<technology name=""/>
</technologies>
</device>
</devices>
</deviceset>
</devicesets>
</library>
<library name="PJS">
<packages>
<package name="3.2-MOUNT">
<hole x="0" y="0" drill="3.2"/>
<wire x1="4" y1="4.2" x2="-4" y2="4.2" width="0.127" layer="21"/>
<wire x1="-4" y1="4.2" x2="-4" y2="-4" width="0.127" layer="21"/>
<wire x1="-4" y1="-4" x2="4" y2="-4" width="0.127" layer="21"/>
<wire x1="4" y1="-4" x2="4" y2="4.2" width="0.127" layer="21"/>
<rectangle x1="-4" y1="-4" x2="4" y2="4" layer="41"/>
<rectangle x1="-4" y1="-4" x2="4" y2="4" layer="39"/>
<rectangle x1="-4" y1="-4" x2="4" y2="4" layer="40"/>
<rectangle x1="-4" y1="-4" x2="4" y2="4" layer="42"/>
</package>
</packages>
<symbols>
<symbol name="3.2-MOUNT">
<wire x1="4" y1="-4" x2="4" y2="4" width="0.254" layer="94"/>
<wire x1="4" y1="4" x2="-4" y2="4" width="0.254" layer="94"/>
<wire x1="-4" y1="4" x2="-4" y2="-4" width="0.254" layer="94"/>
<wire x1="-4" y1="-4" x2="4" y2="-4" width="0.254" layer="94"/>
<circle x="0" y="0" radius="1.6" width="0.254" layer="94"/>
</symbol>
</symbols>
<devicesets>
<deviceset name="3.2-MOUNT" prefix="MT">
<gates>
<gate name="G$1" symbol="3.2-MOUNT" x="0" y="2.54"/>
</gates>
<devices>
<device name="" package="3.2-MOUNT">
<technologies>
<technology name=""/>
</technologies>
</device>
</devices>
</deviceset>
</devicesets>
</library>
</libraries>
<attributes>
</attributes>
<variantdefs>
</variantdefs>
<classes>
<class number="0" name="default" width="0.635" drill="0">
</class>
<class number="1" name="power" width="0.635" drill="0">
</class>
</classes>
<parts>
<part name="S1" library="SparkFun-Electromechanical" deviceset="SWITCH-MOMENTARY-2" device="PTH"/>
<part name="S2" library="SparkFun-Electromechanical" deviceset="SWITCH-MOMENTARY-2" device="PTH"/>
<part name="JP2" library="SparkFun-Connectors" deviceset="RJ45-8" device="PTH" value="SHIELD"/>
<part name="S3" library="SparkFun-Electromechanical" deviceset="SWITCH-MOMENTARY-2" device="PTH"/>
<part name="S4" library="SparkFun-Electromechanical" deviceset="SWITCH-MOMENTARY-2" device="PTH"/>
<part name="FRAME1" library="frames" deviceset="LETTER_L" device=""/>
<part name="MT1" library="PJS" deviceset="3.2-MOUNT" device=""/>
<part name="MT2" library="PJS" deviceset="3.2-MOUNT" device=""/>
<part name="MT3" library="PJS" deviceset="3.2-MOUNT" device=""/>
<part name="MT4" library="PJS" deviceset="3.2-MOUNT" device=""/>
<part name="JP1" library="SparkFun-Connectors" deviceset="M04" device="PTH" value="LCD"/>
</parts>
<sheets>
<sheet>
<plain>
<text x="127" y="-45.72" size="2.54" layer="94">1.10</text>
<text x="43.18" y="-45.72" size="2.54" layer="94">pete@soper.us  SDevCS LLC</text>
<text x="22.86" y="58.42" size="2.54" layer="94">To Arduino Shield</text>
<text x="22.86" y="25.4" size="2.54" layer="94">To LCD Display</text>
<text x="-71.12" y="86.36" size="2.54" layer="94">"Start"</text>
<text x="-71.12" y="48.26" size="2.54" layer="94">"Stop"</text>
<text x="-71.12" y="73.66" size="2.54" layer="94">Spare 1</text>
<text x="-71.12" y="60.96" size="2.54" layer="94">Spare 2</text>
<text x="38.1" y="-22.86" size="2.54" layer="94" font="vector">Creative Commons Universal License (CCO 1.0)</text>
<text x="38.1" y="-27.94" size="2.286" layer="94" font="vector">https://creativecommons.org/publicdomain/zero/1.0/</text>
</plain>
<instances>
<instance part="S1" gate="G$1" x="-35.56" y="86.36"/>
<instance part="S2" gate="G$1" x="-35.56" y="73.66"/>
<instance part="JP2" gate="G$1" x="40.64" y="76.2"/>
<instance part="S3" gate="G$1" x="-35.56" y="60.96"/>
<instance part="S4" gate="G$1" x="-35.56" y="48.26"/>
<instance part="FRAME1" gate="G$1" x="-111.76" y="-53.34"/>
<instance part="FRAME1" gate="G$2" x="35.56" y="-53.34"/>
<instance part="MT1" gate="G$1" x="99.06" y="-7.62"/>
<instance part="MT2" gate="G$1" x="109.22" y="-7.62"/>
<instance part="MT3" gate="G$1" x="119.38" y="-7.62"/>
<instance part="MT4" gate="G$1" x="129.54" y="-7.62"/>
<instance part="JP1" gate="G$1" x="38.1" y="40.64" rot="R180"/>
</instances>
<busses>
</busses>
<nets>
<net name="GND" class="1">
<segment>
<pinref part="JP2" gate="G$1" pin="1"/>
<wire x1="27.94" y1="86.36" x2="22.86" y2="86.36" width="0.1524" layer="91"/>
<label x="20.32" y="86.36" size="1.778" layer="95"/>
</segment>
<segment>
<wire x1="33.02" y1="43.18" x2="27.94" y2="43.18" width="0.1524" layer="91"/>
<label x="30.48" y="43.18" size="1.778" layer="95" rot="MR0"/>
<pinref part="JP1" gate="G$1" pin="1"/>
</segment>
<segment>
<pinref part="S1" gate="G$1" pin="2"/>
<pinref part="S2" gate="G$1" pin="2"/>
<wire x1="-30.48" y1="86.36" x2="-30.48" y2="73.66" width="0.1524" layer="91"/>
<pinref part="S3" gate="G$1" pin="2"/>
<wire x1="-30.48" y1="73.66" x2="-30.48" y2="60.96" width="0.1524" layer="91"/>
<junction x="-30.48" y="73.66"/>
<pinref part="S4" gate="G$1" pin="2"/>
<wire x1="-30.48" y1="60.96" x2="-30.48" y2="48.26" width="0.1524" layer="91"/>
<junction x="-30.48" y="60.96"/>
<wire x1="-30.48" y1="48.26" x2="-30.48" y2="38.1" width="0.1524" layer="91"/>
<junction x="-30.48" y="48.26"/>
<wire x1="-30.48" y1="38.1" x2="-25.4" y2="38.1" width="0.1524" layer="91"/>
<label x="-25.4" y="38.1" size="1.778" layer="95"/>
</segment>
</net>
<net name="5V" class="0">
<segment>
<pinref part="JP2" gate="G$1" pin="2"/>
<wire x1="27.94" y1="83.82" x2="22.86" y2="83.82" width="0.1524" layer="91"/>
<label x="20.32" y="83.82" size="1.778" layer="95"/>
</segment>
<segment>
<wire x1="33.02" y1="40.64" x2="27.94" y2="40.64" width="0.1524" layer="91"/>
<label x="30.48" y="40.64" size="1.778" layer="95" rot="MR0"/>
<pinref part="JP1" gate="G$1" pin="2"/>
</segment>
</net>
<net name="A0" class="0">
<segment>
<pinref part="JP2" gate="G$1" pin="3"/>
<wire x1="27.94" y1="81.28" x2="22.86" y2="81.28" width="0.1524" layer="91"/>
<label x="20.32" y="81.28" size="1.778" layer="95"/>
</segment>
<segment>
<pinref part="S1" gate="G$1" pin="1"/>
<wire x1="-40.64" y1="86.36" x2="-48.26" y2="86.36" width="0.1524" layer="91"/>
<label x="-48.26" y="86.36" size="1.778" layer="95"/>
</segment>
</net>
<net name="A1" class="0">
<segment>
<pinref part="JP2" gate="G$1" pin="4"/>
<wire x1="27.94" y1="78.74" x2="22.86" y2="78.74" width="0.1524" layer="91"/>
<label x="20.32" y="78.74" size="1.778" layer="95"/>
</segment>
<segment>
<pinref part="S2" gate="G$1" pin="1"/>
<wire x1="-40.64" y1="73.66" x2="-48.26" y2="73.66" width="0.1524" layer="91"/>
<label x="-48.26" y="73.66" size="1.778" layer="95"/>
</segment>
</net>
<net name="A2" class="0">
<segment>
<pinref part="JP2" gate="G$1" pin="5"/>
<wire x1="27.94" y1="76.2" x2="22.86" y2="76.2" width="0.1524" layer="91"/>
<label x="20.32" y="76.2" size="1.778" layer="95"/>
</segment>
<segment>
<pinref part="S3" gate="G$1" pin="1"/>
<wire x1="-40.64" y1="60.96" x2="-48.26" y2="60.96" width="0.1524" layer="91"/>
<label x="-48.26" y="60.96" size="1.778" layer="95"/>
</segment>
</net>
<net name="A3" class="0">
<segment>
<pinref part="JP2" gate="G$1" pin="6"/>
<wire x1="27.94" y1="73.66" x2="22.86" y2="73.66" width="0.1524" layer="91"/>
<label x="20.32" y="73.66" size="1.778" layer="95"/>
</segment>
<segment>
<pinref part="S4" gate="G$1" pin="1"/>
<wire x1="-40.64" y1="48.26" x2="-48.26" y2="48.26" width="0.1524" layer="91"/>
<label x="-48.26" y="48.26" size="1.778" layer="95"/>
</segment>
</net>
<net name="A4-SDA" class="0">
<segment>
<pinref part="JP2" gate="G$1" pin="7"/>
<wire x1="27.94" y1="71.12" x2="22.86" y2="71.12" width="0.1524" layer="91"/>
<label x="20.32" y="71.12" size="1.778" layer="95"/>
</segment>
<segment>
<wire x1="33.02" y1="38.1" x2="27.94" y2="38.1" width="0.1524" layer="91"/>
<label x="30.48" y="38.1" size="1.778" layer="95" rot="MR0"/>
<pinref part="JP1" gate="G$1" pin="3"/>
</segment>
</net>
<net name="A5-SCL" class="0">
<segment>
<pinref part="JP2" gate="G$1" pin="8"/>
<wire x1="27.94" y1="68.58" x2="22.86" y2="68.58" width="0.1524" layer="91"/>
<label x="20.32" y="68.58" size="1.778" layer="95"/>
</segment>
<segment>
<wire x1="33.02" y1="35.56" x2="27.94" y2="35.56" width="0.1524" layer="91"/>
<label x="30.48" y="35.56" size="1.778" layer="95" rot="MR0"/>
<pinref part="JP1" gate="G$1" pin="4"/>
</segment>
</net>
</nets>
</sheet>
</sheets>
<errors>
<approved hash="113,1,12.596,39.266,FRAME1,,,,,"/>
</errors>
</schematic>
</drawing>
</eagle>
